(module BNC-Right-Angle (layer F.Cu) (tedit 5FA2D948)
  (fp_text reference REF** (at 0.5 -2.5) (layer F.SilkS)
    (effects (font (size 1 1) (thickness 0.15)))
  )
  (fp_text value BNC-Right-Angle (at -7.8 -0.4 90) (layer F.Fab)
    (effects (font (size 1 1) (thickness 0.15)))
  )
  (fp_line (start -3.5 4.5) (end 3.5 4.5) (layer F.SilkS) (width 0.12))
  (fp_line (start -6.5 -6.5) (end 6.5 -6.5) (layer F.CrtYd) (width 0.05))
  (fp_line (start -4.5 -3.5) (end -4.5 3.5) (layer F.SilkS) (width 0.12))
  (fp_line (start 5.5 -4) (end 5.5 4) (layer F.Fab) (width 0.1))
  (fp_line (start 6.5 6.5) (end -6.5 6.5) (layer F.CrtYd) (width 0.05))
  (fp_line (start -4 -5.5) (end 4 -5.5) (layer F.Fab) (width 0.1))
  (fp_line (start -6.5 -6.5) (end -6.5 6.5) (layer F.CrtYd) (width 0.05))
  (fp_line (start -5 -4) (end -5 4) (layer F.Fab) (width 0.1))
  (fp_line (start -4 5) (end 4 5) (layer F.Fab) (width 0.1))
  (fp_line (start 6.5 6.5) (end 6.5 -6.5) (layer F.CrtYd) (width 0.05))
  (fp_line (start -3.4 -5) (end 3.5 -5) (layer F.SilkS) (width 0.12))
  (fp_line (start 5 -3.5) (end 5 3.5) (layer F.SilkS) (width 0.12))
  (fp_line (start -5 -17.8) (end -5 -6) (layer F.Fab) (width 0.1))
  (fp_line (start 5.5 -17.8) (end 5.5 -6) (layer F.Fab) (width 0.1))
  (fp_line (start -5 -17.8) (end 5.5 -17.8) (layer F.Fab) (width 0.1))
  (pad 1 thru_hole circle (at 0 0) (size 2.5 2.5) (drill 1.5) (layers *.Cu *.Mask))
  (pad 2 thru_hole circle (at 5 -5) (size 2.5 2.5) (drill 1.7) (layers *.Cu *.Mask))
  (pad 2 thru_hole circle (at 5 5) (size 2.5 2.5) (drill 1.7) (layers *.Cu *.Mask))
  (pad 2 thru_hole circle (at -5 -5) (size 2.5 2.5) (drill 1.7) (layers *.Cu *.Mask))
  (pad 2 thru_hole circle (at -5 5) (size 2.5 2.5) (drill 1.7) (layers *.Cu *.Mask))
)
