EESchema Schematic File Version 4
EELAYER 30 0
EELAYER END
$Descr A4 11693 8268
encoding utf-8
Sheet 1 1
Title ""
Date ""
Rev ""
Comp ""
Comment1 ""
Comment2 ""
Comment3 ""
Comment4 ""
$EndDescr
$Comp
L MCU_Microchip_ATmega:ATmega328P-AU U1
U 1 1 5FA38697
P 3550 4100
F 0 "U1" H 3100 5550 50  0000 C CNN
F 1 "ATmega328P-AU" V 3550 4250 50  0000 C CNN
F 2 "Package_QFP:TQFP-32_7x7mm_P0.8mm" H 3550 4100 50  0001 C CIN
F 3 "http://ww1.microchip.com/downloads/en/DeviceDoc/ATmega328_P%20AVR%20MCU%20with%20picoPower%20Technology%20Data%20Sheet%2040001984A.pdf" H 3550 4100 50  0001 C CNN
	1    3550 4100
	1    0    0    -1  
$EndComp
$Comp
L Interface_Expansion:MCP23S17_SS U2
U 1 1 5FA3A5AB
P 7450 4050
F 0 "U2" H 7000 5000 50  0000 C CNN
F 1 "MCP23S17_SS" V 7450 4000 50  0000 C CNN
F 2 "Package_SO:SSOP-28_5.3x10.2mm_P0.65mm" H 7650 3050 50  0001 L CNN
F 3 "http://ww1.microchip.com/downloads/en/DeviceDoc/20001952C.pdf" H 7650 2950 50  0001 L CNN
	1    7450 4050
	1    0    0    -1  
$EndComp
$Comp
L Connector_Generic:Conn_02x15_Odd_Even J4
U 1 1 5FA3F4BD
P 9050 4150
F 0 "J4" H 9100 4950 50  0000 C CNN
F 1 "CPU" V 9100 4150 50  0000 C CNN
F 2 "Connector_PinHeader_2.54mm:PinHeader_2x15_P2.54mm_Vertical" H 9050 4150 50  0001 C CNN
F 3 "~" H 9050 4150 50  0001 C CNN
	1    9050 4150
	1    0    0    -1  
$EndComp
$Comp
L Switch:SW_Push SW1
U 1 1 5FA4DF5D
P 4900 5000
F 0 "SW1" V 4750 5100 50  0000 C CNN
F 1 "PTS810" H 4900 4950 50  0000 C CNN
F 2 "Button_Switch_SMD:SW_SPST_PTS810" H 4900 5200 50  0001 C CNN
F 3 "~" H 4900 5200 50  0001 C CNN
	1    4900 5000
	0    1    1    0   
$EndComp
$Comp
L Device:C_Small C5
U 1 1 5FA50EF8
P 7550 2900
F 0 "C5" V 7450 2900 50  0000 C CNN
F 1 "100n" V 7500 3050 50  0000 C CNN
F 2 "Capacitor_SMD:C_0603_1608Metric" H 7550 2900 50  0001 C CNN
F 3 "~" H 7550 2900 50  0001 C CNN
	1    7550 2900
	0    1    1    0   
$EndComp
Text Label 4400 3800 2    50   ~ 0
A2
Text Label 4400 3900 2    50   ~ 0
A3
Text Label 4400 4000 2    50   ~ 0
A4
Text Label 4400 4100 2    50   ~ 0
A5
Text Label 4400 4200 2    50   ~ 0
A6
Text Label 4400 4300 2    50   ~ 0
A7
Text Label 4400 4900 2    50   ~ 0
A0
Text Label 4400 5000 2    50   ~ 0
A1
Wire Wire Line
	4150 4900 4400 4900
Wire Wire Line
	4150 5000 4400 5000
Wire Wire Line
	4150 3800 4400 3800
Wire Wire Line
	4150 3900 4400 3900
Wire Wire Line
	4150 4000 4400 4000
Wire Wire Line
	4150 4100 4400 4100
Wire Wire Line
	4150 4200 4400 4200
Wire Wire Line
	4150 4300 4400 4300
Text Label 8350 4150 2    50   ~ 0
DQ0
Text Label 8350 4250 2    50   ~ 0
DQ1
Text Label 8350 4350 2    50   ~ 0
DQ2
Text Label 8350 4450 2    50   ~ 0
DQ3
Text Label 8350 4550 2    50   ~ 0
DQ4
Text Label 8350 4650 2    50   ~ 0
DQ5
Text Label 8350 4750 2    50   ~ 0
DQ6
Text Label 8350 4850 2    50   ~ 0
DQ7
Text Label 8350 3250 2    50   ~ 0
DQ8
Text Label 8350 3350 2    50   ~ 0
DQ9
Text Label 8350 3450 2    50   ~ 0
DQ10
Text Label 8350 3550 2    50   ~ 0
DQ11
Text Label 8350 3650 2    50   ~ 0
DQ12
Text Label 8350 3750 2    50   ~ 0
DQ13
Text Label 8350 3850 2    50   ~ 0
DQ14
Text Label 8350 3950 2    50   ~ 0
DQ15
Wire Wire Line
	8150 3250 8350 3250
Wire Wire Line
	8150 3350 8350 3350
Wire Wire Line
	8150 3450 8350 3450
Wire Wire Line
	8150 3550 8350 3550
Wire Wire Line
	8150 3650 8350 3650
Wire Wire Line
	8150 3750 8350 3750
Wire Wire Line
	8150 3850 8350 3850
Wire Wire Line
	8150 3950 8350 3950
Wire Wire Line
	8150 4150 8350 4150
Wire Wire Line
	8150 4250 8350 4250
Wire Wire Line
	8150 4350 8350 4350
Wire Wire Line
	8150 4450 8350 4450
Wire Wire Line
	8150 4550 8350 4550
Wire Wire Line
	8150 4650 8350 4650
Wire Wire Line
	8150 4750 8350 4750
Wire Wire Line
	8150 4850 8350 4850
Text Label 8650 4150 0    50   ~ 0
DQ0
Text Label 9550 4150 2    50   ~ 0
DQ1
Text Label 8650 4250 0    50   ~ 0
DQ2
Text Label 9550 4250 2    50   ~ 0
DQ3
Text Label 8650 4350 0    50   ~ 0
DQ4
Text Label 9550 4350 2    50   ~ 0
DQ5
Text Label 8650 4450 0    50   ~ 0
DQ6
Text Label 9550 4450 2    50   ~ 0
DQ7
Wire Wire Line
	8850 4150 8650 4150
Wire Wire Line
	9350 4150 9550 4150
Wire Wire Line
	8850 4250 8650 4250
Wire Wire Line
	9350 4250 9550 4250
Wire Wire Line
	8850 4350 8650 4350
Wire Wire Line
	9350 4350 9550 4350
Wire Wire Line
	8850 4450 8650 4450
Wire Wire Line
	9350 4450 9550 4450
Text Label 8650 4550 0    50   ~ 0
DQ8
Text Label 9550 4550 2    50   ~ 0
DQ9
Text Label 9550 4650 2    50   ~ 0
DQ11
Text Label 8650 4750 0    50   ~ 0
DQ12
Text Label 9550 4750 2    50   ~ 0
DQ13
Text Label 9550 4850 2    50   ~ 0
DQ15
Wire Wire Line
	8850 4550 8650 4550
Wire Wire Line
	9350 4550 9550 4550
Wire Wire Line
	9350 4650 9550 4650
Wire Wire Line
	8850 4750 8650 4750
Wire Wire Line
	9350 4750 9550 4750
Wire Wire Line
	9350 4850 9550 4850
$Comp
L power:GNDREF #PWR0101
U 1 1 5FAA1BA8
P 3550 5750
F 0 "#PWR0101" H 3550 5500 50  0001 C CNN
F 1 "GNDREF" H 3555 5577 50  0001 C CNN
F 2 "" H 3550 5750 50  0001 C CNN
F 3 "" H 3550 5750 50  0001 C CNN
	1    3550 5750
	1    0    0    -1  
$EndComp
Wire Wire Line
	3550 5600 3550 5650
$Comp
L power:GNDREF #PWR0102
U 1 1 5FAA4F3C
P 7450 5150
F 0 "#PWR0102" H 7450 4900 50  0001 C CNN
F 1 "GNDREF" H 7455 4977 50  0001 C CNN
F 2 "" H 7450 5150 50  0001 C CNN
F 3 "" H 7450 5150 50  0001 C CNN
	1    7450 5150
	1    0    0    -1  
$EndComp
$Comp
L power:GNDREF #PWR0103
U 1 1 5FAAB223
P 7650 2900
F 0 "#PWR0103" H 7650 2650 50  0001 C CNN
F 1 "GNDREF" H 7655 2727 50  0001 C CNN
F 2 "" H 7650 2900 50  0001 C CNN
F 3 "" H 7650 2900 50  0001 C CNN
	1    7650 2900
	1    0    0    -1  
$EndComp
Wire Wire Line
	7450 2950 7450 2900
$Comp
L power:+3V3 #PWR0104
U 1 1 5FAAD461
P 7450 2900
F 0 "#PWR0104" H 7450 2750 50  0001 C CNN
F 1 "+3V3" H 7400 3050 50  0000 C CNN
F 2 "" H 7450 2900 50  0001 C CNN
F 3 "" H 7450 2900 50  0001 C CNN
	1    7450 2900
	1    0    0    -1  
$EndComp
Connection ~ 7450 2900
$Comp
L Device:C_Small C1
U 1 1 5FAB3154
P 3650 2200
F 0 "C1" V 3550 2200 50  0000 C CNN
F 1 "100n" V 3600 2350 50  0000 C CNN
F 2 "Capacitor_SMD:C_0603_1608Metric" H 3650 2200 50  0001 C CNN
F 3 "~" H 3650 2200 50  0001 C CNN
	1    3650 2200
	0    1    1    0   
$EndComp
$Comp
L power:+3V3 #PWR0105
U 1 1 5FAB3161
P 3550 2200
F 0 "#PWR0105" H 3550 2050 50  0001 C CNN
F 1 "+3V3" H 3500 2350 50  0000 C CNN
F 2 "" H 3550 2200 50  0001 C CNN
F 3 "" H 3550 2200 50  0001 C CNN
	1    3550 2200
	1    0    0    -1  
$EndComp
Connection ~ 3550 2200
Wire Wire Line
	3550 2600 3650 2600
$Comp
L Device:C_Small C2
U 1 1 5FABA297
P 3650 2450
F 0 "C2" V 3550 2450 50  0000 C CNN
F 1 "100n" V 3600 2650 50  0000 C CNN
F 2 "Capacitor_SMD:C_0603_1608Metric" H 3650 2450 50  0001 C CNN
F 3 "~" H 3650 2450 50  0001 C CNN
	1    3650 2450
	0    1    1    0   
$EndComp
$Comp
L power:GNDREF #PWR0106
U 1 1 5FABA29D
P 3750 2450
F 0 "#PWR0106" H 3750 2200 50  0001 C CNN
F 1 "GNDREF" H 3755 2277 50  0001 C CNN
F 2 "" H 3750 2450 50  0001 C CNN
F 3 "" H 3750 2450 50  0001 C CNN
	1    3750 2450
	1    0    0    -1  
$EndComp
Text Label 8650 3550 0    50   ~ 0
~ce
Text Label 9550 3550 2    50   ~ 0
~we
Text Label 8650 3650 0    50   ~ 0
~oe
Text Label 9550 3650 2    50   ~ 0
a_sel
$Comp
L power:GNDREF #PWR0107
U 1 1 5FA5B150
P 8750 3300
F 0 "#PWR0107" H 8750 3050 50  0001 C CNN
F 1 "GNDREF" H 8755 3127 50  0001 C CNN
F 2 "" H 8750 3300 50  0001 C CNN
F 3 "" H 8750 3300 50  0001 C CNN
	1    8750 3300
	1    0    0    -1  
$EndComp
Wire Wire Line
	8750 3300 8850 3300
Wire Wire Line
	8850 3300 8850 3450
Text Label 8650 3850 0    50   ~ 0
A2
Text Label 9550 3850 2    50   ~ 0
A3
Text Label 8650 3950 0    50   ~ 0
A4
Text Label 9550 3950 2    50   ~ 0
A5
Text Label 8650 4050 0    50   ~ 0
A6
Text Label 9550 4050 2    50   ~ 0
A7
Text Label 8650 3750 0    50   ~ 0
A0
Text Label 9550 3750 2    50   ~ 0
A1
Wire Wire Line
	8850 3750 8650 3750
Wire Wire Line
	9350 3750 9550 3750
Wire Wire Line
	8850 3850 8650 3850
Wire Wire Line
	9350 3850 9550 3850
Wire Wire Line
	8850 3950 8650 3950
Wire Wire Line
	9350 3950 9550 3950
Wire Wire Line
	8850 4050 8650 4050
Wire Wire Line
	9350 4050 9550 4050
Wire Wire Line
	8650 3550 8850 3550
Wire Wire Line
	9550 3550 9350 3550
Wire Wire Line
	8650 3650 8850 3650
Wire Wire Line
	9350 3650 9550 3650
Wire Wire Line
	8850 4650 8650 4650
Text Label 8650 4650 0    50   ~ 0
DQ10
Wire Wire Line
	8850 4850 8650 4850
Text Label 8650 4850 0    50   ~ 0
DQ14
$Comp
L power:GNDREF #PWR0108
U 1 1 5FB4D310
P 2950 3200
F 0 "#PWR0108" H 2950 2950 50  0001 C CNN
F 1 "GNDREF" H 2955 3027 50  0001 C CNN
F 2 "" H 2950 3200 50  0001 C CNN
F 3 "" H 2950 3200 50  0001 C CNN
	1    2950 3200
	1    0    0    -1  
$EndComp
Wire Wire Line
	2950 3200 2950 3100
Connection ~ 2950 3200
$Comp
L power:+3V3 #PWR0109
U 1 1 5FB4F2A7
P 2900 2900
F 0 "#PWR0109" H 2900 2750 50  0001 C CNN
F 1 "+3V3" H 2850 3050 50  0000 C CNN
F 2 "" H 2900 2900 50  0001 C CNN
F 3 "" H 2900 2900 50  0001 C CNN
	1    2900 2900
	1    0    0    -1  
$EndComp
Wire Wire Line
	2900 2900 2950 2900
Wire Wire Line
	3550 2200 3550 2450
Connection ~ 3550 2600
Connection ~ 3550 2450
Wire Wire Line
	3550 2450 3550 2600
Wire Wire Line
	3750 2450 3750 2200
Connection ~ 3750 2450
$Comp
L Device:R_Small_US R1
U 1 1 5FA506F2
P 4550 4250
F 0 "R1" H 4618 4296 50  0000 L CNN
F 1 "10k" H 4618 4205 50  0000 L CNN
F 2 "Resistor_SMD:R_0603_1608Metric" H 4550 4250 50  0001 C CNN
F 3 "~" H 4550 4250 50  0001 C CNN
	1    4550 4250
	1    0    0    -1  
$EndComp
$Comp
L power:+3V3 #PWR0110
U 1 1 5FB8CAE7
P 4550 4150
F 0 "#PWR0110" H 4550 4000 50  0001 C CNN
F 1 "+3V3" H 4550 4300 50  0000 C CNN
F 2 "" H 4550 4150 50  0001 C CNN
F 3 "" H 4550 4150 50  0001 C CNN
	1    4550 4150
	1    0    0    -1  
$EndComp
Wire Wire Line
	4550 4350 4550 4400
Wire Wire Line
	4550 4400 4150 4400
Text Label 4400 4400 2    50   ~ 0
~RST
Text Label 4400 3400 2    50   ~ 0
SCK
Text Label 4400 3200 2    50   ~ 0
MOSI
Text Label 4400 3300 2    50   ~ 0
MISO
Text Label 4400 3600 2    50   ~ 0
led1
Wire Wire Line
	4150 3600 4400 3600
Text Label 4400 2900 2    50   ~ 0
~oe
Text Label 4400 3000 2    50   ~ 0
a_sel
Wire Wire Line
	4150 5200 4400 5200
Wire Wire Line
	4400 5300 4150 5300
Text Label 4400 5300 2    50   ~ 0
~we
Text Label 4400 5200 2    50   ~ 0
~ce
Wire Wire Line
	4150 5100 4400 5100
Text Label 4400 5100 2    50   ~ 0
led0
Wire Wire Line
	4400 3000 4150 3000
Wire Wire Line
	4150 2900 4400 2900
Wire Wire Line
	4150 3100 4400 3100
Text Label 4400 3100 2    50   ~ 0
~io_cs
Wire Wire Line
	4400 3400 4150 3400
Wire Wire Line
	4150 3300 4400 3300
Wire Wire Line
	4400 3200 4150 3200
$Comp
L Connector_Generic:Conn_01x06 J3
U 1 1 5FC4DCE0
P 5600 4700
F 0 "J3" H 5550 4300 50  0000 L CNN
F 1 "UART" V 5700 4550 50  0000 L CNN
F 2 "Connector_PinHeader_2.54mm:PinHeader_1x06_P2.54mm_Vertical" H 5600 4700 50  0001 C CNN
F 3 "~" H 5600 4700 50  0001 C CNN
	1    5600 4700
	1    0    0    1   
$EndComp
$Comp
L power:GNDREF #PWR0111
U 1 1 5FC5B305
P 5400 4900
F 0 "#PWR0111" H 5400 4650 50  0001 C CNN
F 1 "GNDREF" H 5405 4727 50  0001 C CNN
F 2 "" H 5400 4900 50  0001 C CNN
F 3 "" H 5400 4900 50  0001 C CNN
	1    5400 4900
	1    0    0    -1  
$EndComp
Text Label 4500 4600 2    50   ~ 0
RX_MCU
Text Label 4500 4700 2    50   ~ 0
TX_MCU
$Comp
L Device:C_Small C3
U 1 1 5FCA6846
P 4650 5000
F 0 "C3" V 4600 5100 50  0000 C CNN
F 1 "100n" V 4600 4850 50  0000 C CNN
F 2 "Capacitor_SMD:C_0603_1608Metric" H 4650 5000 50  0001 C CNN
F 3 "~" H 4650 5000 50  0001 C CNN
	1    4650 5000
	1    0    0    -1  
$EndComp
Wire Wire Line
	4650 4900 4650 4800
Wire Wire Line
	4650 4800 4900 4800
Wire Wire Line
	4650 5100 4650 5200
Wire Wire Line
	4650 5200 4900 5200
$Comp
L power:GNDREF #PWR0112
U 1 1 5FCB1C78
P 4900 5200
F 0 "#PWR0112" H 4900 4950 50  0001 C CNN
F 1 "GNDREF" H 4905 5027 50  0001 C CNN
F 2 "" H 4900 5200 50  0001 C CNN
F 3 "" H 4900 5200 50  0001 C CNN
	1    4900 5200
	1    0    0    -1  
$EndComp
Connection ~ 4900 5200
Wire Wire Line
	4150 4800 4650 4800
Connection ~ 4650 4800
Wire Wire Line
	4150 3500 4500 3500
Text Label 6550 3350 0    50   ~ 0
SCK
Wire Wire Line
	6550 3350 6750 3350
Text Label 6550 3450 0    50   ~ 0
MOSI
Wire Wire Line
	6550 3450 6750 3450
Text Label 6550 3550 0    50   ~ 0
MISO
Wire Wire Line
	6550 3550 6750 3550
$Comp
L power:GNDREF #PWR0114
U 1 1 5FD24D48
P 6750 4850
F 0 "#PWR0114" H 6750 4600 50  0001 C CNN
F 1 "GNDREF" H 6755 4677 50  0001 C CNN
F 2 "" H 6750 4850 50  0001 C CNN
F 3 "" H 6750 4850 50  0001 C CNN
	1    6750 4850
	1    0    0    -1  
$EndComp
Wire Wire Line
	6750 4850 6750 4750
Connection ~ 6750 4850
Connection ~ 6750 4750
Wire Wire Line
	6750 4750 6750 4650
Connection ~ 6700 3250
Wire Wire Line
	6350 3250 6700 3250
Text Label 6350 3250 0    50   ~ 0
~io_cs
Wire Wire Line
	6700 3250 6750 3250
Wire Wire Line
	6700 3100 6700 3250
$Comp
L power:+3V3 #PWR0115
U 1 1 5FBDEACC
P 6700 2900
F 0 "#PWR0115" H 6700 2750 50  0001 C CNN
F 1 "+3V3" H 6700 3050 50  0000 C CNN
F 2 "" H 6700 2900 50  0001 C CNN
F 3 "" H 6700 2900 50  0001 C CNN
	1    6700 2900
	1    0    0    -1  
$EndComp
$Comp
L Device:R_Small_US R7
U 1 1 5FBDEAC6
P 6700 3000
F 0 "R7" H 6500 3050 50  0000 L CNN
F 1 "10k" H 6500 2950 50  0000 L CNN
F 2 "Resistor_SMD:R_0603_1608Metric" H 6700 3000 50  0001 C CNN
F 3 "~" H 6700 3000 50  0001 C CNN
	1    6700 3000
	1    0    0    -1  
$EndComp
$Comp
L power:+3V3 #PWR0116
U 1 1 5FD3E80D
P 6350 3600
F 0 "#PWR0116" H 6350 3450 50  0001 C CNN
F 1 "+3V3" H 6350 3750 50  0000 C CNN
F 2 "" H 6350 3600 50  0001 C CNN
F 3 "" H 6350 3600 50  0001 C CNN
	1    6350 3600
	1    0    0    -1  
$EndComp
$Comp
L Device:R_Small_US R6
U 1 1 5FD48D10
P 6350 3700
F 0 "R6" H 6400 3750 50  0000 L CNN
F 1 "1k" H 6400 3650 50  0000 L CNN
F 2 "Resistor_SMD:R_0603_1608Metric" H 6350 3700 50  0001 C CNN
F 3 "~" H 6350 3700 50  0001 C CNN
	1    6350 3700
	1    0    0    -1  
$EndComp
Wire Wire Line
	6350 3800 6350 3850
Wire Wire Line
	6350 3850 6750 3850
Wire Wire Line
	6750 3850 6750 3950
Connection ~ 6750 3850
$Comp
L power:+3V3 #PWR0117
U 1 1 5FD7254D
P 6150 3900
F 0 "#PWR0117" H 6150 3750 50  0001 C CNN
F 1 "+3V3" H 6150 4050 50  0000 C CNN
F 2 "" H 6150 3900 50  0001 C CNN
F 3 "" H 6150 3900 50  0001 C CNN
	1    6150 3900
	1    0    0    -1  
$EndComp
$Comp
L Device:R_Small_US R5
U 1 1 5FD72553
P 6150 4000
F 0 "R5" H 6200 4050 50  0000 L CNN
F 1 "1k" H 6200 3950 50  0000 L CNN
F 2 "Resistor_SMD:R_0603_1608Metric" H 6150 4000 50  0001 C CNN
F 3 "~" H 6150 4000 50  0001 C CNN
	1    6150 4000
	1    0    0    -1  
$EndComp
Wire Wire Line
	6150 4100 6150 4150
Wire Wire Line
	6150 4150 6750 4150
NoConn ~ 5400 4800
$Comp
L Device:C_Small C4
U 1 1 5FDD3B4E
P 4850 4400
F 0 "C4" V 4750 4400 50  0000 C CNN
F 1 "100n" V 4950 4400 50  0000 C CNN
F 2 "Capacitor_SMD:C_0603_1608Metric" H 4850 4400 50  0001 C CNN
F 3 "~" H 4850 4400 50  0001 C CNN
	1    4850 4400
	0    1    1    0   
$EndComp
Wire Wire Line
	4950 4400 5400 4400
Wire Wire Line
	4550 4400 4750 4400
Connection ~ 4550 4400
Wire Wire Line
	5050 4600 5050 4500
Wire Wire Line
	5050 4500 5400 4500
Wire Wire Line
	4150 4600 5050 4600
Wire Wire Line
	5150 4700 5150 4600
Wire Wire Line
	5150 4600 5400 4600
Wire Wire Line
	4150 4700 5150 4700
$Comp
L Connector_Generic:Conn_01x03 J2
U 1 1 5FE2B8CC
P 5600 4050
F 0 "J2" H 5550 4250 50  0000 L CNN
F 1 "PWR_SEL" V 5700 3900 50  0000 L CNN
F 2 "Connector_PinHeader_2.54mm:PinHeader_1x03_P2.54mm_Vertical" H 5600 4050 50  0001 C CNN
F 3 "~" H 5600 4050 50  0001 C CNN
	1    5600 4050
	1    0    0    -1  
$EndComp
Wire Wire Line
	9350 3450 9550 3450
Text Label 9550 3450 2    50   ~ 0
cpu+
Text Label 5400 3700 3    50   ~ 0
cpu+
Wire Wire Line
	5400 3700 5400 3950
$Comp
L power:+3V3 #PWR0118
U 1 1 5FE3FDA6
P 5250 4000
F 0 "#PWR0118" H 5250 3850 50  0001 C CNN
F 1 "+3V3" H 5200 4150 50  0000 C CNN
F 2 "" H 5250 4000 50  0001 C CNN
F 3 "" H 5250 4000 50  0001 C CNN
	1    5250 4000
	1    0    0    -1  
$EndComp
Wire Wire Line
	5250 4000 5250 4050
Wire Wire Line
	5250 4050 5400 4050
Wire Wire Line
	5400 4700 5350 4700
Wire Wire Line
	5350 4700 5350 4150
Wire Wire Line
	5350 4150 5400 4150
$Comp
L Connector:AVR-ISP-6 J1
U 1 1 5FA3CCED
P 5300 2750
F 0 "J1" H 5400 3200 50  0000 R CNN
F 1 "AVR-ISP-6" V 5050 3000 50  0000 R CNN
F 2 "Connector_PinHeader_2.54mm:PinHeader_2x03_P2.54mm_Vertical" V 5050 2800 50  0001 C CNN
F 3 " ~" H 4025 2200 50  0001 C CNN
	1    5300 2750
	1    0    0    -1  
$EndComp
$Comp
L power:GNDREF #PWR0119
U 1 1 5FBBEFEE
P 5200 3150
F 0 "#PWR0119" H 5200 2900 50  0001 C CNN
F 1 "GNDREF" H 5205 2977 50  0001 C CNN
F 2 "" H 5200 3150 50  0001 C CNN
F 3 "" H 5200 3150 50  0001 C CNN
	1    5200 3150
	1    0    0    -1  
$EndComp
$Comp
L power:+3V3 #PWR0120
U 1 1 5FBC1772
P 5200 2250
F 0 "#PWR0120" H 5200 2100 50  0001 C CNN
F 1 "+3V3" H 5150 2400 50  0000 C CNN
F 2 "" H 5200 2250 50  0001 C CNN
F 3 "" H 5200 2250 50  0001 C CNN
	1    5200 2250
	1    0    0    -1  
$EndComp
Text Label 5900 2850 2    50   ~ 0
~RST
Wire Wire Line
	5900 2850 5700 2850
Text Label 5900 2750 2    50   ~ 0
SCK
Text Label 5900 2650 2    50   ~ 0
MOSI
Text Label 5900 2550 2    50   ~ 0
MISO
Wire Wire Line
	5900 2550 5700 2550
Wire Wire Line
	5900 2650 5700 2650
Wire Wire Line
	5900 2750 5700 2750
$Comp
L Device:LED D1
U 1 1 5FEA3DA3
P 5400 5700
F 0 "D1" V 5439 5582 50  0000 R CNN
F 1 "LED" V 5348 5582 50  0000 R CNN
F 2 "LED_SMD:LED_0603_1608Metric" H 5400 5700 50  0001 C CNN
F 3 "~" H 5400 5700 50  0001 C CNN
	1    5400 5700
	0    -1   -1   0   
$EndComp
$Comp
L Device:R_Small_US R2
U 1 1 5FECA621
P 5400 5450
F 0 "R2" H 5468 5496 50  0000 L CNN
F 1 "1k" H 5468 5405 50  0000 L CNN
F 2 "Resistor_SMD:R_0603_1608Metric" H 5400 5450 50  0001 C CNN
F 3 "~" H 5400 5450 50  0001 C CNN
	1    5400 5450
	1    0    0    -1  
$EndComp
$Comp
L power:GNDREF #PWR0121
U 1 1 5FECC0C4
P 5400 5850
F 0 "#PWR0121" H 5400 5600 50  0001 C CNN
F 1 "GNDREF" H 5405 5677 50  0001 C CNN
F 2 "" H 5400 5850 50  0001 C CNN
F 3 "" H 5400 5850 50  0001 C CNN
	1    5400 5850
	1    0    0    -1  
$EndComp
$Comp
L power:+3V3 #PWR0122
U 1 1 5FED6E10
P 5400 5350
F 0 "#PWR0122" H 5400 5200 50  0001 C CNN
F 1 "+3V3" H 5350 5500 50  0000 C CNN
F 2 "" H 5400 5350 50  0001 C CNN
F 3 "" H 5400 5350 50  0001 C CNN
	1    5400 5350
	1    0    0    -1  
$EndComp
$Comp
L Device:LED D2
U 1 1 5FEDB555
P 5750 5700
F 0 "D2" V 5789 5582 50  0000 R CNN
F 1 "LED" V 5698 5582 50  0000 R CNN
F 2 "LED_SMD:LED_0603_1608Metric" H 5750 5700 50  0001 C CNN
F 3 "~" H 5750 5700 50  0001 C CNN
	1    5750 5700
	0    -1   -1   0   
$EndComp
$Comp
L Device:R_Small_US R3
U 1 1 5FEDB55B
P 5750 5450
F 0 "R3" H 5818 5496 50  0000 L CNN
F 1 "1k" H 5818 5405 50  0000 L CNN
F 2 "Resistor_SMD:R_0603_1608Metric" H 5750 5450 50  0001 C CNN
F 3 "~" H 5750 5450 50  0001 C CNN
	1    5750 5450
	1    0    0    -1  
$EndComp
$Comp
L power:GNDREF #PWR0123
U 1 1 5FEDB561
P 5750 5850
F 0 "#PWR0123" H 5750 5600 50  0001 C CNN
F 1 "GNDREF" H 5755 5677 50  0001 C CNN
F 2 "" H 5750 5850 50  0001 C CNN
F 3 "" H 5750 5850 50  0001 C CNN
	1    5750 5850
	1    0    0    -1  
$EndComp
$Comp
L Device:LED D3
U 1 1 5FEF6B8F
P 6100 5700
F 0 "D3" V 6139 5582 50  0000 R CNN
F 1 "LED" V 6048 5582 50  0000 R CNN
F 2 "LED_SMD:LED_0603_1608Metric" H 6100 5700 50  0001 C CNN
F 3 "~" H 6100 5700 50  0001 C CNN
	1    6100 5700
	0    -1   -1   0   
$EndComp
$Comp
L Device:R_Small_US R4
U 1 1 5FEF6B95
P 6100 5450
F 0 "R4" H 6168 5496 50  0000 L CNN
F 1 "1k" H 6168 5405 50  0000 L CNN
F 2 "Resistor_SMD:R_0603_1608Metric" H 6100 5450 50  0001 C CNN
F 3 "~" H 6100 5450 50  0001 C CNN
	1    6100 5450
	1    0    0    -1  
$EndComp
$Comp
L power:GNDREF #PWR0124
U 1 1 5FEF6B9B
P 6100 5850
F 0 "#PWR0124" H 6100 5600 50  0001 C CNN
F 1 "GNDREF" H 6105 5677 50  0001 C CNN
F 2 "" H 6100 5850 50  0001 C CNN
F 3 "" H 6100 5850 50  0001 C CNN
	1    6100 5850
	1    0    0    -1  
$EndComp
Text Label 6100 5150 3    50   ~ 0
led1
Text Label 5750 5150 3    50   ~ 0
led0
Wire Wire Line
	5750 5350 5750 5150
Wire Wire Line
	6100 5350 6100 5150
Text GLabel 3600 5650 2    50   Input ~ 0
GND
Wire Wire Line
	3600 5650 3550 5650
Connection ~ 3550 5650
Wire Wire Line
	3550 5650 3550 5750
$Comp
L power:+3V3 #PWR?
U 1 1 5FAFCFB8
P 4500 3500
F 0 "#PWR?" H 4500 3350 50  0001 C CNN
F 1 "+3V3" H 4500 3650 50  0000 C CNN
F 2 "" H 4500 3500 50  0001 C CNN
F 3 "" H 4500 3500 50  0001 C CNN
	1    4500 3500
	1    0    0    -1  
$EndComp
Text Notes 4550 3500 0    50   ~ 0
unused
$EndSCHEMATC
