EESchema Schematic File Version 4
EELAYER 30 0
EELAYER END
$Descr A4 11693 8268
encoding utf-8
Sheet 1 6
Title ""
Date ""
Rev ""
Comp ""
Comment1 ""
Comment2 ""
Comment3 ""
Comment4 ""
$EndDescr
$Sheet
S 9850 3200 950  500 
U 608488F6
F0 "IO" 50
F1 "io.sch" 50
F2 "ADDR[0..7]" I L 9850 3600 50 
F3 "DATA[0..7]" I R 10800 3450 50 
F4 "~rm" I L 9850 3400 50 
F5 "~rst" I L 9850 3300 50 
F6 "~m_clk" I L 9850 3500 50 
$EndSheet
$Comp
L 74xx:74HC273 U46
U 1 1 60CD3067
P 6500 5350
F 0 "U46" H 6250 6000 50  0000 C CNN
F 1 "SN74HC273" V 6500 5350 50  0000 C CNN
F 2 "Package_SO:TSSOP-20_4.4x6.5mm_P0.65mm" H 6500 5350 50  0001 C CNN
F 3 "https://assets.nexperia.com/documents/data-sheet/74HC_HCT273.pdf" H 6500 5350 50  0001 C CNN
	1    6500 5350
	1    0    0    -1  
$EndComp
$Comp
L Device:C_Small C53
U 1 1 5FA80C23
P 6650 750
F 0 "C53" V 6550 700 50  0000 C CNN
F 1 "100n" V 6600 900 50  0000 C CNN
F 2 "Capacitor_SMD:C_0603_1608Metric" H 6650 750 50  0001 C CNN
F 3 "~" H 6650 750 50  0001 C CNN
	1    6650 750 
	0    1    1    0   
$EndComp
$Comp
L power:GNDREF #PWR0176
U 1 1 5FA80C29
P 6750 750
F 0 "#PWR0176" H 6750 500 50  0001 C CNN
F 1 "GNDREF" H 6755 577 50  0001 C CNN
F 2 "" H 6750 750 50  0001 C CNN
F 3 "" H 6750 750 50  0001 C CNN
	1    6750 750 
	1    0    0    -1  
$EndComp
$Comp
L power:+3V3 #PWR0170
U 1 1 5FA80C2F
P 6500 750
F 0 "#PWR0170" H 6500 600 50  0001 C CNN
F 1 "+3V3" H 6350 800 50  0000 C CNN
F 2 "" H 6500 750 50  0001 C CNN
F 3 "" H 6500 750 50  0001 C CNN
	1    6500 750 
	1    0    0    -1  
$EndComp
Wire Wire Line
	6500 750  6550 750 
$Comp
L Device:C_Small C54
U 1 1 5FA837DF
P 6650 2650
F 0 "C54" V 6550 2600 50  0000 C CNN
F 1 "100n" V 6600 2800 50  0000 C CNN
F 2 "Capacitor_SMD:C_0603_1608Metric" H 6650 2650 50  0001 C CNN
F 3 "~" H 6650 2650 50  0001 C CNN
	1    6650 2650
	0    1    1    0   
$EndComp
$Comp
L power:GNDREF #PWR0177
U 1 1 5FA837E5
P 6750 2650
F 0 "#PWR0177" H 6750 2400 50  0001 C CNN
F 1 "GNDREF" H 6755 2477 50  0001 C CNN
F 2 "" H 6750 2650 50  0001 C CNN
F 3 "" H 6750 2650 50  0001 C CNN
	1    6750 2650
	1    0    0    -1  
$EndComp
$Comp
L power:+3V3 #PWR0172
U 1 1 5FA837EB
P 6500 2650
F 0 "#PWR0172" H 6500 2500 50  0001 C CNN
F 1 "+3V3" H 6350 2700 50  0000 C CNN
F 2 "" H 6500 2650 50  0001 C CNN
F 3 "" H 6500 2650 50  0001 C CNN
	1    6500 2650
	1    0    0    -1  
$EndComp
Wire Wire Line
	6500 2650 6550 2650
$Comp
L Device:C_Small C55
U 1 1 5FA85401
P 6650 4550
F 0 "C55" V 6550 4500 50  0000 C CNN
F 1 "100n" V 6600 4700 50  0000 C CNN
F 2 "Capacitor_SMD:C_0603_1608Metric" H 6650 4550 50  0001 C CNN
F 3 "~" H 6650 4550 50  0001 C CNN
	1    6650 4550
	0    1    1    0   
$EndComp
$Comp
L power:GNDREF #PWR0178
U 1 1 5FA85407
P 6750 4550
F 0 "#PWR0178" H 6750 4300 50  0001 C CNN
F 1 "GNDREF" H 6755 4377 50  0001 C CNN
F 2 "" H 6750 4550 50  0001 C CNN
F 3 "" H 6750 4550 50  0001 C CNN
	1    6750 4550
	1    0    0    -1  
$EndComp
$Comp
L power:+3V3 #PWR0174
U 1 1 5FA8540D
P 6500 4550
F 0 "#PWR0174" H 6500 4400 50  0001 C CNN
F 1 "+3V3" H 6350 4600 50  0000 C CNN
F 2 "" H 6500 4550 50  0001 C CNN
F 3 "" H 6500 4550 50  0001 C CNN
	1    6500 4550
	1    0    0    -1  
$EndComp
Wire Wire Line
	6500 4550 6550 4550
Connection ~ 6500 4550
$Comp
L Device:C_Small C58
U 1 1 5FA85EAB
P 10500 4050
F 0 "C58" V 10400 4000 50  0000 C CNN
F 1 "100n" V 10450 4200 50  0000 C CNN
F 2 "Capacitor_SMD:C_0603_1608Metric" H 10500 4050 50  0001 C CNN
F 3 "~" H 10500 4050 50  0001 C CNN
	1    10500 4050
	0    1    1    0   
$EndComp
$Comp
L power:GNDREF #PWR0191
U 1 1 5FA85EB1
P 10600 4050
F 0 "#PWR0191" H 10600 3800 50  0001 C CNN
F 1 "GNDREF" H 10605 3877 50  0001 C CNN
F 2 "" H 10600 4050 50  0001 C CNN
F 3 "" H 10600 4050 50  0001 C CNN
	1    10600 4050
	1    0    0    -1  
$EndComp
$Comp
L power:+3V3 #PWR0189
U 1 1 5FA85EB7
P 10350 4050
F 0 "#PWR0189" H 10350 3900 50  0001 C CNN
F 1 "+3V3" H 10300 4200 50  0000 C CNN
F 2 "" H 10350 4050 50  0001 C CNN
F 3 "" H 10350 4050 50  0001 C CNN
	1    10350 4050
	1    0    0    -1  
$EndComp
Wire Wire Line
	10350 4050 10400 4050
$Comp
L power:GNDREF #PWR0173
U 1 1 5FABC8B0
P 6500 4250
F 0 "#PWR0173" H 6500 4000 50  0001 C CNN
F 1 "GNDREF" H 6505 4077 50  0001 C CNN
F 2 "" H 6500 4250 50  0001 C CNN
F 3 "" H 6500 4250 50  0001 C CNN
	1    6500 4250
	1    0    0    -1  
$EndComp
$Comp
L power:GNDREF #PWR0175
U 1 1 5FABCFA0
P 6500 6150
F 0 "#PWR0175" H 6500 5900 50  0001 C CNN
F 1 "GNDREF" H 6505 5977 50  0001 C CNN
F 2 "" H 6500 6150 50  0001 C CNN
F 3 "" H 6500 6150 50  0001 C CNN
	1    6500 6150
	1    0    0    -1  
$EndComp
$Comp
L power:GNDREF #PWR0171
U 1 1 5FAC1249
P 6500 2350
F 0 "#PWR0171" H 6500 2100 50  0001 C CNN
F 1 "GNDREF" H 6505 2177 50  0001 C CNN
F 2 "" H 6500 2350 50  0001 C CNN
F 3 "" H 6500 2350 50  0001 C CNN
	1    6500 2350
	1    0    0    -1  
$EndComp
$Comp
L power:GNDREF #PWR0190
U 1 1 5FAEDEF6
P 10350 6250
F 0 "#PWR0190" H 10350 6000 50  0001 C CNN
F 1 "GNDREF" H 10355 6077 50  0001 C CNN
F 2 "" H 10350 6250 50  0001 C CNN
F 3 "" H 10350 6250 50  0001 C CNN
	1    10350 6250
	1    0    0    -1  
$EndComp
Text Label 5750 1050 0    50   ~ 0
DATA0
Wire Wire Line
	5750 1050 6000 1050
Entry Wire Line
	5650 950  5750 1050
Text Label 5750 1150 0    50   ~ 0
DATA1
Wire Wire Line
	5750 1150 6000 1150
Entry Wire Line
	5650 1050 5750 1150
Text Label 5750 1250 0    50   ~ 0
DATA2
Wire Wire Line
	5750 1250 6000 1250
Entry Wire Line
	5650 1150 5750 1250
Text Label 5750 1350 0    50   ~ 0
DATA3
Wire Wire Line
	5750 1350 6000 1350
Entry Wire Line
	5650 1250 5750 1350
Text Label 5750 1450 0    50   ~ 0
DATA4
Wire Wire Line
	5750 1450 6000 1450
Entry Wire Line
	5650 1350 5750 1450
Text Label 5750 1550 0    50   ~ 0
DATA5
Wire Wire Line
	5750 1550 6000 1550
Entry Wire Line
	5650 1450 5750 1550
Text Label 5750 1650 0    50   ~ 0
DATA6
Wire Wire Line
	5750 1650 6000 1650
Entry Wire Line
	5650 1550 5750 1650
Text Label 5750 1750 0    50   ~ 0
DATA7
Wire Wire Line
	5750 1750 6000 1750
Entry Wire Line
	5650 1650 5750 1750
Wire Wire Line
	10350 4150 10350 4050
Connection ~ 10350 4050
Wire Bus Line
	5650 600  8750 600 
Text Label 7150 1050 2    50   ~ 0
A0
Text Label 7150 1150 2    50   ~ 0
A1
Text Label 7150 1250 2    50   ~ 0
A2
Text Label 7150 1350 2    50   ~ 0
A3
Wire Wire Line
	7000 1250 7150 1250
Wire Wire Line
	7000 1350 7150 1350
Text Label 7150 1450 2    50   ~ 0
A4
Wire Wire Line
	7000 1450 7150 1450
Text Label 7150 1550 2    50   ~ 0
A5
Text Label 7150 1650 2    50   ~ 0
A6
Text Label 7150 1750 2    50   ~ 0
A7
Wire Wire Line
	7000 1550 7150 1550
Wire Wire Line
	7000 1650 7150 1650
Wire Wire Line
	7000 1750 7150 1750
Entry Wire Line
	7250 1850 7150 1750
Entry Wire Line
	7250 1750 7150 1650
Entry Wire Line
	7250 1650 7150 1550
Entry Wire Line
	7250 1550 7150 1450
Entry Wire Line
	7250 1450 7150 1350
Entry Wire Line
	7250 1350 7150 1250
Entry Wire Line
	7250 1250 7150 1150
Entry Wire Line
	7250 1150 7150 1050
Text Label 7300 2300 0    50   ~ 0
A[0..7]
Wire Wire Line
	7000 1150 7150 1150
Wire Wire Line
	7000 1050 7150 1050
Text Label 7350 1050 0    50   ~ 0
A0
Text Label 7350 1150 0    50   ~ 0
A1
Text Label 7350 1250 0    50   ~ 0
A2
Text Label 7350 1350 0    50   ~ 0
A3
Wire Wire Line
	7500 1250 7350 1250
Wire Wire Line
	7500 1350 7350 1350
Text Label 7350 1450 0    50   ~ 0
A4
Wire Wire Line
	7500 1450 7350 1450
Text Label 7350 1550 0    50   ~ 0
A5
Text Label 7350 1650 0    50   ~ 0
A6
Text Label 7350 1750 0    50   ~ 0
A7
Wire Wire Line
	7500 1650 7350 1650
Wire Wire Line
	7500 1750 7350 1750
Entry Wire Line
	7250 1850 7350 1750
Entry Wire Line
	7250 1750 7350 1650
Entry Wire Line
	7250 1650 7350 1550
Entry Wire Line
	7250 1550 7350 1450
Entry Wire Line
	7250 1450 7350 1350
Entry Wire Line
	7250 1350 7350 1250
Entry Wire Line
	7250 1250 7350 1150
Entry Wire Line
	7250 1150 7350 1050
Wire Wire Line
	7500 1050 7350 1050
Text Label 5800 1950 0    50   ~ 0
a_clk
Text Label 5800 2050 0    50   ~ 0
~rst
Wire Wire Line
	5800 2050 6000 2050
Wire Bus Line
	9750 2250 9500 2250
Text Label 9550 2900 2    50   ~ 0
COMP[0..2]
Wire Wire Line
	8650 2550 8400 2550
Text Label 8400 2550 0    50   ~ 0
~ralu
Wire Wire Line
	8500 2450 8650 2450
Wire Wire Line
	8500 2350 8500 2450
Wire Wire Line
	8650 2350 8500 2350
Text Label 8400 2350 0    50   ~ 0
I9
$Sheet
S 8650 2050 850  700 
U 5FAFADA9
F0 "ALU" 50
F1 "alu.sch" 50
F2 "ci" I L 8650 2450 50 
F3 "B[0..7]" I L 8650 2250 50 
F4 "A[0..7]" I L 8650 2150 50 
F5 "binv" I L 8650 2350 50 
F6 "FS[0..1]" I L 8650 2650 50 
F7 "~ralu" I L 8650 2550 50 
F8 "COMP[0..2]" I R 9500 2550 50 
F9 "F[0..7]" I R 9500 2250 50 
$EndSheet
Text Label 7150 2950 2    50   ~ 0
B0
Text Label 7150 3050 2    50   ~ 0
B1
Text Label 7150 3150 2    50   ~ 0
B2
Text Label 7150 3250 2    50   ~ 0
B3
Wire Wire Line
	7000 3150 7150 3150
Wire Wire Line
	7000 3250 7150 3250
Text Label 7150 3350 2    50   ~ 0
B4
Wire Wire Line
	7000 3350 7150 3350
Text Label 7150 3450 2    50   ~ 0
B5
Text Label 7150 3550 2    50   ~ 0
B6
Text Label 7150 3650 2    50   ~ 0
B7
Wire Wire Line
	7000 3450 7150 3450
Wire Wire Line
	7000 3550 7150 3550
Wire Wire Line
	7000 3650 7150 3650
Entry Wire Line
	7250 2850 7350 2950
Entry Wire Line
	7250 2950 7350 3050
Entry Wire Line
	7250 3050 7350 3150
Entry Wire Line
	7250 3150 7350 3250
Entry Wire Line
	7250 3250 7350 3350
Entry Wire Line
	7250 3350 7350 3450
Entry Wire Line
	7250 3450 7350 3550
Entry Wire Line
	7250 3550 7350 3650
Text Label 7300 2500 0    50   ~ 0
B[0..7]
Wire Wire Line
	7000 3050 7150 3050
Wire Wire Line
	7000 2950 7150 2950
Text Label 7350 2950 0    50   ~ 0
B0
Text Label 7350 3050 0    50   ~ 0
B1
Text Label 7350 3150 0    50   ~ 0
B2
Text Label 7350 3250 0    50   ~ 0
B3
Wire Wire Line
	7500 3150 7350 3150
Wire Wire Line
	7500 3250 7350 3250
Text Label 7350 3350 0    50   ~ 0
B4
Wire Wire Line
	7500 3350 7350 3350
Text Label 7350 3450 0    50   ~ 0
B5
Text Label 7350 3550 0    50   ~ 0
B6
Text Label 7350 3650 0    50   ~ 0
B7
Wire Wire Line
	7500 3450 7350 3450
Wire Wire Line
	7500 3550 7350 3550
Wire Wire Line
	7500 3650 7350 3650
Entry Wire Line
	7250 2850 7150 2950
Entry Wire Line
	7250 2950 7150 3050
Entry Wire Line
	7250 3050 7150 3150
Entry Wire Line
	7250 3150 7150 3250
Entry Wire Line
	7250 3250 7150 3350
Entry Wire Line
	7250 3350 7150 3450
Entry Wire Line
	7250 3450 7150 3550
Entry Wire Line
	7250 3550 7150 3650
Wire Wire Line
	7500 3050 7350 3050
Wire Wire Line
	7500 2950 7350 2950
Text Label 5750 2950 0    50   ~ 0
DATA0
Wire Wire Line
	5750 2950 6000 2950
Entry Wire Line
	5650 2850 5750 2950
Text Label 5750 3050 0    50   ~ 0
DATA1
Wire Wire Line
	5750 3050 6000 3050
Entry Wire Line
	5650 2950 5750 3050
Text Label 5750 3150 0    50   ~ 0
DATA2
Wire Wire Line
	5750 3150 6000 3150
Entry Wire Line
	5650 3050 5750 3150
Text Label 5750 3250 0    50   ~ 0
DATA3
Wire Wire Line
	5750 3250 6000 3250
Entry Wire Line
	5650 3150 5750 3250
Text Label 5750 3350 0    50   ~ 0
DATA4
Wire Wire Line
	5750 3350 6000 3350
Entry Wire Line
	5650 3250 5750 3350
Text Label 5750 3450 0    50   ~ 0
DATA5
Wire Wire Line
	5750 3450 6000 3450
Entry Wire Line
	5650 3350 5750 3450
Text Label 5750 3550 0    50   ~ 0
DATA6
Wire Wire Line
	5750 3550 6000 3550
Entry Wire Line
	5650 3450 5750 3550
Text Label 5750 3650 0    50   ~ 0
DATA7
Wire Wire Line
	5750 3650 6000 3650
Entry Wire Line
	5650 3550 5750 3650
Text Label 5800 3850 0    50   ~ 0
b_clk
Text Label 5800 3950 0    50   ~ 0
~rst
Wire Wire Line
	5800 3950 6000 3950
Wire Wire Line
	8500 2350 8400 2350
Connection ~ 8500 2350
Wire Bus Line
	8050 2150 8050 2300
Wire Bus Line
	8050 2300 7250 2300
Wire Bus Line
	8050 2150 8650 2150
Wire Bus Line
	7250 2500 8150 2500
Wire Bus Line
	8150 2500 8150 2250
Wire Bus Line
	8150 2250 8650 2250
$Comp
L Device:R_Pack08 RN?
U 1 1 5FE513DA
P 9300 1400
AR Path="/608488F6/5FE513DA" Ref="RN?"  Part="1" 
AR Path="/5FE513DA" Ref="RN10"  Part="1" 
F 0 "RN10" V 8800 1400 50  0000 C CNN
F 1 "10" V 9700 1400 50  0000 C CNN
F 2 "Resistor_SMD:R_Array_Convex_8x0602" V 9775 1400 50  0001 C CNN
F 3 "~" H 9300 1400 50  0001 C CNN
	1    9300 1400
	0    1    1    0   
$EndComp
Text Label 8850 1000 0    50   ~ 0
DATA0
Wire Wire Line
	8850 1000 9100 1000
Entry Wire Line
	8750 900  8850 1000
Text Label 8850 1100 0    50   ~ 0
DATA1
Wire Wire Line
	8850 1100 9100 1100
Entry Wire Line
	8750 1000 8850 1100
Text Label 8850 1200 0    50   ~ 0
DATA2
Wire Wire Line
	8850 1200 9100 1200
Entry Wire Line
	8750 1100 8850 1200
Text Label 8850 1300 0    50   ~ 0
DATA3
Wire Wire Line
	8850 1300 9100 1300
Entry Wire Line
	8750 1200 8850 1300
Text Label 8850 1400 0    50   ~ 0
DATA4
Wire Wire Line
	8850 1400 9100 1400
Entry Wire Line
	8750 1300 8850 1400
Text Label 8850 1500 0    50   ~ 0
DATA5
Wire Wire Line
	8850 1500 9100 1500
Entry Wire Line
	8750 1400 8850 1500
Text Label 8850 1600 0    50   ~ 0
DATA6
Wire Wire Line
	8850 1600 9100 1600
Entry Wire Line
	8750 1500 8850 1600
Text Label 8850 1700 0    50   ~ 0
DATA7
Wire Wire Line
	8850 1700 9100 1700
Entry Wire Line
	8750 1600 8850 1700
Text Label 9650 1000 2    50   ~ 0
F0
Wire Wire Line
	9650 1000 9500 1000
Entry Wire Line
	9750 1800 9650 1700
Wire Wire Line
	9650 1100 9500 1100
Entry Wire Line
	9750 1700 9650 1600
Wire Wire Line
	9650 1200 9500 1200
Entry Wire Line
	9750 1600 9650 1500
Wire Wire Line
	9650 1300 9500 1300
Entry Wire Line
	9750 1500 9650 1400
Wire Wire Line
	9650 1400 9500 1400
Entry Wire Line
	9750 1400 9650 1300
Wire Wire Line
	9650 1500 9500 1500
Entry Wire Line
	9750 1300 9650 1200
Wire Wire Line
	9650 1600 9500 1600
Entry Wire Line
	9750 1200 9650 1100
Wire Wire Line
	9650 1700 9500 1700
Entry Wire Line
	9750 1100 9650 1000
Text Label 9650 1100 2    50   ~ 0
F1
Text Label 9650 1200 2    50   ~ 0
F2
Text Label 9650 1300 2    50   ~ 0
F3
Text Label 9650 1400 2    50   ~ 0
F4
Text Label 9650 1500 2    50   ~ 0
F5
Text Label 9650 1600 2    50   ~ 0
F6
Text Label 9650 1700 2    50   ~ 0
F7
Text Label 9750 2100 1    50   ~ 0
F[0..7]
Text Label 7250 4850 2    50   ~ 0
ADDR0
Wire Wire Line
	7000 5050 7250 5050
Wire Wire Line
	7000 5150 7250 5150
Wire Wire Line
	7000 5250 7250 5250
Wire Wire Line
	7000 5350 7250 5350
Wire Wire Line
	7000 5450 7250 5450
Wire Wire Line
	7000 5550 7250 5550
Entry Wire Line
	7350 4750 7450 4850
Entry Wire Line
	7350 4850 7450 4950
Entry Wire Line
	7350 4950 7450 5050
Entry Wire Line
	7350 5050 7450 5150
Entry Wire Line
	7350 5150 7450 5250
Entry Wire Line
	7350 5250 7450 5350
Entry Wire Line
	7350 5350 7450 5450
Entry Wire Line
	7350 5450 7450 5550
Wire Wire Line
	7000 4950 7250 4950
Wire Wire Line
	7000 4850 7250 4850
Entry Wire Line
	7350 4750 7250 4850
Entry Wire Line
	7350 4850 7250 4950
Entry Wire Line
	7350 4950 7250 5050
Entry Wire Line
	7350 5050 7250 5150
Entry Wire Line
	7350 5150 7250 5250
Entry Wire Line
	7350 5250 7250 5350
Entry Wire Line
	7350 5350 7250 5450
Entry Wire Line
	7350 5450 7250 5550
Text Label 5750 4850 0    50   ~ 0
DATA0
Wire Wire Line
	5750 4850 6000 4850
Entry Wire Line
	5650 4750 5750 4850
Text Label 5750 4950 0    50   ~ 0
DATA1
Wire Wire Line
	5750 4950 6000 4950
Entry Wire Line
	5650 4850 5750 4950
Text Label 5750 5050 0    50   ~ 0
DATA2
Wire Wire Line
	5750 5050 6000 5050
Entry Wire Line
	5650 4950 5750 5050
Text Label 5750 5150 0    50   ~ 0
DATA3
Wire Wire Line
	5750 5150 6000 5150
Entry Wire Line
	5650 5050 5750 5150
Text Label 5750 5250 0    50   ~ 0
DATA4
Wire Wire Line
	5750 5250 6000 5250
Entry Wire Line
	5650 5150 5750 5250
Text Label 5750 5350 0    50   ~ 0
DATA5
Wire Wire Line
	5750 5350 6000 5350
Entry Wire Line
	5650 5250 5750 5350
Text Label 5750 5450 0    50   ~ 0
DATA6
Wire Wire Line
	5750 5450 6000 5450
Entry Wire Line
	5650 5350 5750 5450
Text Label 5750 5550 0    50   ~ 0
DATA7
Wire Wire Line
	5750 5550 6000 5550
Entry Wire Line
	5650 5450 5750 5550
Text Label 5800 5750 0    50   ~ 0
d_clk
Wire Wire Line
	5800 5750 6000 5750
Text Label 5800 5850 0    50   ~ 0
~rst
Wire Wire Line
	5800 5850 6000 5850
Text Label 7250 4950 2    50   ~ 0
ADDR1
Text Label 7250 5050 2    50   ~ 0
ADDR2
Text Label 7250 5150 2    50   ~ 0
ADDR3
Text Label 7250 5250 2    50   ~ 0
ADDR4
Text Label 7250 5350 2    50   ~ 0
ADDR5
Text Label 7250 5450 2    50   ~ 0
ADDR6
Text Label 7250 5550 2    50   ~ 0
ADDR7
Text Label 7700 4850 2    50   ~ 0
ADDR0
Text Label 7700 4950 2    50   ~ 0
ADDR1
Text Label 7700 5050 2    50   ~ 0
ADDR2
Text Label 7700 5150 2    50   ~ 0
ADDR3
Text Label 7700 5250 2    50   ~ 0
ADDR4
Text Label 7700 5350 2    50   ~ 0
ADDR5
Text Label 7700 5450 2    50   ~ 0
ADDR6
Text Label 7700 5550 2    50   ~ 0
ADDR7
$Comp
L as6c6264:AS6C6264 U48
U 1 1 5F9E95A6
P 10350 5200
F 0 "U48" H 10050 6200 50  0000 C CNN
F 1 "AS6C6264" V 10350 5200 50  0000 C CNN
F 2 "as6c6264:AS6C6264-55SCN" H 9700 5950 50  0001 C CNN
F 3 "" H 9700 5950 50  0001 C CNN
	1    10350 5200
	1    0    0    -1  
$EndComp
$Comp
L power:+3V3 #PWR0187
U 1 1 601105FA
P 9700 5850
F 0 "#PWR0187" H 9700 5700 50  0001 C CNN
F 1 "+3V3" H 9650 6000 50  0000 C CNN
F 2 "" H 9700 5850 50  0001 C CNN
F 3 "" H 9700 5850 50  0001 C CNN
	1    9700 5850
	1    0    0    -1  
$EndComp
$Comp
L power:GNDREF #PWR0188
U 1 1 6014E973
P 9900 5550
F 0 "#PWR0188" H 9900 5300 50  0001 C CNN
F 1 "GNDREF" H 9905 5377 50  0001 C CNN
F 2 "" H 9900 5550 50  0001 C CNN
F 3 "" H 9900 5550 50  0001 C CNN
	1    9900 5550
	1    0    0    -1  
$EndComp
Wire Wire Line
	9900 5550 9900 5450
Connection ~ 9900 5550
Connection ~ 9900 5250
Wire Wire Line
	9900 5250 9900 5150
Connection ~ 9900 5350
Wire Wire Line
	9900 5350 9900 5250
Connection ~ 9900 5450
Wire Wire Line
	9900 5450 9900 5350
Wire Wire Line
	9800 5500 9800 5750
Wire Wire Line
	9800 5750 9900 5750
Wire Wire Line
	9700 5850 9900 5850
Text Label 9650 5950 0    50   ~ 0
~m_clk
Wire Wire Line
	9650 5950 9900 5950
Text Label 9650 6050 0    50   ~ 0
~rm
Wire Bus Line
	7350 4150 8800 4150
Text Label 9900 4850 2    50   ~ 0
ADDR5
Text Label 9900 4750 2    50   ~ 0
ADDR4
Text Label 9900 4650 2    50   ~ 0
ADDR3
Text Label 9900 4550 2    50   ~ 0
ADDR2
Text Label 9900 4450 2    50   ~ 0
ADDR1
Wire Wire Line
	9650 4350 9900 4350
Wire Wire Line
	9650 4450 9900 4450
Wire Wire Line
	9650 4850 9900 4850
Wire Wire Line
	9650 4750 9900 4750
Wire Wire Line
	9650 4650 9900 4650
Wire Wire Line
	9650 4550 9900 4550
Text Label 9900 4350 2    50   ~ 0
ADDR0
Entry Wire Line
	9550 4750 9650 4850
Entry Wire Line
	9550 4650 9650 4750
Entry Wire Line
	9550 4550 9650 4650
Entry Wire Line
	9550 4450 9650 4550
Entry Wire Line
	9550 4350 9650 4450
Entry Wire Line
	9550 4250 9650 4350
$Comp
L 74xGxx:74LVC1G08 U47
U 1 1 5F9EC63D
P 9450 5500
F 0 "U47" H 9400 5500 50  0000 C CNN
F 1 "74LVC1G08" H 9150 5350 50  0000 C CNN
F 2 "Package_TO_SOT_SMD:SOT-353_SC-70-5" H 9450 5500 50  0001 C CNN
F 3 "http://www.ti.com/lit/sg/scyt129e/scyt129e.pdf" H 9450 5500 50  0001 C CNN
	1    9450 5500
	1    0    0    -1  
$EndComp
$Comp
L Device:C_Small C57
U 1 1 5FA88658
P 9600 5300
F 0 "C57" V 9500 5250 50  0000 C CNN
F 1 "100n" V 9550 5450 50  0000 C CNN
F 2 "Capacitor_SMD:C_0603_1608Metric" H 9600 5300 50  0001 C CNN
F 3 "~" H 9600 5300 50  0001 C CNN
	1    9600 5300
	0    1    1    0   
$EndComp
$Comp
L power:GNDREF #PWR0186
U 1 1 5FA8865E
P 9700 5300
F 0 "#PWR0186" H 9700 5050 50  0001 C CNN
F 1 "GNDREF" H 9705 5127 50  0001 C CNN
F 2 "" H 9700 5300 50  0001 C CNN
F 3 "" H 9700 5300 50  0001 C CNN
	1    9700 5300
	1    0    0    -1  
$EndComp
$Comp
L power:+3V3 #PWR0184
U 1 1 5FA88664
P 9450 5300
F 0 "#PWR0184" H 9450 5150 50  0001 C CNN
F 1 "+3V3" H 9400 5450 50  0000 C CNN
F 2 "" H 9450 5300 50  0001 C CNN
F 3 "" H 9450 5300 50  0001 C CNN
	1    9450 5300
	1    0    0    -1  
$EndComp
Wire Wire Line
	9450 5300 9500 5300
$Comp
L power:GNDREF #PWR0185
U 1 1 5FAF3D2F
P 9450 5600
F 0 "#PWR0185" H 9450 5350 50  0001 C CNN
F 1 "GNDREF" H 9455 5427 50  0001 C CNN
F 2 "" H 9450 5600 50  0001 C CNN
F 3 "" H 9450 5600 50  0001 C CNN
	1    9450 5600
	1    0    0    -1  
$EndComp
Wire Wire Line
	9450 5400 9450 5300
Connection ~ 9450 5300
Entry Wire Line
	8800 4850 8900 4950
Entry Wire Line
	8800 4950 8900 5050
Text Label 9150 4950 2    50   ~ 0
ADDR6
Text Label 9150 5050 2    50   ~ 0
ADDR7
Wire Wire Line
	9150 5550 9100 5550
Wire Wire Line
	9700 5500 9800 5500
Wire Wire Line
	9100 5550 9100 5250
Wire Wire Line
	9150 5450 9150 5300
Wire Wire Line
	9100 5250 9200 5250
Wire Wire Line
	9150 5300 9250 5300
Wire Wire Line
	9200 5050 9900 5050
Wire Wire Line
	8900 5050 9200 5050
Connection ~ 9200 5050
Wire Wire Line
	9200 5250 9200 5050
Wire Wire Line
	9250 4950 9900 4950
Wire Wire Line
	8900 4950 9250 4950
Connection ~ 9250 4950
Wire Wire Line
	9250 5300 9250 4950
Wire Bus Line
	9550 3600 9850 3600
Text Label 8150 4150 0    50   ~ 0
ADDR[0..7]
Text Label 9600 3300 0    50   ~ 0
~rst
Wire Wire Line
	9600 3300 9850 3300
Text Label 9600 3500 0    50   ~ 0
~m_clk
Text Label 9600 3400 0    50   ~ 0
~rm
Wire Wire Line
	9600 3500 9850 3500
Wire Wire Line
	9600 3400 9850 3400
Text Label 11050 4350 2    50   ~ 0
DATA0
Wire Wire Line
	11050 4350 10800 4350
Entry Wire Line
	11150 4250 11050 4350
Text Label 11050 4450 2    50   ~ 0
DATA1
Wire Wire Line
	11050 4450 10800 4450
Entry Wire Line
	11150 4350 11050 4450
Text Label 11050 4550 2    50   ~ 0
DATA2
Wire Wire Line
	11050 4550 10800 4550
Entry Wire Line
	11150 4450 11050 4550
Text Label 11050 4650 2    50   ~ 0
DATA3
Wire Wire Line
	11050 4650 10800 4650
Entry Wire Line
	11150 4550 11050 4650
Text Label 11050 4750 2    50   ~ 0
DATA4
Wire Wire Line
	11050 4750 10800 4750
Entry Wire Line
	11150 4650 11050 4750
Text Label 11050 4850 2    50   ~ 0
DATA5
Wire Wire Line
	11050 4850 10800 4850
Entry Wire Line
	11150 4750 11050 4850
Text Label 11050 4950 2    50   ~ 0
DATA6
Wire Wire Line
	11050 4950 10800 4950
Entry Wire Line
	11150 4850 11050 4950
Text Label 11050 5050 2    50   ~ 0
DATA7
Wire Wire Line
	11050 5050 10800 5050
Entry Wire Line
	11150 4950 11050 5050
Wire Bus Line
	11150 3450 10800 3450
Wire Bus Line
	11150 600  8750 600 
Connection ~ 11150 3450
Connection ~ 8750 600 
Text Label 6100 600  2    50   ~ 0
DATA[0..7]
Text Label 8600 3000 1    50   ~ 0
FS[0..1]
Wire Bus Line
	8600 2650 8650 2650
Text Label 9050 3000 2    50   ~ 0
I10
Text Label 9050 3100 2    50   ~ 0
I11
Wire Wire Line
	8700 3000 9050 3000
Wire Wire Line
	9050 3100 8700 3100
Text Label 8700 3000 0    50   ~ 0
FS0
Text Label 8700 3100 0    50   ~ 0
FS1
Entry Wire Line
	8600 2900 8700 3000
Entry Wire Line
	8600 3000 8700 3100
Wire Bus Line
	2450 2250 1750 2250
$Comp
L Device:R_Pack08 RN?
U 1 1 62E74E31
P 2800 1800
AR Path="/608488F6/62E74E31" Ref="RN?"  Part="1" 
AR Path="/62E74E31" Ref="RN11"  Part="1" 
F 0 "RN11" V 2300 1800 50  0000 C CNN
F 1 "1k" V 3200 1800 50  0000 C CNN
F 2 "Resistor_SMD:R_Array_Convex_8x0602" V 3275 1800 50  0001 C CNN
F 3 "~" H 2800 1800 50  0001 C CNN
	1    2800 1800
	0    -1   1    0   
$EndComp
Text Label 2450 1400 0    50   ~ 0
PC0
Wire Wire Line
	2450 1400 2600 1400
Text Label 2450 1500 0    50   ~ 0
PC1
Wire Wire Line
	2450 1500 2600 1500
Text Label 2450 1600 0    50   ~ 0
PC2
Wire Wire Line
	2450 1600 2600 1600
Text Label 2450 1700 0    50   ~ 0
PC3
Wire Wire Line
	2450 1700 2600 1700
Text Label 2450 1800 0    50   ~ 0
PC4
Wire Wire Line
	2450 1800 2600 1800
Text Label 2450 1900 0    50   ~ 0
PC5
Wire Wire Line
	2450 1900 2600 1900
Text Label 2450 2000 0    50   ~ 0
PC6
Wire Wire Line
	2450 2000 2600 2000
Text Label 2450 2100 0    50   ~ 0
PC7
Wire Wire Line
	2450 2100 2600 2100
Text Label 2450 4000 3    50   ~ 0
DQ[0..15]
Text Label 2350 4050 3    50   ~ 0
PC[0..7]
Connection ~ 2350 2150
Wire Bus Line
	1750 2150 2350 2150
Wire Wire Line
	4250 4350 4500 4350
Text Label 4300 4350 0    50   ~ 0
I8
Entry Wire Line
	4250 4350 4150 4450
Wire Wire Line
	4250 5050 4500 5050
Text Label 4250 5050 0    50   ~ 0
I15
Entry Wire Line
	4250 5050 4150 5150
Wire Wire Line
	4250 4950 4500 4950
Text Label 4250 4950 0    50   ~ 0
I14
Entry Wire Line
	4250 4950 4150 5050
Wire Wire Line
	4250 4850 4500 4850
Text Label 4250 4850 0    50   ~ 0
I13
Entry Wire Line
	4250 4850 4150 4950
Wire Wire Line
	4250 4750 4500 4750
Text Label 4250 4750 0    50   ~ 0
I12
Entry Wire Line
	4250 4750 4150 4850
Wire Wire Line
	4250 4650 4500 4650
Text Label 4250 4650 0    50   ~ 0
I11
Entry Wire Line
	4250 4650 4150 4750
Wire Wire Line
	4250 4550 4500 4550
Text Label 4250 4550 0    50   ~ 0
I10
Entry Wire Line
	4250 4550 4150 4650
Wire Wire Line
	4250 4450 4500 4450
Text Label 4300 4450 0    50   ~ 0
I9
Entry Wire Line
	4250 4450 4150 4550
Connection ~ 1100 3550
Wire Wire Line
	1100 3550 1100 3650
Wire Wire Line
	850  3550 1100 3550
$Comp
L power:+3V3 #PWR0142
U 1 1 63FACC5D
P 850 3550
F 0 "#PWR0142" H 850 3400 50  0001 C CNN
F 1 "+3V3" H 850 3700 50  0000 C CNN
F 2 "" H 850 3550 50  0001 C CNN
F 3 "" H 850 3550 50  0001 C CNN
	1    850  3550
	1    0    0    -1  
$EndComp
Wire Wire Line
	1000 3450 1100 3450
Text Label 1000 3450 0    50   ~ 0
~pcl
Wire Wire Line
	850  3750 1100 3750
Text Label 850  3750 0    50   ~ 0
pc_clk
Wire Wire Line
	1000 3950 1100 3950
Text Label 1000 3950 0    50   ~ 0
~rst
Wire Wire Line
	2150 3450 2100 3450
Wire Wire Line
	2150 4400 2150 3450
Wire Wire Line
	900  4400 2150 4400
Wire Wire Line
	900  5550 900  4400
Wire Wire Line
	1100 5550 900  5550
NoConn ~ 2100 5350
Wire Wire Line
	1000 5350 1100 5350
Text Label 1000 5350 0    50   ~ 0
~pcl
Wire Wire Line
	950  5450 1100 5450
$Comp
L power:+3V3 #PWR0147
U 1 1 63B4BF6D
P 950 5450
F 0 "#PWR0147" H 950 5300 50  0001 C CNN
F 1 "+3V3" V 950 5650 50  0000 C CNN
F 2 "" H 950 5450 50  0001 C CNN
F 3 "" H 950 5450 50  0001 C CNN
	1    950  5450
	1    0    0    -1  
$EndComp
Wire Wire Line
	850  5650 1100 5650
Text Label 850  5650 0    50   ~ 0
pc_clk
Wire Wire Line
	1000 5850 1100 5850
Text Label 1000 5850 0    50   ~ 0
~rst
Wire Bus Line
	750  6400 4150 6400
Wire Wire Line
	850  5150 1100 5150
Text Label 1000 5150 0    50   ~ 0
I9
Entry Wire Line
	850  5150 750  5250
Wire Wire Line
	850  5050 1100 5050
Text Label 1000 5050 0    50   ~ 0
I8
Entry Wire Line
	850  5050 750  5150
Wire Wire Line
	850  4950 1100 4950
Text Label 1000 4950 0    50   ~ 0
I7
Entry Wire Line
	850  4950 750  5050
Wire Wire Line
	850  4850 1100 4850
Text Label 1000 4850 0    50   ~ 0
I6
Entry Wire Line
	850  4850 750  4950
Wire Wire Line
	850  3250 1100 3250
Text Label 1000 3250 0    50   ~ 0
I5
Entry Wire Line
	850  3250 750  3350
Wire Wire Line
	850  3150 1100 3150
Text Label 1000 3150 0    50   ~ 0
I4
Entry Wire Line
	850  3150 750  3250
Wire Wire Line
	850  3050 1100 3050
Text Label 1000 3050 0    50   ~ 0
I3
Entry Wire Line
	850  3050 750  3150
Wire Wire Line
	850  2950 1100 2950
Text Label 1000 2950 0    50   ~ 0
I2
Entry Wire Line
	850  2950 750  3050
Entry Wire Line
	2450 1400 2350 1500
Entry Wire Line
	2450 1500 2350 1600
Entry Wire Line
	2450 1600 2350 1700
Entry Wire Line
	2450 1700 2350 1800
Entry Wire Line
	2450 1800 2350 1900
Entry Wire Line
	2450 1900 2350 2000
Entry Wire Line
	2450 2000 2350 2100
Entry Wire Line
	2450 2100 2350 2200
Entry Wire Line
	2250 5150 2350 5050
Wire Wire Line
	2250 5150 2100 5150
Text Label 2250 5150 2    50   ~ 0
PC7
Entry Wire Line
	2250 5050 2350 4950
Wire Wire Line
	2250 5050 2100 5050
Text Label 2250 5050 2    50   ~ 0
PC6
Entry Wire Line
	2250 4950 2350 4850
Wire Wire Line
	2250 4950 2100 4950
Text Label 2250 4950 2    50   ~ 0
PC5
Entry Wire Line
	2250 4850 2350 4750
Wire Wire Line
	2250 4850 2100 4850
Text Label 2250 4850 2    50   ~ 0
PC4
Entry Wire Line
	2250 3250 2350 3150
Wire Wire Line
	2250 3250 2100 3250
Text Label 2250 3250 2    50   ~ 0
PC3
Entry Wire Line
	2250 3150 2350 3050
Wire Wire Line
	2250 3150 2100 3150
Text Label 2250 3150 2    50   ~ 0
PC2
Entry Wire Line
	2250 3050 2350 2950
Wire Wire Line
	2250 3050 2100 3050
Text Label 2250 3050 2    50   ~ 0
PC1
Entry Wire Line
	2250 2950 2350 2850
Wire Wire Line
	2250 2950 2100 2950
Text Label 2250 2950 2    50   ~ 0
PC0
Entry Wire Line
	2450 5450 2550 5550
Entry Wire Line
	2450 5350 2550 5450
Entry Wire Line
	2450 5250 2550 5350
Entry Wire Line
	2450 5150 2550 5250
Entry Wire Line
	2450 5050 2550 5150
Entry Wire Line
	2450 4950 2550 5050
Entry Wire Line
	2450 4850 2550 4950
Entry Wire Line
	2450 4750 2550 4850
Wire Wire Line
	2950 5550 2550 5550
Wire Wire Line
	2950 5450 2550 5450
Wire Wire Line
	2950 5350 2550 5350
Wire Wire Line
	2950 5250 2550 5250
Wire Wire Line
	2950 5150 2550 5150
Wire Wire Line
	2950 5050 2550 5050
Wire Wire Line
	2950 4950 2550 4950
Wire Wire Line
	2950 4850 2550 4850
Text Label 2550 5550 0    50   ~ 0
DQ15
Text Label 2550 5450 0    50   ~ 0
DQ14
Text Label 2550 5350 0    50   ~ 0
DQ13
Text Label 2550 5250 0    50   ~ 0
DQ12
Text Label 2550 5150 0    50   ~ 0
DQ11
Text Label 2550 5050 0    50   ~ 0
DQ10
Text Label 2550 4950 0    50   ~ 0
DQ9
Text Label 2550 4850 0    50   ~ 0
DQ8
Entry Wire Line
	2450 3550 2550 3650
Entry Wire Line
	2450 3450 2550 3550
Entry Wire Line
	2450 3350 2550 3450
Entry Wire Line
	2450 3250 2550 3350
Entry Wire Line
	2450 3150 2550 3250
Entry Wire Line
	2450 3050 2550 3150
Entry Wire Line
	2450 2950 2550 3050
Entry Wire Line
	2450 2850 2550 2950
Wire Wire Line
	2950 3650 2550 3650
Wire Wire Line
	2950 3550 2550 3550
Wire Wire Line
	2950 3450 2550 3450
Wire Wire Line
	2950 3350 2550 3350
Wire Wire Line
	2950 3250 2550 3250
Wire Wire Line
	2950 3150 2550 3150
Wire Wire Line
	2950 3050 2550 3050
Wire Wire Line
	2950 2950 2550 2950
Text Label 2550 3650 0    50   ~ 0
DQ7
Text Label 2550 3550 0    50   ~ 0
DQ6
Text Label 2550 3450 0    50   ~ 0
DQ5
Text Label 2550 3350 0    50   ~ 0
DQ4
Text Label 2550 3250 0    50   ~ 0
DQ3
Text Label 2550 3150 0    50   ~ 0
DQ2
Text Label 2550 3050 0    50   ~ 0
DQ1
Text Label 2550 2950 0    50   ~ 0
DQ0
$Sheet
S 1200 2050 550  300 
U 626E45E5
F0 "FLASH" 50
F1 "flash.sch" 50
F2 "DQ[0..15]" I R 1750 2250 50 
F3 "PC[0..7]" I R 1750 2150 50 
$EndSheet
$Comp
L 74xx:74LS161 U39
U 1 1 60CEBAE8
P 1600 3450
F 0 "U39" H 1350 4100 50  0000 C CNN
F 1 "SN74HC161" V 1600 3450 50  0000 C CNN
F 2 "Package_SO:TSSOP-16_4.4x5mm_P0.65mm" H 1600 3450 50  0001 C CNN
F 3 "http://www.ti.com/lit/gpn/sn74LS161" H 1600 3450 50  0001 C CNN
	1    1600 3450
	1    0    0    -1  
$EndComp
$Comp
L Device:C_Small C48
U 1 1 5FA8A74E
P 1750 2650
F 0 "C48" V 1650 2600 50  0000 C CNN
F 1 "100n" V 1700 2800 50  0000 C CNN
F 2 "Capacitor_SMD:C_0603_1608Metric" H 1750 2650 50  0001 C CNN
F 3 "~" H 1750 2650 50  0001 C CNN
	1    1750 2650
	0    1    1    0   
$EndComp
$Comp
L power:GNDREF #PWR0156
U 1 1 5FA8A754
P 1850 2650
F 0 "#PWR0156" H 1850 2400 50  0001 C CNN
F 1 "GNDREF" H 1855 2477 50  0001 C CNN
F 2 "" H 1850 2650 50  0001 C CNN
F 3 "" H 1850 2650 50  0001 C CNN
	1    1850 2650
	1    0    0    -1  
$EndComp
Wire Wire Line
	1600 2650 1650 2650
Connection ~ 1600 2650
$Comp
L power:GNDREF #PWR0153
U 1 1 5FAA5BA1
P 1600 4250
F 0 "#PWR0153" H 1600 4000 50  0001 C CNN
F 1 "GNDREF" H 1605 4077 50  0001 C CNN
F 2 "" H 1600 4250 50  0001 C CNN
F 3 "" H 1600 4250 50  0001 C CNN
	1    1600 4250
	1    0    0    -1  
$EndComp
$Comp
L power:GNDREF #PWR0155
U 1 1 5FAA6721
P 1600 6150
F 0 "#PWR0155" H 1600 5900 50  0001 C CNN
F 1 "GNDREF" H 1605 5977 50  0001 C CNN
F 2 "" H 1600 6150 50  0001 C CNN
F 3 "" H 1600 6150 50  0001 C CNN
	1    1600 6150
	1    0    0    -1  
$EndComp
Connection ~ 1600 4550
Wire Wire Line
	1600 4550 1650 4550
$Comp
L power:GNDREF #PWR0157
U 1 1 5FA89CDC
P 1850 4550
F 0 "#PWR0157" H 1850 4300 50  0001 C CNN
F 1 "GNDREF" H 1855 4377 50  0001 C CNN
F 2 "" H 1850 4550 50  0001 C CNN
F 3 "" H 1850 4550 50  0001 C CNN
	1    1850 4550
	1    0    0    -1  
$EndComp
$Comp
L Device:C_Small C49
U 1 1 5FA89CD6
P 1750 4550
F 0 "C49" V 1650 4500 50  0000 C CNN
F 1 "100n" V 1700 4700 50  0000 C CNN
F 2 "Capacitor_SMD:C_0603_1608Metric" H 1750 4550 50  0001 C CNN
F 3 "~" H 1750 4550 50  0001 C CNN
	1    1750 4550
	0    1    1    0   
$EndComp
$Comp
L 74xx:74LS161 U40
U 1 1 60CECC5D
P 1600 5350
F 0 "U40" H 1350 6000 50  0000 C CNN
F 1 "SN74HC161" V 1600 5350 50  0000 C CNN
F 2 "Package_SO:TSSOP-16_4.4x5mm_P0.65mm" H 1600 5350 50  0001 C CNN
F 3 "http://www.ti.com/lit/gpn/sn74LS161" H 1600 5350 50  0001 C CNN
	1    1600 5350
	1    0    0    -1  
$EndComp
$Comp
L power:+3V3 #PWR0154
U 1 1 5FA89CE2
P 1600 4550
F 0 "#PWR0154" H 1600 4400 50  0001 C CNN
F 1 "+3V3" H 1450 4600 50  0000 C CNN
F 2 "" H 1600 4550 50  0001 C CNN
F 3 "" H 1600 4550 50  0001 C CNN
	1    1600 4550
	1    0    0    -1  
$EndComp
$Comp
L power:+3V3 #PWR0152
U 1 1 5FA8A75A
P 1600 2650
F 0 "#PWR0152" H 1600 2500 50  0001 C CNN
F 1 "+3V3" H 1450 2700 50  0000 C CNN
F 2 "" H 1600 2650 50  0001 C CNN
F 3 "" H 1600 2650 50  0001 C CNN
	1    1600 2650
	1    0    0    -1  
$EndComp
Wire Bus Line
	3700 2500 4150 2500
Wire Wire Line
	4050 4850 3950 4850
Text Label 4000 4850 2    50   ~ 0
I8
Entry Wire Line
	4050 4850 4150 4950
Wire Wire Line
	4050 5550 3950 5550
Text Label 4050 5550 2    50   ~ 0
I15
Entry Wire Line
	4050 5550 4150 5650
Wire Wire Line
	4050 5450 3950 5450
Text Label 4050 5450 2    50   ~ 0
I14
Entry Wire Line
	4050 5450 4150 5550
Wire Wire Line
	4050 5350 3950 5350
Text Label 4050 5350 2    50   ~ 0
I13
Entry Wire Line
	4050 5350 4150 5450
Wire Wire Line
	4050 5250 3950 5250
Text Label 4050 5250 2    50   ~ 0
I12
Entry Wire Line
	4050 5250 4150 5350
Wire Wire Line
	4050 5150 3950 5150
Text Label 4050 5150 2    50   ~ 0
I11
Entry Wire Line
	4050 5150 4150 5250
Wire Wire Line
	4050 5050 3950 5050
Text Label 4050 5050 2    50   ~ 0
I10
Entry Wire Line
	4050 5050 4150 5150
Wire Wire Line
	4050 4950 3950 4950
Text Label 4000 4950 2    50   ~ 0
I9
Entry Wire Line
	4050 4950 4150 5050
$Comp
L 74xx:74HC273 U42
U 1 1 60CD3EAD
P 3450 5350
F 0 "U42" H 3200 6000 50  0000 C CNN
F 1 "SN74HC273" V 3450 5350 50  0000 C CNN
F 2 "Package_SO:TSSOP-20_4.4x6.5mm_P0.65mm" H 3450 5350 50  0001 C CNN
F 3 "https://assets.nexperia.com/documents/data-sheet/74HC_HCT273.pdf" H 3450 5350 50  0001 C CNN
	1    3450 5350
	1    0    0    -1  
$EndComp
$Comp
L Device:C_Small C51
U 1 1 5FA8F6EC
P 3600 4550
F 0 "C51" V 3500 4500 50  0000 C CNN
F 1 "100n" V 3550 4700 50  0000 C CNN
F 2 "Capacitor_SMD:C_0603_1608Metric" H 3600 4550 50  0001 C CNN
F 3 "~" H 3600 4550 50  0001 C CNN
	1    3600 4550
	0    1    1    0   
$EndComp
$Comp
L power:GNDREF #PWR0163
U 1 1 5FA8F6F2
P 3700 4550
F 0 "#PWR0163" H 3700 4300 50  0001 C CNN
F 1 "GNDREF" H 3705 4377 50  0001 C CNN
F 2 "" H 3700 4550 50  0001 C CNN
F 3 "" H 3700 4550 50  0001 C CNN
	1    3700 4550
	1    0    0    -1  
$EndComp
$Comp
L power:+3V3 #PWR0160
U 1 1 5FA8F6F8
P 3450 4550
F 0 "#PWR0160" H 3450 4400 50  0001 C CNN
F 1 "+3V3" H 3300 4600 50  0000 C CNN
F 2 "" H 3450 4550 50  0001 C CNN
F 3 "" H 3450 4550 50  0001 C CNN
	1    3450 4550
	1    0    0    -1  
$EndComp
Wire Wire Line
	3450 4550 3500 4550
Connection ~ 3450 4550
$Comp
L power:GNDREF #PWR0161
U 1 1 5FAA365D
P 3450 6150
F 0 "#PWR0161" H 3450 5900 50  0001 C CNN
F 1 "GNDREF" H 3455 5977 50  0001 C CNN
F 2 "" H 3450 6150 50  0001 C CNN
F 3 "" H 3450 6150 50  0001 C CNN
	1    3450 6150
	1    0    0    -1  
$EndComp
$Comp
L Device:R_Pack08 RN?
U 1 1 61452817
P 4700 4750
AR Path="/608488F6/61452817" Ref="RN?"  Part="1" 
AR Path="/61452817" Ref="RN6"  Part="1" 
F 0 "RN6" V 4200 4750 50  0000 C CNN
F 1 "1k" V 5100 4750 50  0000 C CNN
F 2 "Resistor_SMD:R_Array_Convex_8x0602" V 5175 4750 50  0001 C CNN
F 3 "~" H 4700 4750 50  0001 C CNN
	1    4700 4750
	0    1    1    0   
$EndComp
Text Label 4150 2850 1    50   ~ 0
I[0..15]
Text Label 2850 5850 0    50   ~ 0
~rst
Wire Wire Line
	2850 5850 2950 5850
Text Label 2850 5750 0    50   ~ 0
clk
Wire Wire Line
	2850 5750 2950 5750
Wire Wire Line
	2850 3850 2950 3850
Text Label 2850 3850 0    50   ~ 0
clk
Wire Wire Line
	2850 3950 2950 3950
Text Label 2850 3950 0    50   ~ 0
~rst
Wire Wire Line
	4250 2950 4500 2950
Wire Wire Line
	4250 3050 4500 3050
Wire Wire Line
	4250 3650 4500 3650
Wire Wire Line
	4250 3550 4500 3550
Wire Wire Line
	4250 3450 4500 3450
Wire Wire Line
	4250 3350 4500 3350
Wire Wire Line
	4250 3250 4500 3250
Wire Wire Line
	4250 3150 4500 3150
Entry Wire Line
	4250 2950 4150 3050
Text Label 4250 2950 0    50   ~ 0
I0
Entry Wire Line
	4250 3050 4150 3150
Text Label 4250 3050 0    50   ~ 0
I1
Entry Wire Line
	4250 3150 4150 3250
Text Label 4250 3150 0    50   ~ 0
I2
Entry Wire Line
	4250 3250 4150 3350
Text Label 4250 3250 0    50   ~ 0
I3
Entry Wire Line
	4250 3350 4150 3450
Text Label 4250 3350 0    50   ~ 0
I4
Entry Wire Line
	4250 3450 4150 3550
Text Label 4250 3450 0    50   ~ 0
I5
Entry Wire Line
	4250 3550 4150 3650
Text Label 4250 3550 0    50   ~ 0
I6
Entry Wire Line
	4250 3650 4150 3750
Text Label 4250 3650 0    50   ~ 0
I7
$Comp
L 74xx:74HC273 U41
U 1 1 60CD368A
P 3450 3450
F 0 "U41" H 3200 4100 50  0000 C CNN
F 1 "SN74HC273" V 3450 3450 50  0000 C CNN
F 2 "Package_SO:TSSOP-20_4.4x6.5mm_P0.65mm" H 3450 3450 50  0001 C CNN
F 3 "https://assets.nexperia.com/documents/data-sheet/74HC_HCT273.pdf" H 3450 3450 50  0001 C CNN
	1    3450 3450
	1    0    0    -1  
$EndComp
$Comp
L Device:C_Small C50
U 1 1 5FA8FF0D
P 3600 2650
F 0 "C50" V 3500 2600 50  0000 C CNN
F 1 "100n" V 3550 2800 50  0000 C CNN
F 2 "Capacitor_SMD:C_0603_1608Metric" H 3600 2650 50  0001 C CNN
F 3 "~" H 3600 2650 50  0001 C CNN
	1    3600 2650
	0    1    1    0   
$EndComp
$Comp
L power:GNDREF #PWR0162
U 1 1 5FA8FF13
P 3700 2650
F 0 "#PWR0162" H 3700 2400 50  0001 C CNN
F 1 "GNDREF" H 3705 2477 50  0001 C CNN
F 2 "" H 3700 2650 50  0001 C CNN
F 3 "" H 3700 2650 50  0001 C CNN
	1    3700 2650
	1    0    0    -1  
$EndComp
$Comp
L power:+3V3 #PWR0158
U 1 1 5FA8FF19
P 3450 2650
F 0 "#PWR0158" H 3450 2500 50  0001 C CNN
F 1 "+3V3" H 3300 2700 50  0000 C CNN
F 2 "" H 3450 2650 50  0001 C CNN
F 3 "" H 3450 2650 50  0001 C CNN
	1    3450 2650
	1    0    0    -1  
$EndComp
$Comp
L power:GNDREF #PWR0159
U 1 1 5FAA20F0
P 3450 4250
F 0 "#PWR0159" H 3450 4000 50  0001 C CNN
F 1 "GNDREF" H 3455 4077 50  0001 C CNN
F 2 "" H 3450 4250 50  0001 C CNN
F 3 "" H 3450 4250 50  0001 C CNN
	1    3450 4250
	1    0    0    -1  
$EndComp
Entry Wire Line
	4050 2950 4150 3050
Text Label 4050 2950 2    50   ~ 0
I0
Wire Wire Line
	4050 2950 3950 2950
Entry Wire Line
	4050 3050 4150 3150
Text Label 4050 3050 2    50   ~ 0
I1
Wire Wire Line
	4050 3050 3950 3050
Entry Wire Line
	4050 3150 4150 3250
Text Label 4050 3150 2    50   ~ 0
I2
Wire Wire Line
	4050 3150 3950 3150
Entry Wire Line
	4050 3250 4150 3350
Text Label 4050 3250 2    50   ~ 0
I3
Wire Wire Line
	4050 3250 3950 3250
Entry Wire Line
	4050 3350 4150 3450
Text Label 4050 3350 2    50   ~ 0
I4
Wire Wire Line
	4050 3350 3950 3350
Entry Wire Line
	4050 3450 4150 3550
Text Label 4050 3450 2    50   ~ 0
I5
Wire Wire Line
	4050 3450 3950 3450
Entry Wire Line
	4050 3550 4150 3650
Text Label 4050 3550 2    50   ~ 0
I6
Wire Wire Line
	4050 3550 3950 3550
Entry Wire Line
	4050 3650 4150 3750
Text Label 4050 3650 2    50   ~ 0
I7
Wire Wire Line
	4050 3650 3950 3650
Wire Wire Line
	3800 1750 3900 1750
Text Label 3800 1750 0    50   ~ 0
I9
Entry Wire Line
	3800 1750 3700 1850
Wire Wire Line
	3800 1650 3900 1650
Text Label 3800 1650 0    50   ~ 0
I8
Entry Wire Line
	3800 1650 3700 1750
Wire Wire Line
	3800 1550 3900 1550
Text Label 3800 1550 0    50   ~ 0
I7
Entry Wire Line
	3800 1550 3700 1650
Wire Wire Line
	3800 1450 3900 1450
Text Label 3800 1450 0    50   ~ 0
I6
Entry Wire Line
	3800 1450 3700 1550
Wire Wire Line
	3800 1350 3900 1350
Text Label 3800 1350 0    50   ~ 0
I5
Entry Wire Line
	3800 1350 3700 1450
Wire Wire Line
	3800 1250 3900 1250
Text Label 3800 1250 0    50   ~ 0
I4
Entry Wire Line
	3800 1250 3700 1350
Wire Wire Line
	3800 1150 3900 1150
Text Label 3800 1150 0    50   ~ 0
I3
Entry Wire Line
	3800 1150 3700 1250
Wire Wire Line
	3800 1050 3900 1050
Text Label 3800 1050 0    50   ~ 0
I2
Entry Wire Line
	3800 1050 3700 1150
Wire Wire Line
	3800 1950 3900 1950
Text Label 3800 1950 0    50   ~ 0
~rk
$Comp
L power:GNDREF #PWR0164
U 1 1 6095FABC
P 3900 2050
F 0 "#PWR0164" H 3900 1800 50  0001 C CNN
F 1 "GNDREF" H 3905 1877 50  0001 C CNN
F 2 "" H 3900 2050 50  0001 C CNN
F 3 "" H 3900 2050 50  0001 C CNN
	1    3900 2050
	1    0    0    -1  
$EndComp
Entry Wire Line
	5650 1650 5550 1750
Wire Wire Line
	5550 1750 5300 1750
Text Label 5550 1750 2    50   ~ 0
DATA7
Entry Wire Line
	5650 1550 5550 1650
Wire Wire Line
	5550 1650 5300 1650
Text Label 5550 1650 2    50   ~ 0
DATA6
Entry Wire Line
	5650 1450 5550 1550
Wire Wire Line
	5550 1550 5300 1550
Text Label 5550 1550 2    50   ~ 0
DATA5
Entry Wire Line
	5650 1350 5550 1450
Wire Wire Line
	5550 1450 5300 1450
Text Label 5550 1450 2    50   ~ 0
DATA4
Entry Wire Line
	5650 1250 5550 1350
Wire Wire Line
	5550 1350 5300 1350
Text Label 5550 1350 2    50   ~ 0
DATA3
Entry Wire Line
	5650 1150 5550 1250
Wire Wire Line
	5550 1250 5300 1250
Text Label 5550 1250 2    50   ~ 0
DATA2
Entry Wire Line
	5650 1050 5550 1150
Wire Wire Line
	5550 1150 5300 1150
Text Label 5550 1150 2    50   ~ 0
DATA1
Entry Wire Line
	5650 950  5550 1050
Wire Wire Line
	5550 1050 5300 1050
Text Label 5550 1050 2    50   ~ 0
DATA0
Text Label 1950 1600 2    50   ~ 0
~rst
Text Label 1950 1500 2    50   ~ 0
clk
Wire Wire Line
	1750 1600 1950 1600
Wire Wire Line
	1750 1500 1950 1500
$Comp
L power:GNDREF #PWR0166
U 1 1 5FAA6BBF
P 4400 2350
F 0 "#PWR0166" H 4400 2100 50  0001 C CNN
F 1 "GNDREF" H 4405 2177 50  0001 C CNN
F 2 "" H 4400 2350 50  0001 C CNN
F 3 "" H 4400 2350 50  0001 C CNN
	1    4400 2350
	1    0    0    -1  
$EndComp
Connection ~ 4400 750 
Wire Wire Line
	4400 750  4450 750 
$Comp
L power:+3V3 #PWR0165
U 1 1 5FA8BF58
P 4400 750
F 0 "#PWR0165" H 4400 600 50  0001 C CNN
F 1 "+3V3" H 4350 900 50  0000 C CNN
F 2 "" H 4400 750 50  0001 C CNN
F 3 "" H 4400 750 50  0001 C CNN
	1    4400 750 
	1    0    0    -1  
$EndComp
$Comp
L power:GNDREF #PWR0167
U 1 1 5FA8BF52
P 4650 750
F 0 "#PWR0167" H 4650 500 50  0001 C CNN
F 1 "GNDREF" H 4655 577 50  0001 C CNN
F 2 "" H 4650 750 50  0001 C CNN
F 3 "" H 4650 750 50  0001 C CNN
	1    4650 750 
	1    0    0    -1  
$EndComp
$Comp
L Device:C_Small C52
U 1 1 5FA8BF4C
P 4550 750
F 0 "C52" V 4450 700 50  0000 C CNN
F 1 "100n" V 4500 900 50  0000 C CNN
F 2 "Capacitor_SMD:C_0603_1608Metric" H 4550 750 50  0001 C CNN
F 3 "~" H 4550 750 50  0001 C CNN
	1    4550 750 
	0    1    1    0   
$EndComp
$Comp
L 74xx:74LS541 U43
U 1 1 60CFDE01
P 4400 1550
F 0 "U43" H 4150 2200 50  0000 C CNN
F 1 "74HC7541" H 4400 1250 50  0000 C CNN
F 2 "Package_SO:TSSOP-20_4.4x6.5mm_P0.65mm" H 4400 1550 50  0001 C CNN
F 3 "http://www.ti.com/lit/gpn/sn74LS541" H 4400 1550 50  0001 C CNN
	1    4400 1550
	1    0    0    -1  
$EndComp
$Sheet
S 1200 1400 550  300 
U 5FAFFE1A
F0 "PWR/CLK/RST" 50
F1 "pwr-clk-rst.sch" 50
F2 "~rst" I R 1750 1600 50 
F3 "clk" I R 1750 1500 50 
$EndSheet
$Comp
L Device:R_Pack08 RN?
U 1 1 6546E5C0
P 5100 1450
AR Path="/608488F6/6546E5C0" Ref="RN?"  Part="1" 
AR Path="/6546E5C0" Ref="RN12"  Part="1" 
F 0 "RN12" V 4600 1450 50  0000 C CNN
F 1 "10" V 5500 1450 50  0000 C CNN
F 2 "Resistor_SMD:R_Array_Convex_8x0602" V 5575 1450 50  0001 C CNN
F 3 "~" H 5100 1450 50  0001 C CNN
	1    5100 1450
	0    1    1    0   
$EndComp
Text Label 5600 6000 2    50   ~ 0
~rk
Text Label 5600 6200 2    50   ~ 0
~ralu
Wire Wire Line
	5600 6200 5300 6200
Text Label 5600 6100 2    50   ~ 0
~rm
Wire Wire Line
	5600 6100 5300 6100
Text Label 5600 6300 2    50   ~ 0
~pcl
Wire Wire Line
	5600 6300 5300 6300
Wire Wire Line
	5600 6000 5300 6000
Text Label 5600 5900 2    50   ~ 0
~m_clk
Wire Wire Line
	5300 5900 5600 5900
Text Label 5600 5800 2    50   ~ 0
d_clk
Text Label 5600 5700 2    50   ~ 0
b_clk
Text Label 5600 5600 2    50   ~ 0
a_clk
Text Label 5600 5500 2    50   ~ 0
pc_clk
Wire Wire Line
	5300 5500 5600 5500
Wire Wire Line
	5300 5600 5600 5600
Wire Wire Line
	5300 5700 5600 5700
Wire Wire Line
	5300 5800 5600 5800
Wire Bus Line
	4300 5850 4300 6300
Text Label 4300 5850 3    50   ~ 0
COMP[0..2]
Text Label 4250 5500 0    50   ~ 0
clk
Wire Wire Line
	4250 5500 4400 5500
Text Label 10950 2000 2    50   ~ 0
~rst
Wire Wire Line
	10700 2000 10950 2000
Text Label 10950 2100 2    50   ~ 0
~m_clk
Text Label 10050 2100 0    50   ~ 0
~rm
Wire Wire Line
	10950 2100 10700 2100
Wire Wire Line
	10050 2100 10200 2100
Text Label 10950 2400 2    50   ~ 0
ADDR5
Text Label 9950 2400 0    50   ~ 0
ADDR4
Text Label 10950 2300 2    50   ~ 0
ADDR3
Text Label 9950 2300 0    50   ~ 0
ADDR2
Text Label 10950 2200 2    50   ~ 0
ADDR1
Wire Wire Line
	10200 2200 9950 2200
Wire Wire Line
	10700 2200 10950 2200
Wire Wire Line
	10700 2400 10950 2400
Wire Wire Line
	10200 2400 9950 2400
Wire Wire Line
	10700 2300 10950 2300
Wire Wire Line
	10200 2300 9950 2300
Text Label 9950 2200 0    50   ~ 0
ADDR0
Text Label 9950 2500 0    50   ~ 0
ADDR6
Text Label 10950 2500 2    50   ~ 0
ADDR7
Wire Wire Line
	10700 2500 10950 2500
Wire Wire Line
	10200 2500 9950 2500
Wire Wire Line
	10200 2600 9950 2600
Wire Wire Line
	9950 2700 10200 2700
Wire Wire Line
	9950 2800 10200 2800
Wire Wire Line
	9950 2900 10200 2900
Text Label 10950 2900 2    50   ~ 0
DATA7
Text Label 9950 2900 0    50   ~ 0
DATA6
Text Label 10950 2800 2    50   ~ 0
DATA5
Text Label 9950 2800 0    50   ~ 0
DATA4
Text Label 10950 2700 2    50   ~ 0
DATA3
Text Label 9950 2700 0    50   ~ 0
DATA2
Text Label 9950 2600 0    50   ~ 0
DATA0
Wire Bus Line
	9550 3600 9550 3000
Connection ~ 9550 3600
Wire Wire Line
	3500 2650 3450 2650
Connection ~ 3450 2650
Connection ~ 6500 750 
$Comp
L 74xx:74HC273 U44
U 1 1 60C96A96
P 6500 1550
F 0 "U44" H 6250 2200 50  0000 C CNN
F 1 "SN74HC273" V 6500 1550 50  0000 C CNN
F 2 "Package_SO:TSSOP-20_4.4x6.5mm_P0.65mm" H 6500 1550 50  0001 C CNN
F 3 "https://assets.nexperia.com/documents/data-sheet/74HC_HCT273.pdf" H 6500 1550 50  0001 C CNN
	1    6500 1550
	1    0    0    -1  
$EndComp
Connection ~ 6500 2650
$Comp
L 74xx:74HC273 U45
U 1 1 60CD274B
P 6500 3450
F 0 "U45" H 6250 4100 50  0000 C CNN
F 1 "SN74HC273" V 6500 3450 50  0000 C CNN
F 2 "Package_SO:TSSOP-20_4.4x6.5mm_P0.65mm" H 6500 3450 50  0001 C CNN
F 3 "https://assets.nexperia.com/documents/data-sheet/74HC_HCT273.pdf" H 6500 3450 50  0001 C CNN
	1    6500 3450
	1    0    0    -1  
$EndComp
Wire Wire Line
	9650 6050 9900 6050
$Sheet
S 4400 5400 900  1000
U 63265C1D
F0 "ID" 50
F1 "id.sch" 50
F2 "~rk" I R 5300 6000 50 
F3 "~rm" I R 5300 6100 50 
F4 "~ralu" I R 5300 6200 50 
F5 "clk" I L 4400 5500 50 
F6 "pc_clk" I R 5300 5500 50 
F7 "a_clk" I R 5300 5600 50 
F8 "b_clk" I R 5300 5700 50 
F9 "d_clk" I R 5300 5800 50 
F10 "~m_clk" I R 5300 5900 50 
F11 "I[0..15]" I L 4400 5700 50 
F12 "COMP[0..2]" I L 4400 6300 50 
F13 "~pcl" I R 5300 6300 50 
$EndSheet
Text Notes 1700 3800 1    50   ~ 0
4b Binary Counter
Text Notes 1700 5700 1    50   ~ 0
4b Binary Counter
Text Notes 3550 5550 1    50   ~ 0
8b Register
Text Notes 3550 3650 1    50   ~ 0
8b Register
Text Notes 6600 1750 1    50   ~ 0
8b Register
Text Notes 6600 3650 1    50   ~ 0
8b Register
Text Notes 6600 5550 1    50   ~ 0
8b Register
Text Notes 4550 1750 1    50   ~ 0
8b Tri-state Buffer
Text Notes 10450 5400 1    50   ~ 0
8k x 8 SRAM
$Comp
L Connector_Generic:Conn_02x11_Odd_Even J4
U 1 1 5FE24E14
P 10400 2400
F 0 "J4" H 10450 3000 50  0000 C CNN
F 1 "Ext Peripheral" V 10450 2400 50  0000 C CNN
F 2 "Connector_PinHeader_2.54mm:PinHeader_2x11_P2.54mm_Vertical" H 10400 2400 50  0001 C CNN
F 3 "~" H 10400 2400 50  0001 C CNN
	1    10400 2400
	1    0    0    -1  
$EndComp
Wire Wire Line
	7900 1050 7950 1050
Wire Wire Line
	7950 1050 7950 850 
Wire Wire Line
	7900 1750 8000 1750
Wire Wire Line
	7900 1650 8050 1650
Wire Wire Line
	7900 1450 8100 1450
Wire Wire Line
	7900 1350 8050 1350
Wire Wire Line
	7900 1250 8050 1250
Wire Wire Line
	7900 1150 8000 1150
Connection ~ 8450 1900
$Comp
L power:GNDREF #PWR?
U 1 1 6052CB87
P 8450 1900
AR Path="/608488F6/6052CB87" Ref="#PWR?"  Part="1" 
AR Path="/6052CB87" Ref="#PWR0143"  Part="1" 
F 0 "#PWR0143" H 8450 1650 50  0001 C CNN
F 1 "GNDREF" H 8455 1727 50  0001 C CNN
F 2 "" H 8450 1900 50  0001 C CNN
F 3 "" H 8450 1900 50  0001 C CNN
	1    8450 1900
	1    0    0    -1  
$EndComp
Wire Wire Line
	8450 1000 8450 1150
Connection ~ 8450 1000
Wire Wire Line
	8400 1000 8450 1000
Wire Wire Line
	8450 1150 8450 1300
Connection ~ 8450 1150
Wire Wire Line
	8400 1150 8450 1150
Wire Wire Line
	8450 1300 8450 1450
Connection ~ 8450 1300
Wire Wire Line
	8400 1300 8450 1300
Wire Wire Line
	8450 1450 8450 1600
Connection ~ 8450 1450
Wire Wire Line
	8400 1450 8450 1450
Wire Wire Line
	8450 1600 8450 1750
Connection ~ 8450 1600
Wire Wire Line
	8400 1600 8450 1600
Wire Wire Line
	8450 1750 8450 1900
Connection ~ 8450 1750
Wire Wire Line
	8400 1750 8450 1750
Wire Wire Line
	8450 1900 8400 1900
Wire Wire Line
	8450 850  8450 1000
Wire Wire Line
	8400 850  8450 850 
Wire Wire Line
	8000 1900 8100 1900
Wire Wire Line
	8000 1750 8000 1900
Wire Wire Line
	8050 1750 8100 1750
Wire Wire Line
	8050 1650 8050 1750
Wire Wire Line
	8050 1600 8100 1600
Wire Wire Line
	8050 1550 8050 1600
Wire Wire Line
	8050 1300 8100 1300
Wire Wire Line
	8050 1350 8050 1300
Wire Wire Line
	8050 1150 8100 1150
Wire Wire Line
	8050 1250 8050 1150
Wire Wire Line
	8000 1000 8100 1000
Wire Wire Line
	8000 1150 8000 1000
Wire Wire Line
	7950 850  8100 850 
$Comp
L Device:LED D44
U 1 1 6052CB57
P 8250 1900
AR Path="/6052CB57" Ref="D44"  Part="1" 
AR Path="/608488F6/6052CB57" Ref="D?"  Part="1" 
F 0 "D44" H 8400 1850 50  0000 C CNN
F 1 "RED" H 8250 1700 50  0001 C CNN
F 2 "LED_SMD:LED_0603_1608Metric" H 8250 1900 50  0001 C CNN
F 3 "~" H 8250 1900 50  0001 C CNN
	1    8250 1900
	-1   0    0    1   
$EndComp
$Comp
L Device:LED D43
U 1 1 6052CB51
P 8250 1750
AR Path="/6052CB51" Ref="D43"  Part="1" 
AR Path="/608488F6/6052CB51" Ref="D?"  Part="1" 
F 0 "D43" H 8400 1700 50  0000 C CNN
F 1 "RED" H 8250 1650 50  0001 C CNN
F 2 "LED_SMD:LED_0603_1608Metric" H 8250 1750 50  0001 C CNN
F 3 "~" H 8250 1750 50  0001 C CNN
	1    8250 1750
	-1   0    0    1   
$EndComp
$Comp
L Device:LED D42
U 1 1 6052CB4B
P 8250 1600
AR Path="/6052CB4B" Ref="D42"  Part="1" 
AR Path="/608488F6/6052CB4B" Ref="D?"  Part="1" 
F 0 "D42" H 8400 1550 50  0000 C CNN
F 1 "RED" H 8250 1400 50  0001 C CNN
F 2 "LED_SMD:LED_0603_1608Metric" H 8250 1600 50  0001 C CNN
F 3 "~" H 8250 1600 50  0001 C CNN
	1    8250 1600
	-1   0    0    1   
$EndComp
$Comp
L Device:LED D41
U 1 1 6052CB45
P 8250 1450
AR Path="/6052CB45" Ref="D41"  Part="1" 
AR Path="/608488F6/6052CB45" Ref="D?"  Part="1" 
F 0 "D41" H 8400 1400 50  0000 C CNN
F 1 "RED" H 8250 1350 50  0001 C CNN
F 2 "LED_SMD:LED_0603_1608Metric" H 8250 1450 50  0001 C CNN
F 3 "~" H 8250 1450 50  0001 C CNN
	1    8250 1450
	-1   0    0    1   
$EndComp
$Comp
L Device:LED D40
U 1 1 6052CB3F
P 8250 1300
AR Path="/6052CB3F" Ref="D40"  Part="1" 
AR Path="/608488F6/6052CB3F" Ref="D?"  Part="1" 
F 0 "D40" H 8400 1250 50  0000 C CNN
F 1 "RED" H 8250 1100 50  0001 C CNN
F 2 "LED_SMD:LED_0603_1608Metric" H 8250 1300 50  0001 C CNN
F 3 "~" H 8250 1300 50  0001 C CNN
	1    8250 1300
	-1   0    0    1   
$EndComp
$Comp
L Device:LED D39
U 1 1 6052CB39
P 8250 1150
AR Path="/6052CB39" Ref="D39"  Part="1" 
AR Path="/608488F6/6052CB39" Ref="D?"  Part="1" 
F 0 "D39" H 8400 1100 50  0000 C CNN
F 1 "RED" H 8250 1050 50  0001 C CNN
F 2 "LED_SMD:LED_0603_1608Metric" H 8250 1150 50  0001 C CNN
F 3 "~" H 8250 1150 50  0001 C CNN
	1    8250 1150
	-1   0    0    1   
$EndComp
$Comp
L Device:LED D38
U 1 1 6052CB33
P 8250 1000
AR Path="/6052CB33" Ref="D38"  Part="1" 
AR Path="/608488F6/6052CB33" Ref="D?"  Part="1" 
F 0 "D38" H 8400 950 50  0000 C CNN
F 1 "RED" H 8250 800 50  0001 C CNN
F 2 "LED_SMD:LED_0603_1608Metric" H 8250 1000 50  0001 C CNN
F 3 "~" H 8250 1000 50  0001 C CNN
	1    8250 1000
	-1   0    0    1   
$EndComp
$Comp
L Device:LED D37
U 1 1 6052CB2D
P 8250 850
AR Path="/6052CB2D" Ref="D37"  Part="1" 
AR Path="/608488F6/6052CB2D" Ref="D?"  Part="1" 
F 0 "D37" H 8400 800 50  0000 C CNN
F 1 "RED" H 8250 750 50  0000 C CNN
F 2 "LED_SMD:LED_0603_1608Metric" H 8250 850 50  0001 C CNN
F 3 "~" H 8250 850 50  0001 C CNN
	1    8250 850 
	-1   0    0    1   
$EndComp
Wire Wire Line
	5800 1950 6000 1950
Wire Wire Line
	5800 3850 6000 3850
Wire Wire Line
	7900 2950 7950 2950
Wire Wire Line
	7950 2950 7950 2750
Wire Wire Line
	7900 3650 8000 3650
Wire Wire Line
	7900 3550 8050 3550
Wire Wire Line
	7900 3450 8050 3450
Wire Wire Line
	7900 3350 8100 3350
Wire Wire Line
	7900 3250 8050 3250
Wire Wire Line
	7900 3150 8050 3150
Wire Wire Line
	7900 3050 8000 3050
Connection ~ 8450 3800
$Comp
L power:GNDREF #PWR?
U 1 1 60A7E576
P 8450 3800
AR Path="/608488F6/60A7E576" Ref="#PWR?"  Part="1" 
AR Path="/60A7E576" Ref="#PWR0144"  Part="1" 
F 0 "#PWR0144" H 8450 3550 50  0001 C CNN
F 1 "GNDREF" H 8455 3627 50  0001 C CNN
F 2 "" H 8450 3800 50  0001 C CNN
F 3 "" H 8450 3800 50  0001 C CNN
	1    8450 3800
	1    0    0    -1  
$EndComp
Wire Wire Line
	8450 2900 8450 3050
Connection ~ 8450 2900
Wire Wire Line
	8400 2900 8450 2900
Wire Wire Line
	8450 3050 8450 3200
Connection ~ 8450 3050
Wire Wire Line
	8400 3050 8450 3050
Wire Wire Line
	8450 3200 8450 3350
Connection ~ 8450 3200
Wire Wire Line
	8400 3200 8450 3200
Wire Wire Line
	8450 3350 8450 3500
Connection ~ 8450 3350
Wire Wire Line
	8400 3350 8450 3350
Wire Wire Line
	8450 3500 8450 3650
Connection ~ 8450 3500
Wire Wire Line
	8400 3500 8450 3500
Wire Wire Line
	8450 3650 8450 3800
Connection ~ 8450 3650
Wire Wire Line
	8400 3650 8450 3650
Wire Wire Line
	8450 3800 8400 3800
Wire Wire Line
	8450 2750 8450 2900
Wire Wire Line
	8400 2750 8450 2750
Wire Wire Line
	8000 3800 8100 3800
Wire Wire Line
	8000 3650 8000 3800
Wire Wire Line
	8050 3650 8100 3650
Wire Wire Line
	8050 3550 8050 3650
Wire Wire Line
	8050 3500 8100 3500
Wire Wire Line
	8050 3450 8050 3500
Wire Wire Line
	8050 3200 8100 3200
Wire Wire Line
	8050 3250 8050 3200
Wire Wire Line
	8050 3050 8100 3050
Wire Wire Line
	8050 3150 8050 3050
Wire Wire Line
	8000 2900 8100 2900
Wire Wire Line
	8000 3050 8000 2900
Wire Wire Line
	7950 2750 8100 2750
$Comp
L Device:LED D52
U 1 1 60A7E59E
P 8250 3800
AR Path="/60A7E59E" Ref="D52"  Part="1" 
AR Path="/608488F6/60A7E59E" Ref="D?"  Part="1" 
F 0 "D52" H 8400 3750 50  0000 C CNN
F 1 "RED" H 8250 3600 50  0001 C CNN
F 2 "LED_SMD:LED_0603_1608Metric" H 8250 3800 50  0001 C CNN
F 3 "~" H 8250 3800 50  0001 C CNN
	1    8250 3800
	-1   0    0    1   
$EndComp
$Comp
L Device:LED D51
U 1 1 60A7E5A4
P 8250 3650
AR Path="/60A7E5A4" Ref="D51"  Part="1" 
AR Path="/608488F6/60A7E5A4" Ref="D?"  Part="1" 
F 0 "D51" H 8400 3600 50  0000 C CNN
F 1 "RED" H 8250 3550 50  0001 C CNN
F 2 "LED_SMD:LED_0603_1608Metric" H 8250 3650 50  0001 C CNN
F 3 "~" H 8250 3650 50  0001 C CNN
	1    8250 3650
	-1   0    0    1   
$EndComp
$Comp
L Device:LED D50
U 1 1 60A7E5AA
P 8250 3500
AR Path="/60A7E5AA" Ref="D50"  Part="1" 
AR Path="/608488F6/60A7E5AA" Ref="D?"  Part="1" 
F 0 "D50" H 8400 3450 50  0000 C CNN
F 1 "RED" H 8250 3300 50  0001 C CNN
F 2 "LED_SMD:LED_0603_1608Metric" H 8250 3500 50  0001 C CNN
F 3 "~" H 8250 3500 50  0001 C CNN
	1    8250 3500
	-1   0    0    1   
$EndComp
$Comp
L Device:LED D49
U 1 1 60A7E5B0
P 8250 3350
AR Path="/60A7E5B0" Ref="D49"  Part="1" 
AR Path="/608488F6/60A7E5B0" Ref="D?"  Part="1" 
F 0 "D49" H 8400 3300 50  0000 C CNN
F 1 "RED" H 8250 3250 50  0001 C CNN
F 2 "LED_SMD:LED_0603_1608Metric" H 8250 3350 50  0001 C CNN
F 3 "~" H 8250 3350 50  0001 C CNN
	1    8250 3350
	-1   0    0    1   
$EndComp
$Comp
L Device:LED D48
U 1 1 60A7E5B6
P 8250 3200
AR Path="/60A7E5B6" Ref="D48"  Part="1" 
AR Path="/608488F6/60A7E5B6" Ref="D?"  Part="1" 
F 0 "D48" H 8400 3150 50  0000 C CNN
F 1 "RED" H 8250 3000 50  0001 C CNN
F 2 "LED_SMD:LED_0603_1608Metric" H 8250 3200 50  0001 C CNN
F 3 "~" H 8250 3200 50  0001 C CNN
	1    8250 3200
	-1   0    0    1   
$EndComp
$Comp
L Device:LED D47
U 1 1 60A7E5BC
P 8250 3050
AR Path="/60A7E5BC" Ref="D47"  Part="1" 
AR Path="/608488F6/60A7E5BC" Ref="D?"  Part="1" 
F 0 "D47" H 8400 3000 50  0000 C CNN
F 1 "RED" H 8250 2950 50  0001 C CNN
F 2 "LED_SMD:LED_0603_1608Metric" H 8250 3050 50  0001 C CNN
F 3 "~" H 8250 3050 50  0001 C CNN
	1    8250 3050
	-1   0    0    1   
$EndComp
$Comp
L Device:LED D46
U 1 1 60A7E5C2
P 8250 2900
AR Path="/60A7E5C2" Ref="D46"  Part="1" 
AR Path="/608488F6/60A7E5C2" Ref="D?"  Part="1" 
F 0 "D46" H 8400 2850 50  0000 C CNN
F 1 "RED" H 8250 2700 50  0001 C CNN
F 2 "LED_SMD:LED_0603_1608Metric" H 8250 2900 50  0001 C CNN
F 3 "~" H 8250 2900 50  0001 C CNN
	1    8250 2900
	-1   0    0    1   
$EndComp
$Comp
L Device:LED D45
U 1 1 60A7E5C8
P 8250 2750
AR Path="/60A7E5C8" Ref="D45"  Part="1" 
AR Path="/608488F6/60A7E5C8" Ref="D?"  Part="1" 
F 0 "D45" H 8400 2700 50  0000 C CNN
F 1 "RED" H 8250 2650 50  0000 C CNN
F 2 "LED_SMD:LED_0603_1608Metric" H 8250 2750 50  0001 C CNN
F 3 "~" H 8250 2750 50  0001 C CNN
	1    8250 2750
	-1   0    0    1   
$EndComp
Wire Bus Line
	9200 2900 9550 2900
Wire Bus Line
	9550 2900 9550 2550
Wire Bus Line
	9550 2550 9500 2550
Wire Wire Line
	7750 4850 7750 4650
Wire Wire Line
	7800 5700 7900 5700
Wire Wire Line
	7800 5550 7800 5700
Wire Wire Line
	7850 5550 7900 5550
Wire Wire Line
	7850 5450 7850 5550
Wire Wire Line
	7850 5400 7900 5400
Wire Wire Line
	7850 5350 7850 5400
Wire Wire Line
	7850 5100 7900 5100
Wire Wire Line
	7850 5150 7850 5100
Wire Wire Line
	7850 4950 7900 4950
Wire Wire Line
	7850 5050 7850 4950
Wire Wire Line
	7800 4800 7900 4800
Wire Wire Line
	7800 4950 7800 4800
Wire Wire Line
	7750 4650 7900 4650
$Comp
L Device:LED D60
U 1 1 6116EC11
P 8050 5700
AR Path="/6116EC11" Ref="D60"  Part="1" 
AR Path="/608488F6/6116EC11" Ref="D?"  Part="1" 
F 0 "D60" H 8200 5650 50  0000 C CNN
F 1 "RED" H 8050 5500 50  0001 C CNN
F 2 "LED_SMD:LED_0603_1608Metric" H 8050 5700 50  0001 C CNN
F 3 "~" H 8050 5700 50  0001 C CNN
	1    8050 5700
	-1   0    0    1   
$EndComp
$Comp
L Device:LED D59
U 1 1 6116EC17
P 8050 5550
AR Path="/6116EC17" Ref="D59"  Part="1" 
AR Path="/608488F6/6116EC17" Ref="D?"  Part="1" 
F 0 "D59" H 8200 5500 50  0000 C CNN
F 1 "RED" H 8050 5450 50  0001 C CNN
F 2 "LED_SMD:LED_0603_1608Metric" H 8050 5550 50  0001 C CNN
F 3 "~" H 8050 5550 50  0001 C CNN
	1    8050 5550
	-1   0    0    1   
$EndComp
$Comp
L Device:LED D58
U 1 1 6116EC1D
P 8050 5400
AR Path="/6116EC1D" Ref="D58"  Part="1" 
AR Path="/608488F6/6116EC1D" Ref="D?"  Part="1" 
F 0 "D58" H 8200 5350 50  0000 C CNN
F 1 "RED" H 8050 5200 50  0001 C CNN
F 2 "LED_SMD:LED_0603_1608Metric" H 8050 5400 50  0001 C CNN
F 3 "~" H 8050 5400 50  0001 C CNN
	1    8050 5400
	-1   0    0    1   
$EndComp
$Comp
L Device:LED D57
U 1 1 6116EC23
P 8050 5250
AR Path="/6116EC23" Ref="D57"  Part="1" 
AR Path="/608488F6/6116EC23" Ref="D?"  Part="1" 
F 0 "D57" H 8200 5200 50  0000 C CNN
F 1 "RED" H 8050 5150 50  0001 C CNN
F 2 "LED_SMD:LED_0603_1608Metric" H 8050 5250 50  0001 C CNN
F 3 "~" H 8050 5250 50  0001 C CNN
	1    8050 5250
	-1   0    0    1   
$EndComp
$Comp
L Device:LED D56
U 1 1 6116EC29
P 8050 5100
AR Path="/6116EC29" Ref="D56"  Part="1" 
AR Path="/608488F6/6116EC29" Ref="D?"  Part="1" 
F 0 "D56" H 8200 5050 50  0000 C CNN
F 1 "RED" H 8050 4900 50  0001 C CNN
F 2 "LED_SMD:LED_0603_1608Metric" H 8050 5100 50  0001 C CNN
F 3 "~" H 8050 5100 50  0001 C CNN
	1    8050 5100
	-1   0    0    1   
$EndComp
$Comp
L Device:LED D55
U 1 1 6116EC2F
P 8050 4950
AR Path="/6116EC2F" Ref="D55"  Part="1" 
AR Path="/608488F6/6116EC2F" Ref="D?"  Part="1" 
F 0 "D55" H 8200 4900 50  0000 C CNN
F 1 "RED" H 8050 4850 50  0001 C CNN
F 2 "LED_SMD:LED_0603_1608Metric" H 8050 4950 50  0001 C CNN
F 3 "~" H 8050 4950 50  0001 C CNN
	1    8050 4950
	-1   0    0    1   
$EndComp
$Comp
L Device:LED D54
U 1 1 6116EC35
P 8050 4800
AR Path="/6116EC35" Ref="D54"  Part="1" 
AR Path="/608488F6/6116EC35" Ref="D?"  Part="1" 
F 0 "D54" H 8200 4750 50  0000 C CNN
F 1 "RED" H 8050 4600 50  0001 C CNN
F 2 "LED_SMD:LED_0603_1608Metric" H 8050 4800 50  0001 C CNN
F 3 "~" H 8050 4800 50  0001 C CNN
	1    8050 4800
	-1   0    0    1   
$EndComp
Wire Wire Line
	4900 2950 4950 2950
Wire Wire Line
	4950 2950 4950 2750
Wire Wire Line
	4900 3650 5000 3650
Wire Wire Line
	4900 3550 5050 3550
Wire Wire Line
	4900 3450 5050 3450
Wire Wire Line
	4900 3350 5100 3350
Wire Wire Line
	4900 3250 5050 3250
Wire Wire Line
	4900 3150 5050 3150
Wire Wire Line
	4900 3050 5000 3050
Wire Wire Line
	5450 2900 5450 3050
Connection ~ 5450 2900
Wire Wire Line
	5400 2900 5450 2900
Wire Wire Line
	5450 3050 5450 3200
Connection ~ 5450 3050
Wire Wire Line
	5400 3050 5450 3050
Wire Wire Line
	5450 3200 5450 3350
Connection ~ 5450 3200
Wire Wire Line
	5400 3200 5450 3200
Wire Wire Line
	5450 3350 5450 3500
Connection ~ 5450 3350
Wire Wire Line
	5400 3350 5450 3350
Wire Wire Line
	5450 3500 5450 3650
Connection ~ 5450 3500
Wire Wire Line
	5400 3500 5450 3500
Wire Wire Line
	5450 3650 5450 3800
Connection ~ 5450 3650
Wire Wire Line
	5400 3650 5450 3650
Wire Wire Line
	5450 3800 5400 3800
Wire Wire Line
	5450 2750 5450 2900
Wire Wire Line
	5400 2750 5450 2750
Wire Wire Line
	5000 3800 5100 3800
Wire Wire Line
	5000 3650 5000 3800
Wire Wire Line
	5050 3650 5100 3650
Wire Wire Line
	5050 3550 5050 3650
Wire Wire Line
	5050 3500 5100 3500
Wire Wire Line
	5050 3450 5050 3500
Wire Wire Line
	5050 3200 5100 3200
Wire Wire Line
	5050 3250 5050 3200
Wire Wire Line
	5050 3050 5100 3050
Wire Wire Line
	5050 3150 5050 3050
Wire Wire Line
	5000 2900 5100 2900
Wire Wire Line
	5000 3050 5000 2900
Wire Wire Line
	4950 2750 5100 2750
$Comp
L Device:LED D26
U 1 1 613B41AE
P 5250 3800
AR Path="/613B41AE" Ref="D26"  Part="1" 
AR Path="/608488F6/613B41AE" Ref="D?"  Part="1" 
F 0 "D26" H 5400 3750 50  0000 C CNN
F 1 "YEL" H 5250 3600 50  0001 C CNN
F 2 "LED_SMD:LED_0603_1608Metric" H 5250 3800 50  0001 C CNN
F 3 "~" H 5250 3800 50  0001 C CNN
	1    5250 3800
	-1   0    0    1   
$EndComp
$Comp
L Device:LED D25
U 1 1 613B41B4
P 5250 3650
AR Path="/613B41B4" Ref="D25"  Part="1" 
AR Path="/608488F6/613B41B4" Ref="D?"  Part="1" 
F 0 "D25" H 5400 3600 50  0000 C CNN
F 1 "YEL" H 5250 3550 50  0001 C CNN
F 2 "LED_SMD:LED_0603_1608Metric" H 5250 3650 50  0001 C CNN
F 3 "~" H 5250 3650 50  0001 C CNN
	1    5250 3650
	-1   0    0    1   
$EndComp
$Comp
L Device:LED D24
U 1 1 613B41BA
P 5250 3500
AR Path="/613B41BA" Ref="D24"  Part="1" 
AR Path="/608488F6/613B41BA" Ref="D?"  Part="1" 
F 0 "D24" H 5400 3450 50  0000 C CNN
F 1 "YEL" H 5250 3300 50  0001 C CNN
F 2 "LED_SMD:LED_0603_1608Metric" H 5250 3500 50  0001 C CNN
F 3 "~" H 5250 3500 50  0001 C CNN
	1    5250 3500
	-1   0    0    1   
$EndComp
$Comp
L Device:LED D23
U 1 1 613B41C0
P 5250 3350
AR Path="/613B41C0" Ref="D23"  Part="1" 
AR Path="/608488F6/613B41C0" Ref="D?"  Part="1" 
F 0 "D23" H 5400 3300 50  0000 C CNN
F 1 "YEL" H 5250 3250 50  0001 C CNN
F 2 "LED_SMD:LED_0603_1608Metric" H 5250 3350 50  0001 C CNN
F 3 "~" H 5250 3350 50  0001 C CNN
	1    5250 3350
	-1   0    0    1   
$EndComp
$Comp
L Device:LED D22
U 1 1 613B41C6
P 5250 3200
AR Path="/613B41C6" Ref="D22"  Part="1" 
AR Path="/608488F6/613B41C6" Ref="D?"  Part="1" 
F 0 "D22" H 5400 3150 50  0000 C CNN
F 1 "YEL" H 5250 3000 50  0001 C CNN
F 2 "LED_SMD:LED_0603_1608Metric" H 5250 3200 50  0001 C CNN
F 3 "~" H 5250 3200 50  0001 C CNN
	1    5250 3200
	-1   0    0    1   
$EndComp
$Comp
L Device:LED D21
U 1 1 613B41CC
P 5250 3050
AR Path="/613B41CC" Ref="D21"  Part="1" 
AR Path="/608488F6/613B41CC" Ref="D?"  Part="1" 
F 0 "D21" H 5400 3000 50  0000 C CNN
F 1 "YEL" H 5250 2950 50  0001 C CNN
F 2 "LED_SMD:LED_0603_1608Metric" H 5250 3050 50  0001 C CNN
F 3 "~" H 5250 3050 50  0001 C CNN
	1    5250 3050
	-1   0    0    1   
$EndComp
$Comp
L Device:LED D20
U 1 1 613B41D2
P 5250 2900
AR Path="/613B41D2" Ref="D20"  Part="1" 
AR Path="/608488F6/613B41D2" Ref="D?"  Part="1" 
F 0 "D20" H 5400 2850 50  0000 C CNN
F 1 "YEL" H 5250 2700 50  0001 C CNN
F 2 "LED_SMD:LED_0603_1608Metric" H 5250 2900 50  0001 C CNN
F 3 "~" H 5250 2900 50  0001 C CNN
	1    5250 2900
	-1   0    0    1   
$EndComp
$Comp
L Device:LED D19
U 1 1 613B41D8
P 5250 2750
AR Path="/613B41D8" Ref="D19"  Part="1" 
AR Path="/608488F6/613B41D8" Ref="D?"  Part="1" 
F 0 "D19" H 5400 2700 50  0000 C CNN
F 1 "YEL" H 5250 2650 50  0000 C CNN
F 2 "LED_SMD:LED_0603_1608Metric" H 5250 2750 50  0001 C CNN
F 3 "~" H 5250 2750 50  0001 C CNN
	1    5250 2750
	-1   0    0    1   
$EndComp
Wire Wire Line
	4900 4350 4950 4350
Wire Wire Line
	4950 4350 4950 4150
Wire Wire Line
	4900 5050 5000 5050
Wire Wire Line
	4900 4950 5050 4950
Wire Wire Line
	4900 4850 5050 4850
Wire Wire Line
	4900 4750 5100 4750
Wire Wire Line
	4900 4650 5050 4650
Wire Wire Line
	4900 4550 5050 4550
Wire Wire Line
	4900 4450 5000 4450
Wire Wire Line
	5450 4300 5450 4450
Connection ~ 5450 4300
Wire Wire Line
	5400 4300 5450 4300
Wire Wire Line
	5450 4450 5450 4600
Connection ~ 5450 4450
Wire Wire Line
	5400 4450 5450 4450
Wire Wire Line
	5450 4600 5450 4750
Connection ~ 5450 4600
Wire Wire Line
	5400 4600 5450 4600
Wire Wire Line
	5450 4750 5450 4900
Connection ~ 5450 4750
Wire Wire Line
	5400 4750 5450 4750
Wire Wire Line
	5450 4900 5450 5050
Connection ~ 5450 4900
Wire Wire Line
	5400 4900 5450 4900
Wire Wire Line
	5450 5050 5450 5200
Connection ~ 5450 5050
Wire Wire Line
	5400 5050 5450 5050
Wire Wire Line
	5450 5200 5400 5200
Wire Wire Line
	5450 4150 5450 4300
Wire Wire Line
	5400 4150 5450 4150
Wire Wire Line
	5000 5200 5100 5200
Wire Wire Line
	5000 5050 5000 5200
Wire Wire Line
	5050 5050 5100 5050
Wire Wire Line
	5050 4950 5050 5050
Wire Wire Line
	5050 4900 5100 4900
Wire Wire Line
	5050 4850 5050 4900
Wire Wire Line
	5050 4600 5100 4600
Wire Wire Line
	5050 4650 5050 4600
Wire Wire Line
	5050 4450 5100 4450
Wire Wire Line
	5050 4550 5050 4450
Wire Wire Line
	5000 4300 5100 4300
Wire Wire Line
	5000 4450 5000 4300
Wire Wire Line
	4950 4150 5100 4150
$Comp
L Device:LED D34
U 1 1 614B9014
P 5250 5200
AR Path="/614B9014" Ref="D34"  Part="1" 
AR Path="/608488F6/614B9014" Ref="D?"  Part="1" 
F 0 "D34" H 5400 5150 50  0000 C CNN
F 1 "YEL" H 5250 5000 50  0001 C CNN
F 2 "LED_SMD:LED_0603_1608Metric" H 5250 5200 50  0001 C CNN
F 3 "~" H 5250 5200 50  0001 C CNN
	1    5250 5200
	-1   0    0    1   
$EndComp
$Comp
L Device:LED D33
U 1 1 614B901A
P 5250 5050
AR Path="/614B901A" Ref="D33"  Part="1" 
AR Path="/608488F6/614B901A" Ref="D?"  Part="1" 
F 0 "D33" H 5400 5000 50  0000 C CNN
F 1 "YEL" H 5250 4950 50  0001 C CNN
F 2 "LED_SMD:LED_0603_1608Metric" H 5250 5050 50  0001 C CNN
F 3 "~" H 5250 5050 50  0001 C CNN
	1    5250 5050
	-1   0    0    1   
$EndComp
$Comp
L Device:LED D32
U 1 1 614B9020
P 5250 4900
AR Path="/614B9020" Ref="D32"  Part="1" 
AR Path="/608488F6/614B9020" Ref="D?"  Part="1" 
F 0 "D32" H 5400 4850 50  0000 C CNN
F 1 "YEL" H 5250 4700 50  0001 C CNN
F 2 "LED_SMD:LED_0603_1608Metric" H 5250 4900 50  0001 C CNN
F 3 "~" H 5250 4900 50  0001 C CNN
	1    5250 4900
	-1   0    0    1   
$EndComp
$Comp
L Device:LED D31
U 1 1 614B9026
P 5250 4750
AR Path="/614B9026" Ref="D31"  Part="1" 
AR Path="/608488F6/614B9026" Ref="D?"  Part="1" 
F 0 "D31" H 5400 4700 50  0000 C CNN
F 1 "YEL" H 5250 4650 50  0001 C CNN
F 2 "LED_SMD:LED_0603_1608Metric" H 5250 4750 50  0001 C CNN
F 3 "~" H 5250 4750 50  0001 C CNN
	1    5250 4750
	-1   0    0    1   
$EndComp
$Comp
L Device:LED D30
U 1 1 614B902C
P 5250 4600
AR Path="/614B902C" Ref="D30"  Part="1" 
AR Path="/608488F6/614B902C" Ref="D?"  Part="1" 
F 0 "D30" H 5400 4550 50  0000 C CNN
F 1 "YEL" H 5250 4400 50  0001 C CNN
F 2 "LED_SMD:LED_0603_1608Metric" H 5250 4600 50  0001 C CNN
F 3 "~" H 5250 4600 50  0001 C CNN
	1    5250 4600
	-1   0    0    1   
$EndComp
$Comp
L Device:LED D29
U 1 1 614B9032
P 5250 4450
AR Path="/614B9032" Ref="D29"  Part="1" 
AR Path="/608488F6/614B9032" Ref="D?"  Part="1" 
F 0 "D29" H 5400 4400 50  0000 C CNN
F 1 "YEL" H 5250 4350 50  0001 C CNN
F 2 "LED_SMD:LED_0603_1608Metric" H 5250 4450 50  0001 C CNN
F 3 "~" H 5250 4450 50  0001 C CNN
	1    5250 4450
	-1   0    0    1   
$EndComp
$Comp
L Device:LED D28
U 1 1 614B9038
P 5250 4300
AR Path="/614B9038" Ref="D28"  Part="1" 
AR Path="/608488F6/614B9038" Ref="D?"  Part="1" 
F 0 "D28" H 5400 4250 50  0000 C CNN
F 1 "YEL" H 5250 4100 50  0001 C CNN
F 2 "LED_SMD:LED_0603_1608Metric" H 5250 4300 50  0001 C CNN
F 3 "~" H 5250 4300 50  0001 C CNN
	1    5250 4300
	-1   0    0    1   
$EndComp
$Comp
L Device:LED D27
U 1 1 614B903E
P 5250 4150
AR Path="/614B903E" Ref="D27"  Part="1" 
AR Path="/608488F6/614B903E" Ref="D?"  Part="1" 
F 0 "D27" H 5400 4100 50  0000 C CNN
F 1 "YEL" H 5250 4050 50  0000 C CNN
F 2 "LED_SMD:LED_0603_1608Metric" H 5250 4150 50  0001 C CNN
F 3 "~" H 5250 4150 50  0001 C CNN
	1    5250 4150
	-1   0    0    1   
$EndComp
$Comp
L power:GNDREF #PWR?
U 1 1 615BEFE4
P 5450 3800
AR Path="/608488F6/615BEFE4" Ref="#PWR?"  Part="1" 
AR Path="/615BEFE4" Ref="#PWR0148"  Part="1" 
F 0 "#PWR0148" H 5450 3550 50  0001 C CNN
F 1 "GNDREF" H 5455 3627 50  0001 C CNN
F 2 "" H 5450 3800 50  0001 C CNN
F 3 "" H 5450 3800 50  0001 C CNN
	1    5450 3800
	1    0    0    -1  
$EndComp
Connection ~ 5450 3800
$Comp
L power:GNDREF #PWR?
U 1 1 615C1838
P 5450 5200
AR Path="/608488F6/615C1838" Ref="#PWR?"  Part="1" 
AR Path="/615C1838" Ref="#PWR0168"  Part="1" 
F 0 "#PWR0168" H 5450 4950 50  0001 C CNN
F 1 "GNDREF" H 5455 5027 50  0001 C CNN
F 2 "" H 5450 5200 50  0001 C CNN
F 3 "" H 5450 5200 50  0001 C CNN
	1    5450 5200
	1    0    0    -1  
$EndComp
Connection ~ 5450 5200
Wire Wire Line
	3000 1400 3050 1400
Wire Wire Line
	3050 1400 3050 1200
Wire Wire Line
	3000 2100 3100 2100
Wire Wire Line
	3000 2000 3150 2000
Wire Wire Line
	3000 1900 3150 1900
Wire Wire Line
	3000 1800 3200 1800
Wire Wire Line
	3000 1700 3150 1700
Wire Wire Line
	3000 1600 3150 1600
Wire Wire Line
	3000 1500 3100 1500
Wire Wire Line
	3550 1350 3550 1500
Connection ~ 3550 1350
Wire Wire Line
	3500 1350 3550 1350
Wire Wire Line
	3550 1500 3550 1650
Connection ~ 3550 1500
Wire Wire Line
	3500 1500 3550 1500
Wire Wire Line
	3550 1650 3550 1800
Connection ~ 3550 1650
Wire Wire Line
	3500 1650 3550 1650
Wire Wire Line
	3550 1800 3550 1950
Connection ~ 3550 1800
Wire Wire Line
	3500 1800 3550 1800
Wire Wire Line
	3550 1950 3550 2100
Connection ~ 3550 1950
Wire Wire Line
	3500 1950 3550 1950
Wire Wire Line
	3550 2100 3550 2250
Connection ~ 3550 2100
Wire Wire Line
	3500 2100 3550 2100
Wire Wire Line
	3550 2250 3500 2250
Wire Wire Line
	3550 1200 3550 1350
Wire Wire Line
	3500 1200 3550 1200
Wire Wire Line
	3100 2250 3200 2250
Wire Wire Line
	3100 2100 3100 2250
Wire Wire Line
	3150 2100 3200 2100
Wire Wire Line
	3150 2000 3150 2100
Wire Wire Line
	3150 1950 3200 1950
Wire Wire Line
	3150 1900 3150 1950
Wire Wire Line
	3150 1650 3200 1650
Wire Wire Line
	3150 1700 3150 1650
Wire Wire Line
	3150 1500 3200 1500
Wire Wire Line
	3150 1600 3150 1500
Wire Wire Line
	3100 1350 3200 1350
Wire Wire Line
	3100 1500 3100 1350
Wire Wire Line
	3050 1200 3200 1200
$Comp
L Device:LED D11
U 1 1 617478D5
P 3350 2250
AR Path="/617478D5" Ref="D11"  Part="1" 
AR Path="/608488F6/617478D5" Ref="D?"  Part="1" 
F 0 "D11" H 3500 2200 50  0000 C CNN
F 1 "BLU" H 3350 2050 50  0001 C CNN
F 2 "LED_SMD:LED_0603_1608Metric" H 3350 2250 50  0001 C CNN
F 3 "~" H 3350 2250 50  0001 C CNN
	1    3350 2250
	-1   0    0    1   
$EndComp
$Comp
L Device:LED D10
U 1 1 617478DB
P 3350 2100
AR Path="/617478DB" Ref="D10"  Part="1" 
AR Path="/608488F6/617478DB" Ref="D?"  Part="1" 
F 0 "D10" H 3500 2050 50  0000 C CNN
F 1 "BLU" H 3350 2000 50  0001 C CNN
F 2 "LED_SMD:LED_0603_1608Metric" H 3350 2100 50  0001 C CNN
F 3 "~" H 3350 2100 50  0001 C CNN
	1    3350 2100
	-1   0    0    1   
$EndComp
$Comp
L Device:LED D9
U 1 1 617478E1
P 3350 1950
AR Path="/617478E1" Ref="D9"  Part="1" 
AR Path="/608488F6/617478E1" Ref="D?"  Part="1" 
F 0 "D9" H 3500 1900 50  0000 C CNN
F 1 "BLU" H 3350 1750 50  0001 C CNN
F 2 "LED_SMD:LED_0603_1608Metric" H 3350 1950 50  0001 C CNN
F 3 "~" H 3350 1950 50  0001 C CNN
	1    3350 1950
	-1   0    0    1   
$EndComp
$Comp
L Device:LED D8
U 1 1 617478E7
P 3350 1800
AR Path="/617478E7" Ref="D8"  Part="1" 
AR Path="/608488F6/617478E7" Ref="D?"  Part="1" 
F 0 "D8" H 3500 1750 50  0000 C CNN
F 1 "BLU" H 3350 1700 50  0001 C CNN
F 2 "LED_SMD:LED_0603_1608Metric" H 3350 1800 50  0001 C CNN
F 3 "~" H 3350 1800 50  0001 C CNN
	1    3350 1800
	-1   0    0    1   
$EndComp
$Comp
L Device:LED D7
U 1 1 617478ED
P 3350 1650
AR Path="/617478ED" Ref="D7"  Part="1" 
AR Path="/608488F6/617478ED" Ref="D?"  Part="1" 
F 0 "D7" H 3500 1600 50  0000 C CNN
F 1 "BLU" H 3350 1450 50  0001 C CNN
F 2 "LED_SMD:LED_0603_1608Metric" H 3350 1650 50  0001 C CNN
F 3 "~" H 3350 1650 50  0001 C CNN
	1    3350 1650
	-1   0    0    1   
$EndComp
$Comp
L Device:LED D6
U 1 1 617478F3
P 3350 1500
AR Path="/617478F3" Ref="D6"  Part="1" 
AR Path="/608488F6/617478F3" Ref="D?"  Part="1" 
F 0 "D6" H 3500 1450 50  0000 C CNN
F 1 "BLU" H 3350 1400 50  0001 C CNN
F 2 "LED_SMD:LED_0603_1608Metric" H 3350 1500 50  0001 C CNN
F 3 "~" H 3350 1500 50  0001 C CNN
	1    3350 1500
	-1   0    0    1   
$EndComp
$Comp
L Device:LED D5
U 1 1 617478F9
P 3350 1350
AR Path="/617478F9" Ref="D5"  Part="1" 
AR Path="/608488F6/617478F9" Ref="D?"  Part="1" 
F 0 "D5" H 3500 1300 50  0000 C CNN
F 1 "BLU" H 3350 1150 50  0001 C CNN
F 2 "LED_SMD:LED_0603_1608Metric" H 3350 1350 50  0001 C CNN
F 3 "~" H 3350 1350 50  0001 C CNN
	1    3350 1350
	-1   0    0    1   
$EndComp
$Comp
L Device:LED D4
U 1 1 617478FF
P 3350 1200
AR Path="/617478FF" Ref="D4"  Part="1" 
AR Path="/608488F6/617478FF" Ref="D?"  Part="1" 
F 0 "D4" H 3500 1150 50  0000 C CNN
F 1 "BLU" H 3350 1100 50  0000 C CNN
F 2 "LED_SMD:LED_0603_1608Metric" H 3350 1200 50  0001 C CNN
F 3 "~" H 3350 1200 50  0001 C CNN
	1    3350 1200
	-1   0    0    1   
$EndComp
$Comp
L power:GNDREF #PWR0169
U 1 1 618D068E
P 3550 2250
F 0 "#PWR0169" H 3550 2000 50  0001 C CNN
F 1 "GNDREF" H 3555 2077 50  0001 C CNN
F 2 "" H 3550 2250 50  0001 C CNN
F 3 "" H 3550 2250 50  0001 C CNN
	1    3550 2250
	1    0    0    -1  
$EndComp
Connection ~ 3550 2250
Wire Bus Line
	4300 6300 4400 6300
Wire Bus Line
	4400 5700 4150 5700
Connection ~ 4150 5700
Wire Bus Line
	4150 5700 4150 6400
$Comp
L Device:R_Small_US R18
U 1 1 5FC4CACF
P 3050 7000
F 0 "R18" H 3100 7050 50  0000 L CNN
F 1 "1k" H 3100 6950 50  0000 L CNN
F 2 "Resistor_SMD:R_0603_1608Metric" H 3050 7000 50  0001 C CNN
F 3 "~" H 3050 7000 50  0001 C CNN
	1    3050 7000
	1    0    0    -1  
$EndComp
$Comp
L Device:LED D3
U 1 1 608B5CE7
P 3050 7250
F 0 "D3" V 3100 7200 50  0000 R CNN
F 1 "GRN" V 3000 7200 50  0000 R CNN
F 2 "LED_SMD:LED_0603_1608Metric" H 3050 7250 50  0001 C CNN
F 3 "~" H 3050 7250 50  0001 C CNN
	1    3050 7250
	0    -1   -1   0   
$EndComp
$Comp
L power:GNDREF #PWR0181
U 1 1 625FB7A0
P 3050 7400
F 0 "#PWR0181" H 3050 7150 50  0001 C CNN
F 1 "GNDREF" H 3055 7227 50  0001 C CNN
F 2 "" H 3050 7400 50  0001 C CNN
F 3 "" H 3050 7400 50  0001 C CNN
	1    3050 7400
	1    0    0    -1  
$EndComp
Text Label 3050 6650 3    50   ~ 0
clk
Wire Wire Line
	3050 6650 3050 6900
$Comp
L Device:R_Small_US R12
U 1 1 627BAD55
P 3350 7000
F 0 "R12" H 3400 7050 50  0000 L CNN
F 1 "1k" H 3400 6950 50  0000 L CNN
F 2 "Resistor_SMD:R_0603_1608Metric" H 3350 7000 50  0001 C CNN
F 3 "~" H 3350 7000 50  0001 C CNN
	1    3350 7000
	1    0    0    -1  
$EndComp
$Comp
L Device:LED D12
U 1 1 627BAD5B
P 3350 7250
F 0 "D12" V 3400 7200 50  0000 R CNN
F 1 "GRN" V 3300 7200 50  0000 R CNN
F 2 "LED_SMD:LED_0603_1608Metric" H 3350 7250 50  0001 C CNN
F 3 "~" H 3350 7250 50  0001 C CNN
	1    3350 7250
	0    -1   -1   0   
$EndComp
$Comp
L power:GNDREF #PWR0182
U 1 1 627BAD61
P 3350 7400
F 0 "#PWR0182" H 3350 7150 50  0001 C CNN
F 1 "GNDREF" H 3355 7227 50  0001 C CNN
F 2 "" H 3350 7400 50  0001 C CNN
F 3 "" H 3350 7400 50  0001 C CNN
	1    3350 7400
	1    0    0    -1  
$EndComp
Text Label 3350 6650 3    50   ~ 0
pc_clk
Wire Wire Line
	3350 6650 3350 6900
$Comp
L Device:R_Small_US R15
U 1 1 627BAD69
P 3650 7000
F 0 "R15" H 3700 7050 50  0000 L CNN
F 1 "1k" H 3700 6950 50  0000 L CNN
F 2 "Resistor_SMD:R_0603_1608Metric" H 3650 7000 50  0001 C CNN
F 3 "~" H 3650 7000 50  0001 C CNN
	1    3650 7000
	1    0    0    -1  
$EndComp
$Comp
L Device:LED D13
U 1 1 627BAD6F
P 3650 7250
F 0 "D13" V 3700 7200 50  0000 R CNN
F 1 "GRN" V 3600 7200 50  0000 R CNN
F 2 "LED_SMD:LED_0603_1608Metric" H 3650 7250 50  0001 C CNN
F 3 "~" H 3650 7250 50  0001 C CNN
	1    3650 7250
	0    -1   -1   0   
$EndComp
$Comp
L power:GNDREF #PWR0183
U 1 1 627BAD75
P 3650 7400
F 0 "#PWR0183" H 3650 7150 50  0001 C CNN
F 1 "GNDREF" H 3655 7227 50  0001 C CNN
F 2 "" H 3650 7400 50  0001 C CNN
F 3 "" H 3650 7400 50  0001 C CNN
	1    3650 7400
	1    0    0    -1  
$EndComp
Text Label 3650 6650 3    50   ~ 0
a_clk
Wire Wire Line
	3650 6650 3650 6900
$Comp
L Device:R_Small_US R16
U 1 1 6282BC98
P 3950 7000
F 0 "R16" H 4000 7050 50  0000 L CNN
F 1 "1k" H 4000 6950 50  0000 L CNN
F 2 "Resistor_SMD:R_0603_1608Metric" H 3950 7000 50  0001 C CNN
F 3 "~" H 3950 7000 50  0001 C CNN
	1    3950 7000
	1    0    0    -1  
$EndComp
$Comp
L Device:LED D14
U 1 1 6282BC9E
P 3950 7250
F 0 "D14" V 4000 7200 50  0000 R CNN
F 1 "GRN" V 3900 7200 50  0000 R CNN
F 2 "LED_SMD:LED_0603_1608Metric" H 3950 7250 50  0001 C CNN
F 3 "~" H 3950 7250 50  0001 C CNN
	1    3950 7250
	0    -1   -1   0   
$EndComp
$Comp
L power:GNDREF #PWR0207
U 1 1 6282BCA4
P 3950 7400
F 0 "#PWR0207" H 3950 7150 50  0001 C CNN
F 1 "GNDREF" H 3955 7227 50  0001 C CNN
F 2 "" H 3950 7400 50  0001 C CNN
F 3 "" H 3950 7400 50  0001 C CNN
	1    3950 7400
	1    0    0    -1  
$EndComp
Text Label 3950 6650 3    50   ~ 0
b_clk
Wire Wire Line
	3950 6650 3950 6900
$Comp
L Device:R_Small_US R17
U 1 1 6282BCAC
P 4250 7000
F 0 "R17" H 4300 7050 50  0000 L CNN
F 1 "1k" H 4300 6950 50  0000 L CNN
F 2 "Resistor_SMD:R_0603_1608Metric" H 4250 7000 50  0001 C CNN
F 3 "~" H 4250 7000 50  0001 C CNN
	1    4250 7000
	1    0    0    -1  
$EndComp
$Comp
L Device:LED D15
U 1 1 6282BCB2
P 4250 7250
F 0 "D15" V 4300 7200 50  0000 R CNN
F 1 "GRN" V 4200 7200 50  0000 R CNN
F 2 "LED_SMD:LED_0603_1608Metric" H 4250 7250 50  0001 C CNN
F 3 "~" H 4250 7250 50  0001 C CNN
	1    4250 7250
	0    -1   -1   0   
$EndComp
$Comp
L power:GNDREF #PWR0218
U 1 1 6282BCB8
P 4250 7400
F 0 "#PWR0218" H 4250 7150 50  0001 C CNN
F 1 "GNDREF" H 4255 7227 50  0001 C CNN
F 2 "" H 4250 7400 50  0001 C CNN
F 3 "" H 4250 7400 50  0001 C CNN
	1    4250 7400
	1    0    0    -1  
$EndComp
Text Label 4250 6650 3    50   ~ 0
d_clk
Wire Wire Line
	4250 6650 4250 6900
$Comp
L Device:R_Small_US R19
U 1 1 6282BCC0
P 4550 7000
F 0 "R19" H 4600 7050 50  0000 L CNN
F 1 "1k" H 4600 6950 50  0000 L CNN
F 2 "Resistor_SMD:R_0603_1608Metric" H 4550 7000 50  0001 C CNN
F 3 "~" H 4550 7000 50  0001 C CNN
	1    4550 7000
	1    0    0    -1  
$EndComp
$Comp
L Device:LED D16
U 1 1 6282BCC6
P 4550 7250
F 0 "D16" V 4600 7200 50  0000 R CNN
F 1 "GRN" V 4500 7200 50  0000 R CNN
F 2 "LED_SMD:LED_0603_1608Metric" H 4550 7250 50  0001 C CNN
F 3 "~" H 4550 7250 50  0001 C CNN
	1    4550 7250
	0    -1   -1   0   
$EndComp
$Comp
L power:GNDREF #PWR0219
U 1 1 6282BCCC
P 4550 7400
F 0 "#PWR0219" H 4550 7150 50  0001 C CNN
F 1 "GNDREF" H 4555 7227 50  0001 C CNN
F 2 "" H 4550 7400 50  0001 C CNN
F 3 "" H 4550 7400 50  0001 C CNN
	1    4550 7400
	1    0    0    -1  
$EndComp
Text Label 4550 6650 3    50   ~ 0
~m_clk
Wire Wire Line
	4550 6650 4550 6900
$Comp
L Device:R_Small_US R20
U 1 1 6282BCD4
P 4850 7000
F 0 "R20" H 4900 7050 50  0000 L CNN
F 1 "1k" H 4900 6950 50  0000 L CNN
F 2 "Resistor_SMD:R_0603_1608Metric" H 4850 7000 50  0001 C CNN
F 3 "~" H 4850 7000 50  0001 C CNN
	1    4850 7000
	1    0    0    -1  
$EndComp
$Comp
L Device:LED D17
U 1 1 6282BCDA
P 4850 7250
F 0 "D17" V 4900 7200 50  0000 R CNN
F 1 "RED" V 4800 7200 50  0000 R CNN
F 2 "LED_SMD:LED_0603_1608Metric" H 4850 7250 50  0001 C CNN
F 3 "~" H 4850 7250 50  0001 C CNN
	1    4850 7250
	0    -1   -1   0   
$EndComp
$Comp
L power:GNDREF #PWR0220
U 1 1 6282BCE0
P 4850 7400
F 0 "#PWR0220" H 4850 7150 50  0001 C CNN
F 1 "GNDREF" H 4855 7227 50  0001 C CNN
F 2 "" H 4850 7400 50  0001 C CNN
F 3 "" H 4850 7400 50  0001 C CNN
	1    4850 7400
	1    0    0    -1  
$EndComp
Text Label 4850 6650 3    50   ~ 0
~rk
Wire Wire Line
	4850 6650 4850 6900
$Comp
L Device:R_Small_US R21
U 1 1 6289BC10
P 5150 7000
F 0 "R21" H 5200 7050 50  0000 L CNN
F 1 "1k" H 5200 6950 50  0000 L CNN
F 2 "Resistor_SMD:R_0603_1608Metric" H 5150 7000 50  0001 C CNN
F 3 "~" H 5150 7000 50  0001 C CNN
	1    5150 7000
	1    0    0    -1  
$EndComp
$Comp
L Device:LED D18
U 1 1 6289BC16
P 5150 7250
F 0 "D18" V 5200 7200 50  0000 R CNN
F 1 "RED" V 5100 7200 50  0000 R CNN
F 2 "LED_SMD:LED_0603_1608Metric" H 5150 7250 50  0001 C CNN
F 3 "~" H 5150 7250 50  0001 C CNN
	1    5150 7250
	0    -1   -1   0   
$EndComp
$Comp
L power:GNDREF #PWR0221
U 1 1 6289BC1C
P 5150 7400
F 0 "#PWR0221" H 5150 7150 50  0001 C CNN
F 1 "GNDREF" H 5155 7227 50  0001 C CNN
F 2 "" H 5150 7400 50  0001 C CNN
F 3 "" H 5150 7400 50  0001 C CNN
	1    5150 7400
	1    0    0    -1  
$EndComp
Text Label 5150 6650 3    50   ~ 0
~rm
Wire Wire Line
	5150 6650 5150 6900
$Comp
L Device:R_Small_US R22
U 1 1 6289BC24
P 5450 7000
F 0 "R22" H 5500 7050 50  0000 L CNN
F 1 "1k" H 5500 6950 50  0000 L CNN
F 2 "Resistor_SMD:R_0603_1608Metric" H 5450 7000 50  0001 C CNN
F 3 "~" H 5450 7000 50  0001 C CNN
	1    5450 7000
	1    0    0    -1  
$EndComp
$Comp
L Device:LED D35
U 1 1 6289BC2A
P 5450 7250
F 0 "D35" V 5500 7200 50  0000 R CNN
F 1 "RED" V 5400 7200 50  0000 R CNN
F 2 "LED_SMD:LED_0603_1608Metric" H 5450 7250 50  0001 C CNN
F 3 "~" H 5450 7250 50  0001 C CNN
	1    5450 7250
	0    -1   -1   0   
$EndComp
$Comp
L power:GNDREF #PWR0222
U 1 1 6289BC30
P 5450 7400
F 0 "#PWR0222" H 5450 7150 50  0001 C CNN
F 1 "GNDREF" H 5455 7227 50  0001 C CNN
F 2 "" H 5450 7400 50  0001 C CNN
F 3 "" H 5450 7400 50  0001 C CNN
	1    5450 7400
	1    0    0    -1  
$EndComp
Text Label 5450 6650 3    50   ~ 0
~ralu
Wire Wire Line
	5450 6650 5450 6900
$Comp
L Device:R_Small_US R26
U 1 1 62BC800E
P 5750 7000
F 0 "R26" H 5800 7050 50  0000 L CNN
F 1 "1k" H 5800 6950 50  0000 L CNN
F 2 "Resistor_SMD:R_0603_1608Metric" H 5750 7000 50  0001 C CNN
F 3 "~" H 5750 7000 50  0001 C CNN
	1    5750 7000
	1    0    0    -1  
$EndComp
$Comp
L Device:LED D36
U 1 1 62BC8014
P 5750 7250
F 0 "D36" V 5800 7200 50  0000 R CNN
F 1 "BLU" V 5700 7200 50  0000 R CNN
F 2 "LED_SMD:LED_0603_1608Metric" H 5750 7250 50  0001 C CNN
F 3 "~" H 5750 7250 50  0001 C CNN
	1    5750 7250
	0    -1   -1   0   
$EndComp
$Comp
L power:GNDREF #PWR0223
U 1 1 62BC801A
P 5750 7400
F 0 "#PWR0223" H 5750 7150 50  0001 C CNN
F 1 "GNDREF" H 5755 7227 50  0001 C CNN
F 2 "" H 5750 7400 50  0001 C CNN
F 3 "" H 5750 7400 50  0001 C CNN
	1    5750 7400
	1    0    0    -1  
$EndComp
Text Label 5750 6650 3    50   ~ 0
~pcl
Wire Wire Line
	5750 6650 5750 6900
$Comp
L Device:R_Small_US R9
U 1 1 62C3CC3D
P 2450 7000
F 0 "R9" H 2500 7050 50  0000 L CNN
F 1 "1k" H 2500 6950 50  0000 L CNN
F 2 "Resistor_SMD:R_0603_1608Metric" H 2450 7000 50  0001 C CNN
F 3 "~" H 2450 7000 50  0001 C CNN
	1    2450 7000
	1    0    0    -1  
$EndComp
$Comp
L Device:LED D1
U 1 1 62C3CC43
P 2450 7250
F 0 "D1" V 2500 7200 50  0000 R CNN
F 1 "RED" V 2400 7200 50  0000 R CNN
F 2 "LED_SMD:LED_0603_1608Metric" H 2450 7250 50  0001 C CNN
F 3 "~" H 2450 7250 50  0001 C CNN
	1    2450 7250
	0    -1   -1   0   
$EndComp
$Comp
L power:GNDREF #PWR0224
U 1 1 62C3CC49
P 2450 7400
F 0 "#PWR0224" H 2450 7150 50  0001 C CNN
F 1 "GNDREF" H 2455 7227 50  0001 C CNN
F 2 "" H 2450 7400 50  0001 C CNN
F 3 "" H 2450 7400 50  0001 C CNN
	1    2450 7400
	1    0    0    -1  
$EndComp
Wire Wire Line
	2450 6800 2450 6900
$Comp
L power:+3V3 #PWR0225
U 1 1 62CAE8B4
P 2450 6800
F 0 "#PWR0225" H 2450 6650 50  0001 C CNN
F 1 "+3V3" H 2400 6950 50  0000 C CNN
F 2 "" H 2450 6800 50  0001 C CNN
F 3 "" H 2450 6800 50  0001 C CNN
	1    2450 6800
	1    0    0    -1  
$EndComp
Wire Wire Line
	2750 6650 2750 6900
Text Label 2750 6650 3    50   ~ 0
~rst
$Comp
L power:GNDREF #PWR0226
U 1 1 6274C449
P 2750 7400
F 0 "#PWR0226" H 2750 7150 50  0001 C CNN
F 1 "GNDREF" H 2755 7227 50  0001 C CNN
F 2 "" H 2750 7400 50  0001 C CNN
F 3 "" H 2750 7400 50  0001 C CNN
	1    2750 7400
	1    0    0    -1  
$EndComp
$Comp
L Device:LED D2
U 1 1 6274C443
P 2750 7250
F 0 "D2" V 2800 7200 50  0000 R CNN
F 1 "RED" V 2700 7200 50  0000 R CNN
F 2 "LED_SMD:LED_0603_1608Metric" H 2750 7250 50  0001 C CNN
F 3 "~" H 2750 7250 50  0001 C CNN
	1    2750 7250
	0    -1   -1   0   
$EndComp
$Comp
L Device:R_Small_US R11
U 1 1 6274C43D
P 2750 7000
F 0 "R11" H 2800 7050 50  0000 L CNN
F 1 "1k" H 2800 6950 50  0000 L CNN
F 2 "Resistor_SMD:R_0603_1608Metric" H 2750 7000 50  0001 C CNN
F 3 "~" H 2750 7000 50  0001 C CNN
	1    2750 7000
	1    0    0    -1  
$EndComp
Wire Bus Line
	8800 4150 9550 4150
Wire Bus Line
	9550 3600 9550 4150
Connection ~ 8800 4150
Connection ~ 9550 4150
$Comp
L Mechanical:MountingHole H1
U 1 1 5FE1EC97
P 1350 850
F 0 "H1" H 1450 896 50  0000 L CNN
F 1 "M3" H 1450 805 50  0000 L CNN
F 2 "MountingHole:MountingHole_2.7mm_M2.5" H 1350 850 50  0001 C CNN
F 3 "~" H 1350 850 50  0001 C CNN
	1    1350 850 
	1    0    0    -1  
$EndComp
$Comp
L Mechanical:MountingHole H2
U 1 1 5FE226FA
P 1350 1050
F 0 "H2" H 1450 1096 50  0000 L CNN
F 1 "M3" H 1450 1005 50  0000 L CNN
F 2 "MountingHole:MountingHole_2.7mm_M2.5" H 1350 1050 50  0001 C CNN
F 3 "~" H 1350 1050 50  0001 C CNN
	1    1350 1050
	1    0    0    -1  
$EndComp
$Comp
L Mechanical:MountingHole H3
U 1 1 5FE22A9A
P 1650 850
F 0 "H3" H 1750 896 50  0000 L CNN
F 1 "M3" H 1750 805 50  0000 L CNN
F 2 "MountingHole:MountingHole_2.7mm_M2.5" H 1650 850 50  0001 C CNN
F 3 "~" H 1650 850 50  0001 C CNN
	1    1650 850 
	1    0    0    -1  
$EndComp
$Comp
L Mechanical:MountingHole H4
U 1 1 5FE22E33
P 1650 1050
F 0 "H4" H 1750 1096 50  0000 L CNN
F 1 "M3" H 1750 1005 50  0000 L CNN
F 2 "MountingHole:MountingHole_2.7mm_M2.5" H 1650 1050 50  0001 C CNN
F 3 "~" H 1650 1050 50  0001 C CNN
	1    1650 1050
	1    0    0    -1  
$EndComp
Wire Wire Line
	10200 1900 10200 2000
$Comp
L power:+3V3 #PWR0201
U 1 1 5FB9B49C
P 10700 1900
F 0 "#PWR0201" H 10700 1750 50  0001 C CNN
F 1 "+3V3" H 10800 2000 50  0000 C CNN
F 2 "" H 10700 1900 50  0001 C CNN
F 3 "" H 10700 1900 50  0001 C CNN
	1    10700 1900
	1    0    0    -1  
$EndComp
$Comp
L power:GNDREF #PWR0200
U 1 1 5FB4980C
P 10100 1850
F 0 "#PWR0200" H 10100 1600 50  0001 C CNN
F 1 "GNDREF" H 10105 1677 50  0001 C CNN
F 2 "" H 10100 1850 50  0001 C CNN
F 3 "" H 10100 1850 50  0001 C CNN
	1    10100 1850
	1    0    0    -1  
$EndComp
Wire Wire Line
	10100 1850 10200 1850
Wire Wire Line
	10200 1850 10200 1900
Connection ~ 10200 1900
Text Label 10950 2600 2    50   ~ 0
DATA1
Entry Wire Line
	10950 2300 11050 2200
Entry Wire Line
	10950 2200 11050 2100
Entry Wire Line
	10950 2500 11050 2400
Entry Wire Line
	10950 2400 11050 2300
Entry Wire Line
	9850 2100 9950 2200
Entry Wire Line
	9850 2200 9950 2300
Entry Wire Line
	9850 2300 9950 2400
Entry Wire Line
	9850 2400 9950 2500
Entry Wire Line
	9850 2800 9950 2700
Entry Wire Line
	9850 2700 9950 2600
Entry Wire Line
	9850 3000 9950 2900
Entry Wire Line
	9850 2900 9950 2800
Wire Wire Line
	11050 2900 10700 2900
Wire Wire Line
	11050 2800 10700 2800
Wire Wire Line
	11050 2700 10700 2700
Wire Wire Line
	10700 2600 11050 2600
Entry Wire Line
	11050 2900 11150 3000
Entry Wire Line
	11050 2800 11150 2900
Entry Wire Line
	11050 2700 11150 2800
Entry Wire Line
	11050 2600 11150 2700
Wire Bus Line
	9850 3000 11150 3000
Wire Bus Line
	11150 3000 11150 3450
Connection ~ 11150 3000
Wire Bus Line
	11050 1700 9850 1700
Wire Bus Line
	9550 3000 9700 3000
Wire Bus Line
	9700 3000 9700 2400
Wire Bus Line
	9700 2400 9850 2400
Text Notes 1900 4750 2    50   ~ 0
PC
Text Notes 1900 2850 2    50   ~ 0
PC
Text Notes 3750 2850 2    50   ~ 0
IR
Text Notes 3750 4750 2    50   ~ 0
IR
Text Notes 4700 950  2    50   ~ 0
en_imm
Text Notes 6800 950  2    50   ~ 0
A Reg
Text Notes 6800 2850 2    50   ~ 0
B Reg
Text Notes 6900 4750 2    50   ~ 0
Addr Reg
Text Notes 10700 4250 2    50   ~ 0
RAM
Wire Wire Line
	7900 1550 8050 1550
Wire Wire Line
	7500 1550 7350 1550
Wire Wire Line
	7500 1150 7350 1150
$Comp
L Device:R_Pack08 RN?
U 1 1 5FB53B7E
P 7700 1450
AR Path="/608488F6/5FB53B7E" Ref="RN?"  Part="1" 
AR Path="/5FB53B7E" Ref="RN7"  Part="1" 
F 0 "RN7" V 7200 1450 50  0000 C CNN
F 1 "1k" V 8100 1450 50  0000 C CNN
F 2 "Resistor_SMD:R_Array_Convex_8x0602" V 8175 1450 50  0001 C CNN
F 3 "~" H 7700 1450 50  0001 C CNN
	1    7700 1450
	0    1    1    0   
$EndComp
$Comp
L Device:R_Pack08 RN?
U 1 1 5FC4CA71
P 7700 3350
AR Path="/608488F6/5FC4CA71" Ref="RN?"  Part="1" 
AR Path="/5FC4CA71" Ref="RN8"  Part="1" 
F 0 "RN8" V 7200 3350 50  0000 C CNN
F 1 "1k" V 8100 3350 50  0000 C CNN
F 2 "Resistor_SMD:R_Array_Convex_8x0602" V 8175 3350 50  0001 C CNN
F 3 "~" H 7700 3350 50  0001 C CNN
	1    7700 3350
	0    -1   1    0   
$EndComp
Wire Wire Line
	7450 5050 7850 5050
Wire Wire Line
	7450 5150 7850 5150
Wire Wire Line
	7450 5250 7900 5250
Wire Wire Line
	7450 5350 7850 5350
Wire Wire Line
	7450 5450 7850 5450
Wire Wire Line
	7450 5550 7800 5550
Wire Wire Line
	7450 4950 7800 4950
Wire Wire Line
	7450 4850 7750 4850
$Comp
L Device:LED D53
U 1 1 6116EC3B
P 8050 4650
AR Path="/6116EC3B" Ref="D53"  Part="1" 
AR Path="/608488F6/6116EC3B" Ref="D?"  Part="1" 
F 0 "D53" H 8200 4600 50  0000 C CNN
F 1 "RED" H 8050 4550 50  0000 C CNN
F 2 "LED_SMD:LED_0603_1608Metric" H 8050 4650 50  0001 C CNN
F 3 "~" H 8050 4650 50  0001 C CNN
	1    8050 4650
	-1   0    0    1   
$EndComp
Wire Wire Line
	8200 4650 8350 4650
Wire Wire Line
	8350 4650 8350 4850
Wire Wire Line
	8200 4800 8300 4800
Wire Wire Line
	8300 4800 8300 4950
Wire Wire Line
	8300 4950 8350 4950
Wire Wire Line
	8200 4950 8250 4950
Wire Wire Line
	8250 4950 8250 5050
Wire Wire Line
	8250 5050 8350 5050
Wire Wire Line
	8200 5100 8300 5100
Wire Wire Line
	8300 5100 8300 5150
Wire Wire Line
	8300 5150 8350 5150
Wire Wire Line
	8200 5250 8350 5250
Wire Wire Line
	8200 5400 8300 5400
Wire Wire Line
	8300 5400 8300 5350
Wire Wire Line
	8300 5350 8350 5350
Wire Wire Line
	8200 5550 8250 5550
Wire Wire Line
	8250 5550 8250 5450
Wire Wire Line
	8250 5450 8350 5450
Wire Wire Line
	8200 5700 8350 5700
Wire Wire Line
	8350 5700 8350 5550
$Comp
L Device:R_Pack08 RN?
U 1 1 5FF11D4A
P 8550 5250
AR Path="/608488F6/5FF11D4A" Ref="RN?"  Part="1" 
AR Path="/5FF11D4A" Ref="RN9"  Part="1" 
F 0 "RN9" V 8050 5250 50  0000 C CNN
F 1 "1k" V 8950 5250 50  0000 C CNN
F 2 "Resistor_SMD:R_Array_Convex_8x0602" V 9025 5250 50  0001 C CNN
F 3 "~" H 8550 5250 50  0001 C CNN
	1    8550 5250
	0    1    1    0   
$EndComp
Wire Wire Line
	8750 4850 8750 4950
Connection ~ 8750 4950
Wire Wire Line
	8750 4950 8750 5050
Connection ~ 8750 5050
Wire Wire Line
	8750 5050 8750 5150
Connection ~ 8750 5150
Wire Wire Line
	8750 5150 8750 5250
Connection ~ 8750 5250
Wire Wire Line
	8750 5250 8750 5350
Connection ~ 8750 5350
Wire Wire Line
	8750 5350 8750 5450
Connection ~ 8750 5450
Wire Wire Line
	8750 5450 8750 5550
$Comp
L power:GNDREF #PWR0145
U 1 1 60A0092E
P 8750 5600
F 0 "#PWR0145" H 8750 5350 50  0001 C CNN
F 1 "GNDREF" H 8755 5427 50  0001 C CNN
F 2 "" H 8750 5600 50  0001 C CNN
F 3 "" H 8750 5600 50  0001 C CNN
	1    8750 5600
	1    0    0    -1  
$EndComp
Connection ~ 8750 5550
Wire Wire Line
	8750 5600 8750 5550
$Comp
L Device:R_Pack08 RN?
U 1 1 6138D6A1
P 4700 3350
AR Path="/608488F6/6138D6A1" Ref="RN?"  Part="1" 
AR Path="/6138D6A1" Ref="RN5"  Part="1" 
F 0 "RN5" V 4200 3350 50  0000 C CNN
F 1 "1k" V 5100 3350 50  0000 C CNN
F 2 "Resistor_SMD:R_Array_Convex_8x0602" V 5175 3350 50  0001 C CNN
F 3 "~" H 4700 3350 50  0001 C CNN
	1    4700 3350
	0    1    1    0   
$EndComp
Wire Bus Line
	8600 2650 8600 3000
Wire Bus Line
	8800 4150 8800 4950
Wire Bus Line
	9850 2700 9850 3000
Wire Bus Line
	11150 600  11150 3000
Wire Bus Line
	9850 1700 9850 2400
Wire Bus Line
	11050 1700 11050 2400
Wire Bus Line
	9550 4150 9550 4750
Wire Bus Line
	2350 1500 2350 2150
Wire Bus Line
	3700 1150 3700 2500
Wire Bus Line
	750  3050 750  6400
Wire Bus Line
	11150 3450 11150 4950
Wire Bus Line
	7350 4150 7350 5450
Wire Bus Line
	9750 1100 9750 2250
Wire Bus Line
	8750 600  8750 1600
Wire Bus Line
	7250 2500 7250 3550
Wire Bus Line
	7250 1150 7250 2300
Wire Bus Line
	2350 2150 2350 5050
Wire Bus Line
	2450 2250 2450 5450
Wire Bus Line
	4150 2500 4150 5700
Wire Bus Line
	5650 600  5650 5450
$EndSCHEMATC
