EESchema Schematic File Version 4
EELAYER 30 0
EELAYER END
$Descr User 12598 10236
encoding utf-8
Sheet 3 6
Title ""
Date ""
Rev ""
Comp ""
Comment1 ""
Comment2 ""
Comment3 ""
Comment4 ""
$EndDescr
$Comp
L 74xx:74LS32 U3
U 4 1 5F9A8183
P 2650 4800
F 0 "U3" H 2650 4800 50  0000 C CNN
F 1 "SN74HC32" H 2650 5034 50  0001 C CNN
F 2 "Package_SO:TSSOP-14_4.4x5mm_P0.65mm" H 2650 4800 50  0001 C CNN
F 3 "http://www.ti.com/lit/gpn/sn74LS32" H 2650 4800 50  0001 C CNN
	4    2650 4800
	1    0    0    -1  
$EndComp
$Comp
L 74xx:74LS32 U3
U 3 1 5F9A6B3B
P 2650 4450
F 0 "U3" H 2650 4450 50  0000 C CNN
F 1 "SN74HC32" H 2650 4684 50  0001 C CNN
F 2 "Package_SO:TSSOP-14_4.4x5mm_P0.65mm" H 2650 4450 50  0001 C CNN
F 3 "http://www.ti.com/lit/gpn/sn74LS32" H 2650 4450 50  0001 C CNN
	3    2650 4450
	1    0    0    -1  
$EndComp
$Comp
L 74xx:74LS32 U3
U 1 1 5F9A3D33
P 2650 3750
F 0 "U3" H 2650 3750 50  0000 C CNN
F 1 "SN74HC32" H 2650 3950 50  0000 C CNN
F 2 "Package_SO:TSSOP-14_4.4x5mm_P0.65mm" H 2650 3750 50  0001 C CNN
F 3 "http://www.ti.com/lit/gpn/sn74LS32" H 2650 3750 50  0001 C CNN
	1    2650 3750
	1    0    0    -1  
$EndComp
$Comp
L 74xx:74LS283 U12
U 1 1 5F9D4C05
P 6450 8450
F 0 "U12" H 6250 9100 50  0000 C CNN
F 1 "CD74HC283" V 6450 8450 50  0000 C CNN
F 2 "Package_SO:SOIC-16_3.9x9.9mm_P1.27mm" H 6450 8450 50  0001 C CNN
F 3 "http://www.ti.com/lit/gpn/sn74LS283" H 6450 8450 50  0001 C CNN
	1    6450 8450
	1    0    0    -1  
$EndComp
$Comp
L 74xx:74LS32 U3
U 2 1 5F9A58C1
P 2650 4100
F 0 "U3" H 2650 4100 50  0000 C CNN
F 1 "SN74HC32" H 2650 4334 50  0001 C CNN
F 2 "Package_SO:TSSOP-14_4.4x5mm_P0.65mm" H 2650 4100 50  0001 C CNN
F 3 "http://www.ti.com/lit/gpn/sn74LS32" H 2650 4100 50  0001 C CNN
	2    2650 4100
	1    0    0    -1  
$EndComp
$Comp
L 74xx:74LS08 U5
U 1 1 5F9A5B26
P 2650 850
F 0 "U5" H 2650 850 50  0000 C CNN
F 1 "SN74HC08" H 2650 1050 50  0000 C CNN
F 2 "Package_SO:TSSOP-14_4.4x5mm_P0.65mm" H 2650 850 50  0001 C CNN
F 3 "http://www.ti.com/lit/gpn/sn74LS08" H 2650 850 50  0001 C CNN
	1    2650 850 
	1    0    0    -1  
$EndComp
$Comp
L 74xx:74LS08 U5
U 2 1 5F9A7101
P 2650 1200
F 0 "U5" H 2650 1200 50  0000 C CNN
F 1 "SN74HC08" H 2650 1434 50  0001 C CNN
F 2 "Package_SO:TSSOP-14_4.4x5mm_P0.65mm" H 2650 1200 50  0001 C CNN
F 3 "http://www.ti.com/lit/gpn/sn74LS08" H 2650 1200 50  0001 C CNN
	2    2650 1200
	1    0    0    -1  
$EndComp
$Comp
L 74xx:74LS08 U5
U 4 1 5F9AA83F
P 2650 1900
F 0 "U5" H 2650 1900 50  0000 C CNN
F 1 "SN74HC08" H 2650 2134 50  0001 C CNN
F 2 "Package_SO:TSSOP-14_4.4x5mm_P0.65mm" H 2650 1900 50  0001 C CNN
F 3 "http://www.ti.com/lit/gpn/sn74LS08" H 2650 1900 50  0001 C CNN
	4    2650 1900
	1    0    0    -1  
$EndComp
$Comp
L 74xx:74LS253 U?
U 1 1 5F9CB721
P 5400 6250
AR Path="/5F9CB721" Ref="U?"  Part="1" 
AR Path="/5FAFFE1A/5F9CB721" Ref="U?"  Part="1" 
AR Path="/5FAFADA9/5F9CB721" Ref="U16"  Part="1" 
F 0 "U16" H 5150 7100 50  0000 C CNN
F 1 "SN74HC253" V 5400 6250 50  0000 C CNN
F 2 "Package_SO:SSOP-16_5.3x6.2mm_P0.65mm" H 5400 6250 50  0001 C CNN
F 3 "https://www.digikey.com/product-detail/en/texas-instruments/SN74HC253DBR/296-8282-1-ND/376639" H 5400 6250 50  0001 C CNN
	1    5400 6250
	1    0    0    -1  
$EndComp
$Comp
L 74xx:74LS253 U?
U 1 1 5F9CC43D
P 5400 3800
AR Path="/5F9CC43D" Ref="U?"  Part="1" 
AR Path="/5FAFFE1A/5F9CC43D" Ref="U?"  Part="1" 
AR Path="/5FAFADA9/5F9CC43D" Ref="U15"  Part="1" 
F 0 "U15" H 5150 4650 50  0000 C CNN
F 1 "SN74HC253" V 5400 3800 50  0000 C CNN
F 2 "Package_SO:SSOP-16_5.3x6.2mm_P0.65mm" H 5400 3800 50  0001 C CNN
F 3 "https://www.digikey.com/product-detail/en/texas-instruments/SN74HC253DBR/296-8282-1-ND/376639" H 5400 3800 50  0001 C CNN
	1    5400 3800
	1    0    0    -1  
$EndComp
$Comp
L 74xx:74HC86 U9
U 1 1 5F9CBA40
P 2650 8050
F 0 "U9" H 2650 8050 50  0000 C CNN
F 1 "SN74HC86" H 2650 8284 50  0001 C CNN
F 2 "Package_SO:TSSOP-14_4.4x5mm_P0.65mm" H 2650 8050 50  0001 C CNN
F 3 "http://www.ti.com/lit/gpn/sn74HC86" H 2650 8050 50  0001 C CNN
	1    2650 8050
	1    0    0    -1  
$EndComp
$Comp
L 74xx:74HC86 U9
U 3 1 5F9CBA3A
P 2650 8750
F 0 "U9" H 2650 8750 50  0000 C CNN
F 1 "SN74HC86" H 2650 8984 50  0001 C CNN
F 2 "Package_SO:TSSOP-14_4.4x5mm_P0.65mm" H 2650 8750 50  0001 C CNN
F 3 "http://www.ti.com/lit/gpn/sn74HC86" H 2650 8750 50  0001 C CNN
	3    2650 8750
	1    0    0    -1  
$EndComp
$Comp
L 74xx:74HC86 U9
U 4 1 5F9CBA34
P 2650 9100
F 0 "U9" H 2650 9100 50  0000 C CNN
F 1 "SN74HC86" H 2650 9334 50  0001 C CNN
F 2 "Package_SO:TSSOP-14_4.4x5mm_P0.65mm" H 2650 9100 50  0001 C CNN
F 3 "http://www.ti.com/lit/gpn/sn74HC86" H 2650 9100 50  0001 C CNN
	4    2650 9100
	1    0    0    -1  
$EndComp
$Comp
L 74xx:74HC86 U9
U 2 1 5F9CBA28
P 2650 8400
F 0 "U9" H 2650 8400 50  0000 C CNN
F 1 "SN74HC86" H 2650 8634 50  0001 C CNN
F 2 "Package_SO:TSSOP-14_4.4x5mm_P0.65mm" H 2650 8400 50  0001 C CNN
F 3 "http://www.ti.com/lit/gpn/sn74HC86" H 2650 8400 50  0001 C CNN
	2    2650 8400
	1    0    0    -1  
$EndComp
$Comp
L 74xx:74HC86 U7
U 1 1 5F9D7279
P 2650 6650
F 0 "U7" H 2650 6650 50  0000 C CNN
F 1 "SN74HC86" H 2650 6850 50  0000 C CNN
F 2 "Package_SO:TSSOP-14_4.4x5mm_P0.65mm" H 2650 6650 50  0001 C CNN
F 3 "http://www.ti.com/lit/gpn/sn74HC86" H 2650 6650 50  0001 C CNN
	1    2650 6650
	1    0    0    -1  
$EndComp
$Comp
L 74xx:74HC86 U7
U 3 1 5F9D882C
P 2650 7350
F 0 "U7" H 2650 7350 50  0000 C CNN
F 1 "SN74HC86" H 2650 7584 50  0001 C CNN
F 2 "Package_SO:TSSOP-14_4.4x5mm_P0.65mm" H 2650 7350 50  0001 C CNN
F 3 "http://www.ti.com/lit/gpn/sn74HC86" H 2650 7350 50  0001 C CNN
	3    2650 7350
	1    0    0    -1  
$EndComp
$Comp
L 74xx:74HC86 U7
U 4 1 5F9D9A15
P 2650 7700
F 0 "U7" H 2650 7700 50  0000 C CNN
F 1 "SN74HC86" H 2650 7934 50  0001 C CNN
F 2 "Package_SO:TSSOP-14_4.4x5mm_P0.65mm" H 2650 7700 50  0001 C CNN
F 3 "http://www.ti.com/lit/gpn/sn74HC86" H 2650 7700 50  0001 C CNN
	4    2650 7700
	1    0    0    -1  
$EndComp
$Comp
L 74xx:74HC86 U7
U 2 1 5F9D7895
P 2650 7000
F 0 "U7" H 2650 7000 50  0000 C CNN
F 1 "SN74HC86" H 2650 7234 50  0001 C CNN
F 2 "Package_SO:TSSOP-14_4.4x5mm_P0.65mm" H 2650 7000 50  0001 C CNN
F 3 "http://www.ti.com/lit/gpn/sn74HC86" H 2650 7000 50  0001 C CNN
	2    2650 7000
	1    0    0    -1  
$EndComp
$Comp
L 74xx:74LS283 U11
U 1 1 5FA28DF6
P 4500 8450
F 0 "U11" H 4300 9100 50  0000 C CNN
F 1 "CD74HC283" V 4500 8450 50  0000 C CNN
F 2 "Package_SO:SOIC-16_3.9x9.9mm_P1.27mm" H 4500 8450 50  0001 C CNN
F 3 "http://www.ti.com/lit/gpn/sn74LS283" H 4500 8450 50  0001 C CNN
	1    4500 8450
	1    0    0    -1  
$EndComp
$Comp
L 74xx:74LS32 U4
U 4 1 5FA7F40D
P 2650 6200
F 0 "U4" H 2650 6200 50  0000 C CNN
F 1 "SN74HC32" H 2650 6434 50  0001 C CNN
F 2 "Package_SO:TSSOP-14_4.4x5mm_P0.65mm" H 2650 6200 50  0001 C CNN
F 3 "http://www.ti.com/lit/gpn/sn74LS32" H 2650 6200 50  0001 C CNN
	4    2650 6200
	1    0    0    -1  
$EndComp
$Comp
L 74xx:74LS32 U4
U 3 1 5FA7F413
P 2650 5850
F 0 "U4" H 2650 5850 50  0000 C CNN
F 1 "SN74HC32" H 2650 6084 50  0001 C CNN
F 2 "Package_SO:TSSOP-14_4.4x5mm_P0.65mm" H 2650 5850 50  0001 C CNN
F 3 "http://www.ti.com/lit/gpn/sn74LS32" H 2650 5850 50  0001 C CNN
	3    2650 5850
	1    0    0    -1  
$EndComp
$Comp
L 74xx:74LS32 U4
U 1 1 5FA7F419
P 2650 5150
F 0 "U4" H 2650 5150 50  0000 C CNN
F 1 "SN74HC32" H 2650 5384 50  0001 C CNN
F 2 "Package_SO:TSSOP-14_4.4x5mm_P0.65mm" H 2650 5150 50  0001 C CNN
F 3 "http://www.ti.com/lit/gpn/sn74LS32" H 2650 5150 50  0001 C CNN
	1    2650 5150
	1    0    0    -1  
$EndComp
$Comp
L 74xx:74LS32 U4
U 2 1 5FA7F41F
P 2650 5500
F 0 "U4" H 2650 5500 50  0000 C CNN
F 1 "SN74HC32" H 2650 5734 50  0001 C CNN
F 2 "Package_SO:TSSOP-14_4.4x5mm_P0.65mm" H 2650 5500 50  0001 C CNN
F 3 "http://www.ti.com/lit/gpn/sn74LS32" H 2650 5500 50  0001 C CNN
	2    2650 5500
	1    0    0    -1  
$EndComp
$Comp
L 74xx:74LS08 U6
U 1 1 5FB10271
P 2650 2250
F 0 "U6" H 2650 2250 50  0000 C CNN
F 1 "SN74HC08" H 2650 2484 50  0001 C CNN
F 2 "Package_SO:TSSOP-14_4.4x5mm_P0.65mm" H 2650 2250 50  0001 C CNN
F 3 "http://www.ti.com/lit/gpn/sn74LS08" H 2650 2250 50  0001 C CNN
	1    2650 2250
	1    0    0    -1  
$EndComp
$Comp
L 74xx:74LS08 U6
U 2 1 5FB10277
P 2650 2600
F 0 "U6" H 2650 2600 50  0000 C CNN
F 1 "SN74HC08" H 2650 2834 50  0001 C CNN
F 2 "Package_SO:TSSOP-14_4.4x5mm_P0.65mm" H 2650 2600 50  0001 C CNN
F 3 "http://www.ti.com/lit/gpn/sn74LS08" H 2650 2600 50  0001 C CNN
	2    2650 2600
	1    0    0    -1  
$EndComp
$Comp
L 74xx:74LS08 U6
U 3 1 5FB1027D
P 2650 2950
F 0 "U6" H 2650 2950 50  0000 C CNN
F 1 "SN74HC08" H 2650 3184 50  0001 C CNN
F 2 "Package_SO:TSSOP-14_4.4x5mm_P0.65mm" H 2650 2950 50  0001 C CNN
F 3 "http://www.ti.com/lit/gpn/sn74LS08" H 2650 2950 50  0001 C CNN
	3    2650 2950
	1    0    0    -1  
$EndComp
$Comp
L 74xx:74LS08 U6
U 4 1 5FB10283
P 2650 3300
F 0 "U6" H 2650 3300 50  0000 C CNN
F 1 "SN74HC08" H 2650 3534 50  0001 C CNN
F 2 "Package_SO:TSSOP-14_4.4x5mm_P0.65mm" H 2650 3300 50  0001 C CNN
F 3 "http://www.ti.com/lit/gpn/sn74LS08" H 2650 3300 50  0001 C CNN
	4    2650 3300
	1    0    0    -1  
$EndComp
$Comp
L 74xx:74LS08 U5
U 3 1 5F9A8B85
P 2650 1550
F 0 "U5" H 2650 1550 50  0000 C CNN
F 1 "SN74HC08" H 2650 1784 50  0001 C CNN
F 2 "Package_SO:TSSOP-14_4.4x5mm_P0.65mm" H 2650 1550 50  0001 C CNN
F 3 "http://www.ti.com/lit/gpn/sn74LS08" H 2650 1550 50  0001 C CNN
	3    2650 1550
	1    0    0    -1  
$EndComp
Wire Wire Line
	2100 950  2350 950 
Text Label 2250 750  0    50   ~ 0
A0
Text Label 2200 950  0    50   ~ 0
BI0
Wire Wire Line
	2250 750  2350 750 
Wire Wire Line
	2100 1300 2350 1300
Text Label 2250 1100 0    50   ~ 0
A1
Text Label 2200 1300 0    50   ~ 0
BI1
Entry Wire Line
	2150 1000 2250 1100
Entry Wire Line
	2000 1200 2100 1300
Wire Wire Line
	2250 1100 2350 1100
Wire Wire Line
	2100 1650 2350 1650
Text Label 2250 1450 0    50   ~ 0
A2
Text Label 2200 1650 0    50   ~ 0
BI2
Entry Wire Line
	2150 1350 2250 1450
Entry Wire Line
	2000 1550 2100 1650
Wire Wire Line
	2250 1450 2350 1450
Wire Wire Line
	2100 2000 2350 2000
Text Label 2250 1800 0    50   ~ 0
A3
Text Label 2200 2000 0    50   ~ 0
BI3
Entry Wire Line
	2150 1700 2250 1800
Entry Wire Line
	2000 1900 2100 2000
Wire Wire Line
	2250 1800 2350 1800
Wire Wire Line
	2100 2350 2350 2350
Text Label 2250 2150 0    50   ~ 0
A4
Text Label 2200 2350 0    50   ~ 0
BI4
Entry Wire Line
	2150 2050 2250 2150
Entry Wire Line
	2000 2250 2100 2350
Wire Wire Line
	2250 2150 2350 2150
Wire Wire Line
	2100 2700 2350 2700
Text Label 2250 2500 0    50   ~ 0
A5
Text Label 2200 2700 0    50   ~ 0
BI5
Entry Wire Line
	2150 2400 2250 2500
Entry Wire Line
	2000 2600 2100 2700
Wire Wire Line
	2250 2500 2350 2500
Wire Wire Line
	2100 3050 2350 3050
Text Label 2250 2850 0    50   ~ 0
A6
Text Label 2200 3050 0    50   ~ 0
BI6
Entry Wire Line
	2150 2750 2250 2850
Entry Wire Line
	2000 2950 2100 3050
Wire Wire Line
	2250 2850 2350 2850
Wire Wire Line
	2100 3400 2350 3400
Text Label 2250 3200 0    50   ~ 0
A7
Text Label 2200 3400 0    50   ~ 0
BI7
Entry Wire Line
	2150 3100 2250 3200
Entry Wire Line
	2000 3300 2100 3400
Wire Wire Line
	2250 3200 2350 3200
Wire Wire Line
	2100 3850 2350 3850
Text Label 2250 3650 0    50   ~ 0
A0
Text Label 2200 3850 0    50   ~ 0
BI0
Entry Wire Line
	2150 3550 2250 3650
Entry Wire Line
	2000 3750 2100 3850
Wire Wire Line
	2250 3650 2350 3650
Wire Wire Line
	2100 4200 2350 4200
Text Label 2250 4000 0    50   ~ 0
A1
Text Label 2200 4200 0    50   ~ 0
BI1
Entry Wire Line
	2150 3900 2250 4000
Entry Wire Line
	2000 4100 2100 4200
Wire Wire Line
	2250 4000 2350 4000
Wire Wire Line
	2100 4550 2350 4550
Text Label 2250 4350 0    50   ~ 0
A2
Text Label 2200 4550 0    50   ~ 0
BI2
Entry Wire Line
	2150 4250 2250 4350
Entry Wire Line
	2000 4450 2100 4550
Wire Wire Line
	2250 4350 2350 4350
Wire Wire Line
	2100 4900 2350 4900
Text Label 2250 4700 0    50   ~ 0
A3
Text Label 2200 4900 0    50   ~ 0
BI3
Entry Wire Line
	2150 4600 2250 4700
Entry Wire Line
	2000 4800 2100 4900
Wire Wire Line
	2250 4700 2350 4700
Wire Wire Line
	2100 5250 2350 5250
Text Label 2250 5050 0    50   ~ 0
A4
Text Label 2200 5250 0    50   ~ 0
BI4
Entry Wire Line
	2150 4950 2250 5050
Entry Wire Line
	2000 5150 2100 5250
Wire Wire Line
	2250 5050 2350 5050
Wire Wire Line
	2100 5600 2350 5600
Text Label 2250 5400 0    50   ~ 0
A5
Text Label 2200 5600 0    50   ~ 0
BI5
Entry Wire Line
	2150 5300 2250 5400
Entry Wire Line
	2000 5500 2100 5600
Wire Wire Line
	2250 5400 2350 5400
Wire Wire Line
	2100 5950 2350 5950
Text Label 2250 5750 0    50   ~ 0
A6
Text Label 2200 5950 0    50   ~ 0
BI6
Entry Wire Line
	2150 5650 2250 5750
Entry Wire Line
	2000 5850 2100 5950
Wire Wire Line
	2250 5750 2350 5750
Wire Wire Line
	2100 6300 2350 6300
Text Label 2250 6100 0    50   ~ 0
A7
Text Label 2200 6300 0    50   ~ 0
BI7
Entry Wire Line
	2150 6000 2250 6100
Entry Wire Line
	2000 6200 2100 6300
Wire Wire Line
	2250 6100 2350 6100
Wire Wire Line
	2100 6750 2350 6750
Text Label 2250 6550 0    50   ~ 0
A0
Text Label 2200 6750 0    50   ~ 0
BI0
Entry Wire Line
	2150 6450 2250 6550
Entry Wire Line
	2000 6650 2100 6750
Wire Wire Line
	2250 6550 2350 6550
Wire Wire Line
	2100 7100 2350 7100
Text Label 2250 6900 0    50   ~ 0
A1
Text Label 2200 7100 0    50   ~ 0
BI1
Entry Wire Line
	2150 6800 2250 6900
Entry Wire Line
	2000 7000 2100 7100
Wire Wire Line
	2250 6900 2350 6900
Wire Wire Line
	2100 7450 2350 7450
Text Label 2250 7250 0    50   ~ 0
A2
Text Label 2200 7450 0    50   ~ 0
BI2
Entry Wire Line
	2150 7150 2250 7250
Entry Wire Line
	2000 7350 2100 7450
Wire Wire Line
	2250 7250 2350 7250
Wire Wire Line
	2100 7800 2350 7800
Text Label 2250 7600 0    50   ~ 0
A3
Text Label 2200 7800 0    50   ~ 0
BI3
Entry Wire Line
	2150 7500 2250 7600
Entry Wire Line
	2000 7700 2100 7800
Wire Wire Line
	2250 7600 2350 7600
Wire Wire Line
	2100 8150 2350 8150
Text Label 2250 7950 0    50   ~ 0
A4
Text Label 2200 8150 0    50   ~ 0
BI4
Entry Wire Line
	2150 7850 2250 7950
Entry Wire Line
	2000 8050 2100 8150
Wire Wire Line
	2250 7950 2350 7950
Wire Wire Line
	2100 8500 2350 8500
Text Label 2250 8300 0    50   ~ 0
A5
Text Label 2200 8500 0    50   ~ 0
BI5
Entry Wire Line
	2150 8200 2250 8300
Entry Wire Line
	2000 8400 2100 8500
Wire Wire Line
	2250 8300 2350 8300
Wire Wire Line
	2100 8850 2350 8850
Text Label 2250 8650 0    50   ~ 0
A6
Text Label 2200 8850 0    50   ~ 0
BI6
Entry Wire Line
	2150 8550 2250 8650
Entry Wire Line
	2000 8750 2100 8850
Wire Wire Line
	2250 8650 2350 8650
Wire Wire Line
	2100 9200 2350 9200
Text Label 2250 9000 0    50   ~ 0
A7
Text Label 2200 9200 0    50   ~ 0
BI7
Entry Wire Line
	2150 8900 2250 9000
Entry Wire Line
	2000 9100 2100 9200
Wire Wire Line
	2250 9000 2350 9000
$Comp
L power:GNDREF #PWR036
U 1 1 60A038D2
P 4500 9250
F 0 "#PWR036" H 4500 9000 50  0001 C CNN
F 1 "GNDREF" H 4505 9077 50  0001 C CNN
F 2 "" H 4500 9250 50  0001 C CNN
F 3 "" H 4500 9250 50  0001 C CNN
	1    4500 9250
	1    0    0    -1  
$EndComp
$Comp
L power:GNDREF #PWR041
U 1 1 60A052A8
P 6450 9250
F 0 "#PWR041" H 6450 9000 50  0001 C CNN
F 1 "GNDREF" H 6455 9077 50  0001 C CNN
F 2 "" H 6450 9250 50  0001 C CNN
F 3 "" H 6450 9250 50  0001 C CNN
	1    6450 9250
	1    0    0    -1  
$EndComp
Text HLabel 3900 7950 0    50   Input ~ 0
ci
Text Label 3900 8150 0    50   ~ 0
A0
Text Label 3900 8250 0    50   ~ 0
A1
Text Label 3900 8350 0    50   ~ 0
A2
Text Label 3900 8450 0    50   ~ 0
A3
Text Label 3850 8650 0    50   ~ 0
BI0
Text Label 3850 8750 0    50   ~ 0
BI1
Text Label 3850 8850 0    50   ~ 0
BI2
Text Label 3850 8950 0    50   ~ 0
BI3
Wire Wire Line
	3900 8150 4000 8150
Wire Wire Line
	3900 8250 4000 8250
Wire Wire Line
	3900 8350 4000 8350
Wire Wire Line
	3900 8450 4000 8450
Entry Wire Line
	3750 8650 3650 8750
Entry Wire Line
	3750 8750 3650 8850
Entry Wire Line
	3750 8850 3650 8950
Wire Wire Line
	3750 8950 4000 8950
Wire Wire Line
	4000 8850 3750 8850
Wire Wire Line
	3750 8750 4000 8750
Wire Wire Line
	4000 8650 3750 8650
Text Label 5850 8150 0    50   ~ 0
A4
Text Label 5850 8250 0    50   ~ 0
A5
Text Label 5850 8350 0    50   ~ 0
A6
Text Label 5850 8450 0    50   ~ 0
A7
Text Label 5800 8650 0    50   ~ 0
BI4
Text Label 5800 8750 0    50   ~ 0
BI5
Text Label 5800 8850 0    50   ~ 0
BI6
Text Label 5800 8950 0    50   ~ 0
BI7
Wire Wire Line
	5850 8150 5950 8150
Wire Wire Line
	5850 8250 5950 8250
Wire Wire Line
	5850 8350 5950 8350
Wire Wire Line
	5850 8450 5950 8450
Entry Wire Line
	5600 8750 5700 8650
Entry Wire Line
	5600 8850 5700 8750
Entry Wire Line
	5600 8950 5700 8850
Entry Wire Line
	5600 9050 5700 8950
Wire Wire Line
	5700 8950 5950 8950
Wire Wire Line
	5950 8850 5700 8850
Wire Wire Line
	5700 8750 5950 8750
Wire Wire Line
	5950 8650 5700 8650
Text Label 5000 7950 0    50   ~ 0
F_ADD0
Text Label 5000 8050 0    50   ~ 0
F_ADD1
Text Label 5000 8150 0    50   ~ 0
F_ADD2
Text Label 5000 8250 0    50   ~ 0
F_ADD3
Entry Wire Line
	3750 8950 3650 9050
Entry Wire Line
	5300 7950 5400 7850
Entry Wire Line
	5300 8050 5400 7950
Entry Wire Line
	5300 8150 5400 8050
Entry Wire Line
	5300 8250 5400 8150
Wire Wire Line
	5000 8250 5300 8250
Wire Wire Line
	5300 8150 5000 8150
Wire Wire Line
	5000 8050 5300 8050
Wire Wire Line
	5300 7950 5000 7950
Wire Wire Line
	5000 8450 5500 8450
Wire Wire Line
	5500 8450 5500 7950
Wire Wire Line
	5500 7950 5950 7950
NoConn ~ 6950 8450
Text Label 6950 7950 0    50   ~ 0
F_ADD4
Text Label 6950 8050 0    50   ~ 0
F_ADD5
Text Label 6950 8150 0    50   ~ 0
F_ADD6
Text Label 6950 8250 0    50   ~ 0
F_ADD7
Entry Wire Line
	7250 7950 7350 7850
Entry Wire Line
	7250 8050 7350 7950
Entry Wire Line
	7250 8150 7350 8050
Entry Wire Line
	7250 8250 7350 8150
Wire Wire Line
	6950 8250 7250 8250
Wire Wire Line
	7250 8150 6950 8150
Wire Wire Line
	6950 8050 7250 8050
Wire Wire Line
	7250 7950 6950 7950
Entry Wire Line
	5750 8550 5850 8450
Entry Wire Line
	5750 8450 5850 8350
Entry Wire Line
	5750 8350 5850 8250
Entry Wire Line
	5750 8250 5850 8150
Text Label 2000 2650 3    50   ~ 0
BI[0..7]
$Comp
L power:+3V3 #PWR035
U 1 1 60F249FF
P 4500 7650
F 0 "#PWR035" H 4500 7500 50  0001 C CNN
F 1 "+3V3" H 4350 7700 50  0000 C CNN
F 2 "" H 4500 7650 50  0001 C CNN
F 3 "" H 4500 7650 50  0001 C CNN
	1    4500 7650
	1    0    0    -1  
$EndComp
$Comp
L Device:C_Small C16
U 1 1 60F24A05
P 4700 7650
F 0 "C16" V 4600 7600 50  0000 L CNN
F 1 "100n" V 4800 7550 50  0000 L CNN
F 2 "Capacitor_SMD:C_0603_1608Metric" H 4700 7650 50  0001 C CNN
F 3 "~" H 4700 7650 50  0001 C CNN
	1    4700 7650
	0    1    1    0   
$EndComp
$Comp
L power:GNDREF #PWR037
U 1 1 60F24A0B
P 4800 7650
F 0 "#PWR037" H 4800 7400 50  0001 C CNN
F 1 "GNDREF" H 4805 7477 50  0001 C CNN
F 2 "" H 4800 7650 50  0001 C CNN
F 3 "" H 4800 7650 50  0001 C CNN
	1    4800 7650
	1    0    0    -1  
$EndComp
Wire Wire Line
	4500 7650 4600 7650
Connection ~ 4500 7650
$Comp
L power:+3V3 #PWR040
U 1 1 610E8378
P 6450 7650
F 0 "#PWR040" H 6450 7500 50  0001 C CNN
F 1 "+3V3" H 6300 7700 50  0000 C CNN
F 2 "" H 6450 7650 50  0001 C CNN
F 3 "" H 6450 7650 50  0001 C CNN
	1    6450 7650
	1    0    0    -1  
$EndComp
$Comp
L Device:C_Small C18
U 1 1 610E837E
P 6650 7650
F 0 "C18" V 6550 7600 50  0000 L CNN
F 1 "100n" V 6750 7550 50  0000 L CNN
F 2 "Capacitor_SMD:C_0603_1608Metric" H 6650 7650 50  0001 C CNN
F 3 "~" H 6650 7650 50  0001 C CNN
	1    6650 7650
	0    1    1    0   
$EndComp
$Comp
L power:GNDREF #PWR043
U 1 1 610E8384
P 6750 7650
F 0 "#PWR043" H 6750 7400 50  0001 C CNN
F 1 "GNDREF" H 6755 7477 50  0001 C CNN
F 2 "" H 6750 7650 50  0001 C CNN
F 3 "" H 6750 7650 50  0001 C CNN
	1    6750 7650
	1    0    0    -1  
$EndComp
Wire Wire Line
	6450 7650 6550 7650
Connection ~ 6450 7650
Wire Wire Line
	2950 850  3250 850 
Text Label 2950 850  0    50   ~ 0
F_AND0
Entry Wire Line
	3350 950  3250 850 
Wire Wire Line
	2950 1200 3250 1200
Text Label 2950 1200 0    50   ~ 0
F_AND1
Entry Wire Line
	3350 1300 3250 1200
Wire Wire Line
	2950 1550 3250 1550
Text Label 2950 1550 0    50   ~ 0
F_AND2
Entry Wire Line
	3350 1650 3250 1550
Wire Wire Line
	2950 1900 3250 1900
Text Label 2950 1900 0    50   ~ 0
F_AND3
Entry Wire Line
	3350 2000 3250 1900
Wire Wire Line
	2950 2250 3250 2250
Text Label 2950 2250 0    50   ~ 0
F_AND4
Entry Wire Line
	3350 2350 3250 2250
Wire Wire Line
	2950 2600 3250 2600
Text Label 2950 2600 0    50   ~ 0
F_AND5
Entry Wire Line
	3350 2700 3250 2600
Wire Wire Line
	2950 2950 3250 2950
Text Label 2950 2950 0    50   ~ 0
F_AND6
Entry Wire Line
	3350 3050 3250 2950
Wire Wire Line
	2950 3300 3250 3300
Text Label 2950 3300 0    50   ~ 0
F_AND7
Entry Wire Line
	3350 3400 3250 3300
$Comp
L power:+3V3 #PWR046
U 1 1 614F76B2
P 5400 5250
F 0 "#PWR046" H 5400 5100 50  0001 C CNN
F 1 "+3V3" H 5250 5300 50  0000 C CNN
F 2 "" H 5400 5250 50  0001 C CNN
F 3 "" H 5400 5250 50  0001 C CNN
	1    5400 5250
	1    0    0    -1  
$EndComp
$Comp
L Device:C_Small C20
U 1 1 614F76B8
P 5600 5250
F 0 "C20" V 5500 5200 50  0000 L CNN
F 1 "100n" V 5700 5150 50  0000 L CNN
F 2 "Capacitor_SMD:C_0603_1608Metric" H 5600 5250 50  0001 C CNN
F 3 "~" H 5600 5250 50  0001 C CNN
	1    5600 5250
	0    1    1    0   
$EndComp
Wire Wire Line
	5400 5250 5500 5250
$Comp
L power:GNDREF #PWR051
U 1 1 614F76BF
P 5700 5250
F 0 "#PWR051" H 5700 5000 50  0001 C CNN
F 1 "GNDREF" H 5705 5077 50  0001 C CNN
F 2 "" H 5700 5250 50  0001 C CNN
F 3 "" H 5700 5250 50  0001 C CNN
	1    5700 5250
	1    0    0    -1  
$EndComp
$Comp
L power:+3V3 #PWR044
U 1 1 615837E8
P 5400 2800
F 0 "#PWR044" H 5400 2650 50  0001 C CNN
F 1 "+3V3" H 5415 2973 50  0000 C CNN
F 2 "" H 5400 2800 50  0001 C CNN
F 3 "" H 5400 2800 50  0001 C CNN
	1    5400 2800
	1    0    0    -1  
$EndComp
$Comp
L Device:C_Small C19
U 1 1 615837EE
P 5600 2800
F 0 "C19" V 5500 2750 50  0000 L CNN
F 1 "100n" V 5700 2700 50  0000 L CNN
F 2 "Capacitor_SMD:C_0603_1608Metric" H 5600 2800 50  0001 C CNN
F 3 "~" H 5600 2800 50  0001 C CNN
	1    5600 2800
	0    1    1    0   
$EndComp
Wire Wire Line
	5400 2800 5500 2800
$Comp
L power:GNDREF #PWR050
U 1 1 615837F5
P 5700 2800
F 0 "#PWR050" H 5700 2550 50  0001 C CNN
F 1 "GNDREF" H 5705 2627 50  0001 C CNN
F 2 "" H 5700 2800 50  0001 C CNN
F 3 "" H 5700 2800 50  0001 C CNN
	1    5700 2800
	1    0    0    -1  
$EndComp
Connection ~ 5400 2800
Connection ~ 5400 5250
$Comp
L power:GNDREF #PWR045
U 1 1 6159BF7E
P 5400 4900
F 0 "#PWR045" H 5400 4650 50  0001 C CNN
F 1 "GNDREF" H 5405 4727 50  0001 C CNN
F 2 "" H 5400 4900 50  0001 C CNN
F 3 "" H 5400 4900 50  0001 C CNN
	1    5400 4900
	1    0    0    -1  
$EndComp
$Comp
L power:GNDREF #PWR047
U 1 1 615A2985
P 5400 7350
F 0 "#PWR047" H 5400 7100 50  0001 C CNN
F 1 "GNDREF" H 5405 7177 50  0001 C CNN
F 2 "" H 5400 7350 50  0001 C CNN
F 3 "" H 5400 7350 50  0001 C CNN
	1    5400 7350
	1    0    0    -1  
$EndComp
$Comp
L power:GNDREF #PWR072
U 1 1 615A71B3
P 7850 7350
F 0 "#PWR072" H 7850 7100 50  0001 C CNN
F 1 "GNDREF" H 7855 7177 50  0001 C CNN
F 2 "" H 7850 7350 50  0001 C CNN
F 3 "" H 7850 7350 50  0001 C CNN
	1    7850 7350
	1    0    0    -1  
$EndComp
Connection ~ 7850 5250
$Comp
L power:GNDREF #PWR075
U 1 1 615622EA
P 8150 5250
F 0 "#PWR075" H 8150 5000 50  0001 C CNN
F 1 "GNDREF" H 8155 5077 50  0001 C CNN
F 2 "" H 8150 5250 50  0001 C CNN
F 3 "" H 8150 5250 50  0001 C CNN
	1    8150 5250
	1    0    0    -1  
$EndComp
Wire Wire Line
	7850 5250 7950 5250
$Comp
L Device:C_Small C28
U 1 1 615622E3
P 8050 5250
F 0 "C28" V 7950 5200 50  0000 L CNN
F 1 "100n" V 8150 5150 50  0000 L CNN
F 2 "Capacitor_SMD:C_0603_1608Metric" H 8050 5250 50  0001 C CNN
F 3 "~" H 8050 5250 50  0001 C CNN
	1    8050 5250
	0    1    1    0   
$EndComp
$Comp
L 74xx:74LS253 U?
U 1 1 5F9CAB3B
P 7850 6250
AR Path="/5F9CAB3B" Ref="U?"  Part="1" 
AR Path="/5FAFFE1A/5F9CAB3B" Ref="U?"  Part="1" 
AR Path="/5FAFADA9/5F9CAB3B" Ref="U18"  Part="1" 
F 0 "U18" H 7600 7100 50  0000 C CNN
F 1 "SN74HC253" V 7900 6250 50  0000 C CNN
F 2 "Package_SO:SSOP-16_5.3x6.2mm_P0.65mm" H 7850 6250 50  0001 C CNN
F 3 "https://www.digikey.com/product-detail/en/texas-instruments/SN74HC253DBR/296-8282-1-ND/376639" H 7850 6250 50  0001 C CNN
	1    7850 6250
	1    0    0    -1  
$EndComp
$Comp
L power:GNDREF #PWR070
U 1 1 615A5403
P 7850 4900
F 0 "#PWR070" H 7850 4650 50  0001 C CNN
F 1 "GNDREF" H 7855 4727 50  0001 C CNN
F 2 "" H 7850 4900 50  0001 C CNN
F 3 "" H 7850 4900 50  0001 C CNN
	1    7850 4900
	1    0    0    -1  
$EndComp
Connection ~ 7850 2800
$Comp
L power:GNDREF #PWR074
U 1 1 61572CC9
P 8150 2800
F 0 "#PWR074" H 8150 2550 50  0001 C CNN
F 1 "GNDREF" H 8155 2627 50  0001 C CNN
F 2 "" H 8150 2800 50  0001 C CNN
F 3 "" H 8150 2800 50  0001 C CNN
	1    8150 2800
	1    0    0    -1  
$EndComp
Wire Wire Line
	7850 2800 7950 2800
$Comp
L Device:C_Small C27
U 1 1 61572CC2
P 8050 2800
F 0 "C27" V 7950 2750 50  0000 L CNN
F 1 "100n" V 8150 2700 50  0000 L CNN
F 2 "Capacitor_SMD:C_0603_1608Metric" H 8050 2800 50  0001 C CNN
F 3 "~" H 8050 2800 50  0001 C CNN
	1    8050 2800
	0    1    1    0   
$EndComp
$Comp
L power:+3V3 #PWR069
U 1 1 61572CBC
P 7850 2800
F 0 "#PWR069" H 7850 2650 50  0001 C CNN
F 1 "+3V3" H 7700 2850 50  0000 C CNN
F 2 "" H 7850 2800 50  0001 C CNN
F 3 "" H 7850 2800 50  0001 C CNN
	1    7850 2800
	1    0    0    -1  
$EndComp
$Comp
L 74xx:74LS253 U?
U 1 1 5F9C3EF2
P 7850 3800
AR Path="/5F9C3EF2" Ref="U?"  Part="1" 
AR Path="/5FAFFE1A/5F9C3EF2" Ref="U?"  Part="1" 
AR Path="/5FAFADA9/5F9C3EF2" Ref="U17"  Part="1" 
F 0 "U17" H 7600 4650 50  0000 C CNN
F 1 "SN74HC253" V 7850 3800 50  0000 C CNN
F 2 "Package_SO:SSOP-16_5.3x6.2mm_P0.65mm" H 7850 3800 50  0001 C CNN
F 3 "https://www.digikey.com/product-detail/en/texas-instruments/SN74HC253DBR/296-8282-1-ND/376639" H 7850 3800 50  0001 C CNN
	1    7850 3800
	1    0    0    -1  
$EndComp
$Comp
L power:+3V3 #PWR071
U 1 1 615622DD
P 7850 5250
F 0 "#PWR071" H 7850 5100 50  0001 C CNN
F 1 "+3V3" H 7700 5300 50  0000 C CNN
F 2 "" H 7850 5250 50  0001 C CNN
F 3 "" H 7850 5250 50  0001 C CNN
	1    7850 5250
	1    0    0    -1  
$EndComp
Text Label 2950 3750 0    50   ~ 0
F_OR0
Wire Wire Line
	2950 3750 3250 3750
Entry Wire Line
	3350 3850 3250 3750
Text Label 2950 4100 0    50   ~ 0
F_OR1
Wire Wire Line
	2950 4100 3250 4100
Entry Wire Line
	3350 4200 3250 4100
Text Label 2950 4450 0    50   ~ 0
F_OR2
Wire Wire Line
	2950 4450 3250 4450
Entry Wire Line
	3350 4550 3250 4450
Text Label 2950 4800 0    50   ~ 0
F_OR3
Wire Wire Line
	2950 4800 3250 4800
Entry Wire Line
	3350 4900 3250 4800
Text Label 2950 5150 0    50   ~ 0
F_OR4
Wire Wire Line
	2950 5150 3250 5150
Entry Wire Line
	3350 5250 3250 5150
Text Label 2950 5500 0    50   ~ 0
F_OR5
Wire Wire Line
	2950 5500 3250 5500
Entry Wire Line
	3350 5600 3250 5500
Text Label 2950 5850 0    50   ~ 0
F_OR6
Wire Wire Line
	2950 5850 3250 5850
Entry Wire Line
	3350 5950 3250 5850
Text Label 2950 6200 0    50   ~ 0
F_OR7
Wire Wire Line
	2950 6200 3250 6200
Entry Wire Line
	3350 6300 3250 6200
Text Label 2950 6650 0    50   ~ 0
F_XOR0
Wire Wire Line
	2950 6650 3250 6650
Entry Wire Line
	3350 6750 3250 6650
Text Label 2950 7000 0    50   ~ 0
F_XOR1
Wire Wire Line
	2950 7000 3250 7000
Entry Wire Line
	3350 7100 3250 7000
Text Label 2950 7350 0    50   ~ 0
F_XOR2
Wire Wire Line
	2950 7350 3250 7350
Entry Wire Line
	3350 7450 3250 7350
Text Label 2950 7700 0    50   ~ 0
F_XOR3
Wire Wire Line
	2950 7700 3250 7700
Entry Wire Line
	3350 7800 3250 7700
Text Label 2950 8050 0    50   ~ 0
F_XOR4
Wire Wire Line
	2950 8050 3250 8050
Entry Wire Line
	3350 8150 3250 8050
Text Label 2950 8400 0    50   ~ 0
F_XOR5
Wire Wire Line
	2950 8400 3250 8400
Entry Wire Line
	3350 8500 3250 8400
Text Label 2950 8750 0    50   ~ 0
F_XOR6
Wire Wire Line
	2950 8750 3250 8750
Entry Wire Line
	3350 8850 3250 8750
Text Label 2950 9100 0    50   ~ 0
F_XOR7
Wire Wire Line
	2950 9100 3250 9100
Entry Wire Line
	3350 9200 3250 9100
Text Label 4900 3100 2    50   ~ 0
F_AND0
Wire Wire Line
	4900 3100 4600 3100
Text Label 4900 3200 2    50   ~ 0
F_OR0
Text Label 4900 3300 2    50   ~ 0
F_XOR0
Text Label 4900 3400 2    50   ~ 0
F_ADD0
Text Label 4900 3800 2    50   ~ 0
F_AND1
Wire Wire Line
	4900 3800 4600 3800
Entry Wire Line
	4600 3800 4500 3700
Text Label 4900 3900 2    50   ~ 0
F_OR1
Wire Wire Line
	4900 3900 4450 3900
Entry Wire Line
	4450 3900 4350 3800
Text Label 4900 4000 2    50   ~ 0
F_XOR1
Wire Wire Line
	4900 4000 4300 4000
Entry Wire Line
	4300 4000 4200 3900
Text Label 4900 4100 2    50   ~ 0
F_ADD1
Wire Wire Line
	4900 4100 4150 4100
Entry Wire Line
	4150 4100 4050 4000
Text Label 4900 5550 2    50   ~ 0
F_AND2
Wire Wire Line
	4900 5550 4600 5550
Entry Wire Line
	4600 5550 4500 5450
Text Label 4900 5650 2    50   ~ 0
F_OR2
Wire Wire Line
	4900 5650 4450 5650
Entry Wire Line
	4450 5650 4350 5550
Text Label 4900 5750 2    50   ~ 0
F_XOR2
Wire Wire Line
	4900 5750 4300 5750
Entry Wire Line
	4300 5750 4200 5650
Wire Wire Line
	4900 5850 4150 5850
Entry Wire Line
	4150 5850 4050 5750
Text Label 4900 6250 2    50   ~ 0
F_AND3
Wire Wire Line
	4900 6250 4600 6250
Entry Wire Line
	4600 6250 4500 6150
Text Label 4900 6350 2    50   ~ 0
F_OR3
Wire Wire Line
	4900 6350 4450 6350
Entry Wire Line
	4450 6350 4350 6250
Text Label 4900 6450 2    50   ~ 0
F_XOR3
Wire Wire Line
	4900 6450 4300 6450
Entry Wire Line
	4300 6450 4200 6350
Text Label 4900 6550 2    50   ~ 0
F_ADD3
Wire Wire Line
	4900 6550 4150 6550
Entry Wire Line
	4150 6550 4050 6450
Text Label 7350 5550 2    50   ~ 0
F_AND6
Wire Wire Line
	7350 5550 7050 5550
Entry Wire Line
	7050 5550 6950 5450
Text Label 7350 5650 2    50   ~ 0
F_OR6
Wire Wire Line
	7350 5650 6900 5650
Entry Wire Line
	6900 5650 6800 5550
Text Label 7350 5750 2    50   ~ 0
F_XOR6
Wire Wire Line
	7350 5750 6750 5750
Entry Wire Line
	6750 5750 6650 5650
Text Label 7350 5850 2    50   ~ 0
F_ADD6
Wire Wire Line
	7350 5850 6600 5850
Entry Wire Line
	6600 5850 6500 5750
Text Label 7350 6250 2    50   ~ 0
F_AND7
Wire Wire Line
	7350 6250 7050 6250
Entry Wire Line
	7050 6250 6950 6150
Text Label 7350 6350 2    50   ~ 0
F_OR7
Wire Wire Line
	7350 6350 6900 6350
Entry Wire Line
	6900 6350 6800 6250
Text Label 7350 6450 2    50   ~ 0
F_XOR7
Wire Wire Line
	7350 6450 6750 6450
Entry Wire Line
	6750 6450 6650 6350
Text Label 7350 6550 2    50   ~ 0
F_ADD7
Wire Wire Line
	7350 6550 6600 6550
Entry Wire Line
	6600 6550 6500 6450
Text Label 7350 3100 2    50   ~ 0
F_AND4
Wire Wire Line
	7350 3100 7050 3100
Entry Wire Line
	7050 3100 6950 3000
Text Label 7350 3200 2    50   ~ 0
F_OR4
Wire Wire Line
	7350 3200 6900 3200
Entry Wire Line
	6900 3200 6800 3100
Text Label 7350 3300 2    50   ~ 0
F_XOR4
Wire Wire Line
	7350 3300 6750 3300
Entry Wire Line
	6750 3300 6650 3200
Text Label 7350 3400 2    50   ~ 0
F_ADD4
Wire Wire Line
	7350 3400 6600 3400
Entry Wire Line
	6600 3400 6500 3300
Text Label 7350 3800 2    50   ~ 0
F_AND5
Wire Wire Line
	7350 3800 7050 3800
Entry Wire Line
	7050 3800 6950 3700
Text Label 7350 3900 2    50   ~ 0
F_OR5
Wire Wire Line
	7350 3900 6900 3900
Entry Wire Line
	6900 3900 6800 3800
Text Label 7350 4000 2    50   ~ 0
F_XOR5
Wire Wire Line
	7350 4000 6750 4000
Entry Wire Line
	6750 4000 6650 3900
Text Label 7350 4100 2    50   ~ 0
F_ADD5
Wire Wire Line
	7350 4100 6600 4100
Entry Wire Line
	6600 4100 6500 4000
Text Label 5900 3100 0    50   ~ 0
F0
Entry Wire Line
	6100 3000 6000 3100
Wire Wire Line
	6000 3100 5900 3100
Text Label 5900 3800 0    50   ~ 0
F1
Entry Wire Line
	6100 3700 6000 3800
Wire Wire Line
	6000 3800 5900 3800
Text Label 5900 5550 0    50   ~ 0
F2
Entry Wire Line
	6100 5450 6000 5550
Wire Wire Line
	6000 5550 5900 5550
Text Label 5900 6250 0    50   ~ 0
F3
Entry Wire Line
	6100 6150 6000 6250
Wire Wire Line
	6000 6250 5900 6250
Entry Wire Line
	8550 6150 8450 6250
Wire Wire Line
	8450 6250 8350 6250
Text Label 8350 5550 0    50   ~ 0
F6
Entry Wire Line
	8550 5450 8450 5550
Wire Wire Line
	8450 5550 8350 5550
Text Label 8350 3800 0    50   ~ 0
F5
Entry Wire Line
	8550 3700 8450 3800
Wire Wire Line
	8450 3800 8350 3800
Text Label 8350 3100 0    50   ~ 0
F4
Entry Wire Line
	8550 3000 8450 3100
Wire Wire Line
	8450 3100 8350 3100
Text Label 8350 6250 0    50   ~ 0
F7
Text Label 4900 5850 2    50   ~ 0
F_ADD2
Entry Wire Line
	4150 3400 4050 3300
Entry Wire Line
	4600 3100 4500 3000
Wire Wire Line
	4900 3200 4450 3200
Entry Wire Line
	4450 3200 4350 3100
Wire Wire Line
	4900 3300 4300 3300
Entry Wire Line
	4300 3300 4200 3200
Wire Wire Line
	4900 3400 4150 3400
Wire Bus Line
	4500 2550 6950 2550
Wire Bus Line
	6800 2450 4350 2450
Wire Bus Line
	4200 2350 6650 2350
Wire Bus Line
	6500 2250 4050 2250
Text Label 4900 4500 2    50   ~ 0
FS0
Text Label 4900 4600 2    50   ~ 0
FS1
Wire Wire Line
	4900 4500 4750 4500
Entry Wire Line
	4750 4500 4650 4400
Entry Wire Line
	4750 4600 4650 4500
Wire Wire Line
	4750 4600 4900 4600
Wire Wire Line
	4900 4300 3950 4300
Wire Wire Line
	3950 4300 3950 3600
Wire Wire Line
	3950 3600 4900 3600
Wire Bus Line
	4650 4500 4650 4400
Wire Bus Line
	4650 4400 3850 4400
Text Label 4900 6950 2    50   ~ 0
FS0
Text Label 4900 7050 2    50   ~ 0
FS1
Wire Wire Line
	4900 6950 4750 6950
Entry Wire Line
	4750 6950 4650 6850
Entry Wire Line
	4750 7050 4650 6950
Wire Wire Line
	4750 7050 4900 7050
Wire Bus Line
	4650 6950 4650 6850
Text Label 7350 6950 2    50   ~ 0
FS0
Text Label 7350 7050 2    50   ~ 0
FS1
Wire Wire Line
	7350 6950 7200 6950
Entry Wire Line
	7200 6950 7100 6850
Entry Wire Line
	7200 7050 7100 6950
Wire Wire Line
	7200 7050 7350 7050
Wire Bus Line
	7100 6950 7100 6850
Text Label 7350 4500 2    50   ~ 0
FS0
Text Label 7350 4600 2    50   ~ 0
FS1
Wire Wire Line
	7350 4500 7200 4500
Entry Wire Line
	7200 4500 7100 4400
Entry Wire Line
	7200 4600 7100 4500
Wire Wire Line
	7200 4600 7350 4600
Wire Bus Line
	7100 4500 7100 4400
Wire Bus Line
	7100 4400 6300 4400
Wire Wire Line
	7350 3600 6400 3600
Wire Wire Line
	6400 3600 6400 4300
Wire Wire Line
	6400 4300 7350 4300
Wire Wire Line
	7350 6050 6400 6050
Wire Wire Line
	6400 6050 6400 6750
Wire Wire Line
	6400 6750 7350 6750
Wire Wire Line
	6400 4300 6400 6050
Connection ~ 6400 4300
Connection ~ 6400 6050
Wire Wire Line
	4900 6750 3950 6750
Wire Wire Line
	3950 6750 3950 6050
Wire Wire Line
	3950 6050 4900 6050
Wire Wire Line
	3950 4300 3950 6050
Connection ~ 3950 4300
Connection ~ 3950 6050
Wire Wire Line
	3950 3600 3950 2150
Wire Wire Line
	3950 2150 6400 2150
Wire Wire Line
	6400 2150 6400 3600
Connection ~ 3950 3600
Connection ~ 6400 3600
Wire Bus Line
	6300 4400 6300 6850
Wire Bus Line
	6300 6850 7100 6850
Wire Bus Line
	3850 6850 3850 4400
Wire Bus Line
	3850 6850 4650 6850
Wire Bus Line
	3850 4400 3850 2050
Wire Bus Line
	3850 2050 6300 2050
Wire Bus Line
	6300 2050 6300 4400
Connection ~ 3850 4400
Connection ~ 6300 4400
Text HLabel 3750 1900 0    50   Input ~ 0
FS[0..1]
Text HLabel 3750 1750 0    50   Input ~ 0
~ralu
Wire Bus Line
	3750 1900 3850 1900
Wire Bus Line
	3850 1900 3850 2050
Connection ~ 3850 2050
Wire Wire Line
	3750 1750 3950 1750
Wire Wire Line
	3950 1750 3950 2150
Connection ~ 3950 2150
Wire Bus Line
	4500 2550 3350 2550
Connection ~ 4500 2550
Connection ~ 3350 2550
Text Label 3350 2550 0    50   ~ 0
F_AND[0..7]
Wire Bus Line
	3350 4700 4350 4700
Connection ~ 3350 4700
Connection ~ 4350 4700
Text Label 3350 4700 0    50   ~ 0
F_OR[0..7]
Text Label 3350 7250 0    50   ~ 0
F_XOR[0..7]
Text Label 5550 7500 0    50   ~ 0
F_ADD[0..7]
Connection ~ 8600 800 
Wire Wire Line
	8600 800  8700 800 
$Comp
L power:GNDREF #PWR084
U 1 1 6104C40E
P 8900 800
F 0 "#PWR084" H 8900 550 50  0001 C CNN
F 1 "GNDREF" H 8905 627 50  0001 C CNN
F 2 "" H 8900 800 50  0001 C CNN
F 3 "" H 8900 800 50  0001 C CNN
	1    8900 800 
	1    0    0    -1  
$EndComp
$Comp
L Device:C_Small C31
U 1 1 6104C408
P 8800 800
F 0 "C31" V 8700 750 50  0000 L CNN
F 1 "100n" V 8900 700 50  0000 L CNN
F 2 "Capacitor_SMD:C_0603_1608Metric" H 8800 800 50  0001 C CNN
F 3 "~" H 8800 800 50  0001 C CNN
	1    8800 800 
	0    1    1    0   
$EndComp
$Comp
L power:+3V3 #PWR082
U 1 1 6104C402
P 8600 800
F 0 "#PWR082" H 8600 650 50  0001 C CNN
F 1 "+3V3" H 8615 973 50  0000 C CNN
F 2 "" H 8600 800 50  0001 C CNN
F 3 "" H 8600 800 50  0001 C CNN
	1    8600 800 
	1    0    0    -1  
$EndComp
Connection ~ 8000 800 
Wire Wire Line
	8000 800  8100 800 
$Comp
L power:GNDREF #PWR081
U 1 1 61042014
P 8300 800
F 0 "#PWR081" H 8300 550 50  0001 C CNN
F 1 "GNDREF" H 8305 627 50  0001 C CNN
F 2 "" H 8300 800 50  0001 C CNN
F 3 "" H 8300 800 50  0001 C CNN
	1    8300 800 
	1    0    0    -1  
$EndComp
$Comp
L Device:C_Small C30
U 1 1 6104200E
P 8200 800
F 0 "C30" V 8100 750 50  0000 L CNN
F 1 "100n" V 8300 700 50  0000 L CNN
F 2 "Capacitor_SMD:C_0603_1608Metric" H 8200 800 50  0001 C CNN
F 3 "~" H 8200 800 50  0001 C CNN
	1    8200 800 
	0    1    1    0   
$EndComp
$Comp
L power:+3V3 #PWR078
U 1 1 61042008
P 8000 800
F 0 "#PWR078" H 8000 650 50  0001 C CNN
F 1 "+3V3" H 8015 973 50  0000 C CNN
F 2 "" H 8000 800 50  0001 C CNN
F 3 "" H 8000 800 50  0001 C CNN
	1    8000 800 
	1    0    0    -1  
$EndComp
Connection ~ 7400 800 
Wire Wire Line
	7400 800  7500 800 
$Comp
L power:GNDREF #PWR073
U 1 1 61037E6B
P 7700 800
F 0 "#PWR073" H 7700 550 50  0001 C CNN
F 1 "GNDREF" H 7705 627 50  0001 C CNN
F 2 "" H 7700 800 50  0001 C CNN
F 3 "" H 7700 800 50  0001 C CNN
	1    7700 800 
	1    0    0    -1  
$EndComp
$Comp
L Device:C_Small C26
U 1 1 61037E65
P 7600 800
F 0 "C26" V 7500 750 50  0000 L CNN
F 1 "100n" V 7700 700 50  0000 L CNN
F 2 "Capacitor_SMD:C_0603_1608Metric" H 7600 800 50  0001 C CNN
F 3 "~" H 7600 800 50  0001 C CNN
	1    7600 800 
	0    1    1    0   
$EndComp
$Comp
L power:+3V3 #PWR067
U 1 1 61037E5F
P 7400 800
F 0 "#PWR067" H 7400 650 50  0001 C CNN
F 1 "+3V3" H 7415 973 50  0000 C CNN
F 2 "" H 7400 800 50  0001 C CNN
F 3 "" H 7400 800 50  0001 C CNN
	1    7400 800 
	1    0    0    -1  
$EndComp
Connection ~ 6800 800 
Wire Wire Line
	6800 800  6900 800 
$Comp
L power:GNDREF #PWR066
U 1 1 6102C5A0
P 7100 800
F 0 "#PWR066" H 7100 550 50  0001 C CNN
F 1 "GNDREF" H 7105 627 50  0001 C CNN
F 2 "" H 7100 800 50  0001 C CNN
F 3 "" H 7100 800 50  0001 C CNN
	1    7100 800 
	1    0    0    -1  
$EndComp
$Comp
L Device:C_Small C25
U 1 1 6102C59A
P 7000 800
F 0 "C25" V 6900 750 50  0000 L CNN
F 1 "100n" V 7100 700 50  0000 L CNN
F 2 "Capacitor_SMD:C_0603_1608Metric" H 7000 800 50  0001 C CNN
F 3 "~" H 7000 800 50  0001 C CNN
	1    7000 800 
	0    1    1    0   
$EndComp
$Comp
L power:+3V3 #PWR062
U 1 1 6102C594
P 6800 800
F 0 "#PWR062" H 6800 650 50  0001 C CNN
F 1 "+3V3" H 6815 973 50  0000 C CNN
F 2 "" H 6800 800 50  0001 C CNN
F 3 "" H 6800 800 50  0001 C CNN
	1    6800 800 
	1    0    0    -1  
$EndComp
Connection ~ 6200 800 
Wire Wire Line
	6200 800  6300 800 
$Comp
L power:GNDREF #PWR060
U 1 1 61022903
P 6500 800
F 0 "#PWR060" H 6500 550 50  0001 C CNN
F 1 "GNDREF" H 6505 627 50  0001 C CNN
F 2 "" H 6500 800 50  0001 C CNN
F 3 "" H 6500 800 50  0001 C CNN
	1    6500 800 
	1    0    0    -1  
$EndComp
$Comp
L Device:C_Small C23
U 1 1 610228FD
P 6400 800
F 0 "C23" V 6300 750 50  0000 L CNN
F 1 "100n" V 6500 700 50  0000 L CNN
F 2 "Capacitor_SMD:C_0603_1608Metric" H 6400 800 50  0001 C CNN
F 3 "~" H 6400 800 50  0001 C CNN
	1    6400 800 
	0    1    1    0   
$EndComp
$Comp
L power:+3V3 #PWR056
U 1 1 610228F7
P 6200 800
F 0 "#PWR056" H 6200 650 50  0001 C CNN
F 1 "+3V3" H 6215 973 50  0000 C CNN
F 2 "" H 6200 800 50  0001 C CNN
F 3 "" H 6200 800 50  0001 C CNN
	1    6200 800 
	1    0    0    -1  
$EndComp
Connection ~ 5600 800 
Wire Wire Line
	5600 800  5700 800 
$Comp
L power:GNDREF #PWR055
U 1 1 61018DF4
P 5900 800
F 0 "#PWR055" H 5900 550 50  0001 C CNN
F 1 "GNDREF" H 5905 627 50  0001 C CNN
F 2 "" H 5900 800 50  0001 C CNN
F 3 "" H 5900 800 50  0001 C CNN
	1    5900 800 
	1    0    0    -1  
$EndComp
$Comp
L Device:C_Small C22
U 1 1 61018DEE
P 5800 800
F 0 "C22" V 5700 750 50  0000 L CNN
F 1 "100n" V 5900 700 50  0000 L CNN
F 2 "Capacitor_SMD:C_0603_1608Metric" H 5800 800 50  0001 C CNN
F 3 "~" H 5800 800 50  0001 C CNN
	1    5800 800 
	0    1    1    0   
$EndComp
$Comp
L power:+3V3 #PWR053
U 1 1 61018DE8
P 5600 800
F 0 "#PWR053" H 5600 650 50  0001 C CNN
F 1 "+3V3" H 5615 973 50  0000 C CNN
F 2 "" H 5600 800 50  0001 C CNN
F 3 "" H 5600 800 50  0001 C CNN
	1    5600 800 
	1    0    0    -1  
$EndComp
$Comp
L power:GNDREF #PWR083
U 1 1 61016CE6
P 8600 1800
F 0 "#PWR083" H 8600 1550 50  0001 C CNN
F 1 "GNDREF" H 8605 1627 50  0001 C CNN
F 2 "" H 8600 1800 50  0001 C CNN
F 3 "" H 8600 1800 50  0001 C CNN
	1    8600 1800
	1    0    0    -1  
$EndComp
$Comp
L power:GNDREF #PWR079
U 1 1 61015B5A
P 8000 1800
F 0 "#PWR079" H 8000 1550 50  0001 C CNN
F 1 "GNDREF" H 8005 1627 50  0001 C CNN
F 2 "" H 8000 1800 50  0001 C CNN
F 3 "" H 8000 1800 50  0001 C CNN
	1    8000 1800
	1    0    0    -1  
$EndComp
$Comp
L power:GNDREF #PWR068
U 1 1 61014F8C
P 7400 1800
F 0 "#PWR068" H 7400 1550 50  0001 C CNN
F 1 "GNDREF" H 7405 1627 50  0001 C CNN
F 2 "" H 7400 1800 50  0001 C CNN
F 3 "" H 7400 1800 50  0001 C CNN
	1    7400 1800
	1    0    0    -1  
$EndComp
$Comp
L power:GNDREF #PWR063
U 1 1 6101444B
P 6800 1800
F 0 "#PWR063" H 6800 1550 50  0001 C CNN
F 1 "GNDREF" H 6805 1627 50  0001 C CNN
F 2 "" H 6800 1800 50  0001 C CNN
F 3 "" H 6800 1800 50  0001 C CNN
	1    6800 1800
	1    0    0    -1  
$EndComp
$Comp
L power:GNDREF #PWR057
U 1 1 61013897
P 6200 1800
F 0 "#PWR057" H 6200 1550 50  0001 C CNN
F 1 "GNDREF" H 6205 1627 50  0001 C CNN
F 2 "" H 6200 1800 50  0001 C CNN
F 3 "" H 6200 1800 50  0001 C CNN
	1    6200 1800
	1    0    0    -1  
$EndComp
$Comp
L power:GNDREF #PWR054
U 1 1 61013112
P 5600 1800
F 0 "#PWR054" H 5600 1550 50  0001 C CNN
F 1 "GNDREF" H 5605 1627 50  0001 C CNN
F 2 "" H 5600 1800 50  0001 C CNN
F 3 "" H 5600 1800 50  0001 C CNN
	1    5600 1800
	1    0    0    -1  
$EndComp
$Comp
L power:GNDREF #PWR049
U 1 1 60FD212C
P 5000 1800
F 0 "#PWR049" H 5000 1550 50  0001 C CNN
F 1 "GNDREF" H 5005 1627 50  0001 C CNN
F 2 "" H 5000 1800 50  0001 C CNN
F 3 "" H 5000 1800 50  0001 C CNN
	1    5000 1800
	1    0    0    -1  
$EndComp
Connection ~ 5000 800 
Wire Wire Line
	5000 800  5100 800 
$Comp
L power:GNDREF #PWR052
U 1 1 60FA1F7F
P 5300 800
F 0 "#PWR052" H 5300 550 50  0001 C CNN
F 1 "GNDREF" H 5305 627 50  0001 C CNN
F 2 "" H 5300 800 50  0001 C CNN
F 3 "" H 5300 800 50  0001 C CNN
	1    5300 800 
	1    0    0    -1  
$EndComp
$Comp
L Device:C_Small C21
U 1 1 60FA1F79
P 5200 800
F 0 "C21" V 5100 750 50  0000 L CNN
F 1 "100n" V 5300 700 50  0000 L CNN
F 2 "Capacitor_SMD:C_0603_1608Metric" H 5200 800 50  0001 C CNN
F 3 "~" H 5200 800 50  0001 C CNN
	1    5200 800 
	0    1    1    0   
$EndComp
$Comp
L power:+3V3 #PWR048
U 1 1 60FA1F73
P 5000 800
F 0 "#PWR048" H 5000 650 50  0001 C CNN
F 1 "+3V3" H 5015 973 50  0000 C CNN
F 2 "" H 5000 800 50  0001 C CNN
F 3 "" H 5000 800 50  0001 C CNN
	1    5000 800 
	1    0    0    -1  
$EndComp
$Comp
L 74xx:74HC86 U10
U 5 1 5FA16FD3
P 7400 1300
F 0 "U10" H 7350 1300 50  0000 L CNN
F 1 "SN74HC86" V 7250 1100 50  0000 L CNN
F 2 "Package_SO:TSSOP-14_4.4x5mm_P0.65mm" H 7400 1300 50  0001 C CNN
F 3 "http://www.ti.com/lit/gpn/sn74HC86" H 7400 1300 50  0001 C CNN
	5    7400 1300
	1    0    0    -1  
$EndComp
Connection ~ 4400 800 
$Comp
L 74xx:74LS08 U5
U 5 1 5F9AC77B
P 4400 1300
F 0 "U5" H 4350 1300 50  0000 L CNN
F 1 "SN74HC08" V 4250 1100 50  0000 L CNN
F 2 "Package_SO:TSSOP-14_4.4x5mm_P0.65mm" H 4400 1300 50  0001 C CNN
F 3 "http://www.ti.com/lit/gpn/sn74LS08" H 4400 1300 50  0001 C CNN
	5    4400 1300
	1    0    0    -1  
$EndComp
$Comp
L 74xx:74HC86 U8
U 5 1 5F9CBA2E
P 6800 1300
F 0 "U8" H 6750 1300 50  0000 L CNN
F 1 "SN74HC86" V 6650 1100 50  0000 L CNN
F 2 "Package_SO:TSSOP-14_4.4x5mm_P0.65mm" H 6800 1300 50  0001 C CNN
F 3 "http://www.ti.com/lit/gpn/sn74HC86" H 6800 1300 50  0001 C CNN
	5    6800 1300
	1    0    0    -1  
$EndComp
$Comp
L 74xx:74HC86 U7
U 5 1 5F9DA98E
P 8000 1300
F 0 "U7" H 7950 1300 50  0000 L CNN
F 1 "SN74HC86" V 7850 1100 50  0000 L CNN
F 2 "Package_SO:TSSOP-14_4.4x5mm_P0.65mm" H 8000 1300 50  0001 C CNN
F 3 "http://www.ti.com/lit/gpn/sn74HC86" H 8000 1300 50  0001 C CNN
	5    8000 1300
	1    0    0    -1  
$EndComp
$Comp
L 74xx:74LS08 U6
U 5 1 5FB10289
P 5000 1300
F 0 "U6" H 4950 1300 50  0000 L CNN
F 1 "SN74HC08" V 4850 1100 50  0000 L CNN
F 2 "Package_SO:TSSOP-14_4.4x5mm_P0.65mm" H 5000 1300 50  0001 C CNN
F 3 "http://www.ti.com/lit/gpn/sn74LS08" H 5000 1300 50  0001 C CNN
	5    5000 1300
	1    0    0    -1  
$EndComp
$Comp
L 74xx:74HC86 U9
U 5 1 5FA16FF1
P 8600 1300
F 0 "U9" H 8550 1300 50  0000 L CNN
F 1 "SN74HC86" V 8450 1100 50  0000 L CNN
F 2 "Package_SO:TSSOP-14_4.4x5mm_P0.65mm" H 8600 1300 50  0001 C CNN
F 3 "http://www.ti.com/lit/gpn/sn74HC86" H 8600 1300 50  0001 C CNN
	5    8600 1300
	1    0    0    -1  
$EndComp
$Comp
L power:GNDREF #PWR039
U 1 1 60436E97
P 4400 1800
F 0 "#PWR039" H 4400 1550 50  0001 C CNN
F 1 "GNDREF" H 4405 1627 50  0001 C CNN
F 2 "" H 4400 1800 50  0001 C CNN
F 3 "" H 4400 1800 50  0001 C CNN
	1    4400 1800
	1    0    0    -1  
$EndComp
$Comp
L 74xx:74LS32 U3
U 5 1 5F9A9600
P 5600 1300
F 0 "U3" H 5550 1300 50  0000 L CNN
F 1 "SN74HC32" V 5450 1100 50  0000 L CNN
F 2 "Package_SO:TSSOP-14_4.4x5mm_P0.65mm" H 5600 1300 50  0001 C CNN
F 3 "http://www.ti.com/lit/gpn/sn74LS32" H 5600 1300 50  0001 C CNN
	5    5600 1300
	1    0    0    -1  
$EndComp
$Comp
L 74xx:74LS32 U4
U 5 1 5FA7F407
P 6200 1300
F 0 "U4" H 6150 1300 50  0000 L CNN
F 1 "SN74HC32" V 6050 1100 50  0000 L CNN
F 2 "Package_SO:TSSOP-14_4.4x5mm_P0.65mm" H 6200 1300 50  0001 C CNN
F 3 "http://www.ti.com/lit/gpn/sn74LS32" H 6200 1300 50  0001 C CNN
	5    6200 1300
	1    0    0    -1  
$EndComp
$Comp
L power:+3V3 #PWR038
U 1 1 6044BF01
P 4400 800
F 0 "#PWR038" H 4400 650 50  0001 C CNN
F 1 "+3V3" H 4415 973 50  0000 C CNN
F 2 "" H 4400 800 50  0001 C CNN
F 3 "" H 4400 800 50  0001 C CNN
	1    4400 800 
	1    0    0    -1  
$EndComp
Wire Bus Line
	4200 7250 3350 7250
Connection ~ 3350 7250
Text HLabel 8700 2650 2    50   Input ~ 0
F[0..7]
$Comp
L power:GNDREF #PWR042
U 1 1 60EC9418
P 4700 800
F 0 "#PWR042" H 4700 550 50  0001 C CNN
F 1 "GNDREF" H 4705 627 50  0001 C CNN
F 2 "" H 4700 800 50  0001 C CNN
F 3 "" H 4700 800 50  0001 C CNN
	1    4700 800 
	1    0    0    -1  
$EndComp
Wire Wire Line
	4400 800  4500 800 
$Comp
L Device:C_Small C17
U 1 1 60E6A5F2
P 4600 800
F 0 "C17" V 4500 750 50  0000 L CNN
F 1 "100n" V 4700 700 50  0000 L CNN
F 2 "Capacitor_SMD:C_0603_1608Metric" H 4600 800 50  0001 C CNN
F 3 "~" H 4600 800 50  0001 C CNN
	1    4600 800 
	0    1    1    0   
$EndComp
Wire Bus Line
	2150 9450 3800 9450
Entry Wire Line
	2150 650  2250 750 
Entry Wire Line
	2000 850  2100 950 
Wire Bus Line
	2000 9500 3650 9500
Wire Bus Line
	6100 2650 8550 2650
Wire Bus Line
	8700 2650 8550 2650
Connection ~ 8550 2650
Wire Bus Line
	4050 7500 5400 7500
Wire Bus Line
	5400 7500 7350 7500
Connection ~ 5400 7500
$Comp
L 74xx:74HC86 U8
U 1 1 5FA16FC1
P 1450 3700
F 0 "U8" H 1450 3700 50  0000 C CNN
F 1 "SN74HC86" H 1450 3934 50  0000 C CNN
F 2 "Package_SO:TSSOP-14_4.4x5mm_P0.65mm" H 1450 3700 50  0001 C CNN
F 3 "http://www.ti.com/lit/gpn/sn74HC86" H 1450 3700 50  0001 C CNN
	1    1450 3700
	1    0    0    -1  
$EndComp
$Comp
L 74xx:74HC86 U8
U 3 1 5FA16FC7
P 1450 4400
F 0 "U8" H 1450 4400 50  0000 C CNN
F 1 "SN74HC86" H 1450 4634 50  0001 C CNN
F 2 "Package_SO:TSSOP-14_4.4x5mm_P0.65mm" H 1450 4400 50  0001 C CNN
F 3 "http://www.ti.com/lit/gpn/sn74HC86" H 1450 4400 50  0001 C CNN
	3    1450 4400
	1    0    0    -1  
$EndComp
$Comp
L 74xx:74HC86 U8
U 4 1 5FA16FCD
P 1450 4750
F 0 "U8" H 1450 4750 50  0000 C CNN
F 1 "SN74HC86" H 1450 4984 50  0001 C CNN
F 2 "Package_SO:TSSOP-14_4.4x5mm_P0.65mm" H 1450 4750 50  0001 C CNN
F 3 "http://www.ti.com/lit/gpn/sn74HC86" H 1450 4750 50  0001 C CNN
	4    1450 4750
	1    0    0    -1  
$EndComp
$Comp
L 74xx:74HC86 U8
U 2 1 5FA16FD9
P 1450 4050
F 0 "U8" H 1450 4050 50  0000 C CNN
F 1 "SN74HC86" H 1450 4284 50  0001 C CNN
F 2 "Package_SO:TSSOP-14_4.4x5mm_P0.65mm" H 1450 4050 50  0001 C CNN
F 3 "http://www.ti.com/lit/gpn/sn74HC86" H 1450 4050 50  0001 C CNN
	2    1450 4050
	1    0    0    -1  
$EndComp
$Comp
L 74xx:74HC86 U10
U 3 1 5FA16FE5
P 1450 5800
F 0 "U10" H 1450 5800 50  0000 C CNN
F 1 "SN74HC86" H 1450 6034 50  0001 C CNN
F 2 "Package_SO:TSSOP-14_4.4x5mm_P0.65mm" H 1450 5800 50  0001 C CNN
F 3 "http://www.ti.com/lit/gpn/sn74HC86" H 1450 5800 50  0001 C CNN
	3    1450 5800
	1    0    0    -1  
$EndComp
$Comp
L 74xx:74HC86 U10
U 4 1 5FA16FEB
P 1450 6150
F 0 "U10" H 1450 6150 50  0000 C CNN
F 1 "SN74HC86" H 1450 6384 50  0001 C CNN
F 2 "Package_SO:TSSOP-14_4.4x5mm_P0.65mm" H 1450 6150 50  0001 C CNN
F 3 "http://www.ti.com/lit/gpn/sn74HC86" H 1450 6150 50  0001 C CNN
	4    1450 6150
	1    0    0    -1  
$EndComp
$Comp
L 74xx:74HC86 U10
U 2 1 5FA16FF7
P 1450 5450
F 0 "U10" H 1450 5450 50  0000 C CNN
F 1 "SN74HC86" H 1450 5684 50  0001 C CNN
F 2 "Package_SO:TSSOP-14_4.4x5mm_P0.65mm" H 1450 5450 50  0001 C CNN
F 3 "http://www.ti.com/lit/gpn/sn74HC86" H 1450 5450 50  0001 C CNN
	2    1450 5450
	1    0    0    -1  
$EndComp
$Comp
L 74xx:74HC86 U10
U 1 1 5FA16FDF
P 1450 5100
F 0 "U10" H 1450 5100 50  0000 C CNN
F 1 "SN74HC86" H 1450 5334 50  0001 C CNN
F 2 "Package_SO:TSSOP-14_4.4x5mm_P0.65mm" H 1450 5100 50  0001 C CNN
F 3 "http://www.ti.com/lit/gpn/sn74HC86" H 1450 5100 50  0001 C CNN
	1    1450 5100
	1    0    0    -1  
$EndComp
Text HLabel 750  3650 0    50   Input ~ 0
binv
Text HLabel 850  3250 0    50   Input ~ 0
A[0..7]
Text HLabel 850  3400 0    50   Input ~ 0
B[0..7]
Entry Wire Line
	950  3500 1050 3600
Entry Wire Line
	950  3850 1050 3950
Entry Wire Line
	950  4200 1050 4300
Entry Wire Line
	950  4550 1050 4650
Entry Wire Line
	950  4900 1050 5000
Entry Wire Line
	950  5250 1050 5350
Entry Wire Line
	950  5600 1050 5700
Entry Wire Line
	950  5950 1050 6050
Wire Wire Line
	1050 3600 1150 3600
Text Label 1050 3600 0    50   ~ 0
B0
Wire Wire Line
	1050 3950 1150 3950
Wire Wire Line
	1050 4300 1150 4300
Wire Wire Line
	1050 4650 1150 4650
Wire Wire Line
	1050 5000 1150 5000
Wire Wire Line
	1050 5350 1150 5350
Wire Wire Line
	1150 5700 1050 5700
Wire Wire Line
	1050 6050 1150 6050
Text Label 1050 3950 0    50   ~ 0
B1
Text Label 1050 4300 0    50   ~ 0
B2
Text Label 1050 4650 0    50   ~ 0
B3
Text Label 1050 5000 0    50   ~ 0
B4
Text Label 1050 5350 0    50   ~ 0
B5
Text Label 1050 5700 0    50   ~ 0
B6
Text Label 1050 6050 0    50   ~ 0
B7
Wire Wire Line
	850  3800 850  4150
Wire Wire Line
	850  4150 1150 4150
Wire Wire Line
	850  3800 1150 3800
Wire Wire Line
	850  4150 850  4500
Wire Wire Line
	850  4500 1150 4500
Connection ~ 850  4150
Wire Wire Line
	850  4500 850  4850
Wire Wire Line
	850  4850 1150 4850
Connection ~ 850  4500
Wire Wire Line
	850  4850 850  5200
Wire Wire Line
	850  5200 1150 5200
Connection ~ 850  4850
Wire Wire Line
	850  5200 850  5550
Wire Wire Line
	850  5550 1150 5550
Connection ~ 850  5200
Wire Wire Line
	850  5550 850  5900
Wire Wire Line
	850  5900 1150 5900
Connection ~ 850  5550
Wire Wire Line
	850  5900 850  6250
Wire Wire Line
	850  6250 1150 6250
Connection ~ 850  5900
Wire Wire Line
	750  3650 850  3650
Wire Wire Line
	850  3650 850  3800
Connection ~ 850  3800
Text Label 1750 3700 0    50   ~ 0
BI0
Text Label 1750 4050 0    50   ~ 0
BI1
Text Label 1750 4400 0    50   ~ 0
BI2
Text Label 1750 4750 0    50   ~ 0
BI3
Text Label 1750 5100 0    50   ~ 0
BI4
Text Label 1750 5450 0    50   ~ 0
BI5
Text Label 1750 5800 0    50   ~ 0
BI6
Text Label 1750 6150 0    50   ~ 0
BI7
Entry Wire Line
	1900 4050 2000 3950
Entry Wire Line
	2000 4300 1900 4400
Entry Wire Line
	1900 4750 2000 4650
Entry Wire Line
	1900 5100 2000 5000
Entry Wire Line
	1900 5450 2000 5350
Entry Wire Line
	1900 5800 2000 5700
Entry Wire Line
	1900 6150 2000 6050
Wire Wire Line
	1750 6150 1900 6150
Wire Wire Line
	1750 5800 1900 5800
Wire Wire Line
	1750 5450 1900 5450
Wire Wire Line
	1750 5100 1900 5100
Wire Wire Line
	1750 4750 1900 4750
Wire Wire Line
	1750 4400 1900 4400
Wire Wire Line
	1900 4050 1750 4050
Wire Wire Line
	1750 3700 1900 3700
Entry Wire Line
	1900 3700 2000 3600
Wire Bus Line
	850  3250 2150 3250
Connection ~ 2150 3250
Wire Bus Line
	850  3400 950  3400
Wire Bus Line
	10000 8350 8400 8350
Wire Bus Line
	10150 8300 8550 8300
Wire Wire Line
	11850 7100 11350 7100
Wire Wire Line
	11850 8250 11850 7100
Wire Wire Line
	9800 8250 11850 8250
Wire Wire Line
	9800 7700 9800 8250
Wire Wire Line
	9750 7700 9800 7700
Wire Wire Line
	11900 7000 11350 7000
Wire Wire Line
	11900 8200 11900 7000
Wire Wire Line
	9850 8200 11900 8200
Wire Wire Line
	9850 7600 9850 8200
Wire Wire Line
	9750 7600 9850 7600
Wire Wire Line
	11950 6900 11350 6900
Wire Wire Line
	11950 8150 11950 6900
Wire Wire Line
	9900 8150 11950 8150
Wire Wire Line
	9900 7500 9900 8150
Wire Wire Line
	9750 7500 9900 7500
Wire Wire Line
	11650 7700 11350 7700
Wire Wire Line
	11350 7600 11650 7600
Wire Wire Line
	11650 7500 11350 7500
Entry Wire Line
	11650 7700 11750 7600
Entry Wire Line
	11650 7600 11750 7500
Entry Wire Line
	11650 7500 11750 7400
Text Label 11350 7500 0    50   ~ 0
COMP2
Text Label 11350 7600 0    50   ~ 0
COMP1
Text Label 11350 7700 0    50   ~ 0
COMP0
Wire Wire Line
	10350 6900 10100 6900
Wire Wire Line
	10100 7000 10350 7000
Wire Wire Line
	10350 7100 10100 7100
Wire Wire Line
	10100 7200 10350 7200
Entry Wire Line
	10000 7300 10100 7200
Entry Wire Line
	10000 7200 10100 7100
Entry Wire Line
	10000 7100 10100 7000
Entry Wire Line
	10000 7000 10100 6900
Text Label 10200 7200 0    50   ~ 0
B4
Text Label 10200 7100 0    50   ~ 0
B5
Text Label 10200 7000 0    50   ~ 0
B6
Text Label 10200 6900 0    50   ~ 0
B7
Entry Wire Line
	10150 7500 10250 7400
Entry Wire Line
	10150 7600 10250 7500
Entry Wire Line
	10150 7700 10250 7600
Entry Wire Line
	10150 7800 10250 7700
Wire Wire Line
	10250 7700 10350 7700
Wire Wire Line
	10250 7600 10350 7600
Wire Wire Line
	10250 7500 10350 7500
Wire Wire Line
	10250 7400 10350 7400
Text Label 10250 7700 0    50   ~ 0
A4
Text Label 10250 7600 0    50   ~ 0
A5
Text Label 10250 7500 0    50   ~ 0
A6
Text Label 10250 7400 0    50   ~ 0
A7
Connection ~ 9800 7000
Wire Wire Line
	9800 6900 9750 6900
Wire Wire Line
	9800 7000 9800 6900
Wire Wire Line
	9800 7000 9750 7000
Wire Wire Line
	9800 7150 9800 7000
Wire Wire Line
	9750 7100 9850 7100
Wire Wire Line
	9850 7100 9850 6900
$Comp
L power:GNDREF #PWR064
U 1 1 6112879B
P 9800 7150
F 0 "#PWR064" H 9800 6900 50  0001 C CNN
F 1 "GNDREF" H 9805 6977 50  0001 C CNN
F 2 "" H 9800 7150 50  0001 C CNN
F 3 "" H 9800 7150 50  0001 C CNN
	1    9800 7150
	1    0    0    -1  
$EndComp
$Comp
L power:+3V3 #PWR065
U 1 1 61127D03
P 9850 6900
F 0 "#PWR065" H 9850 6750 50  0001 C CNN
F 1 "+3V3" H 9865 7073 50  0000 C CNN
F 2 "" H 9850 6900 50  0001 C CNN
F 3 "" H 9850 6900 50  0001 C CNN
	1    9850 6900
	1    0    0    -1  
$EndComp
$Comp
L 74xx:74LS85 U13
U 1 1 5F9A47F8
P 10850 7300
F 0 "U13" H 10650 7850 50  0000 C CNN
F 1 "74HC85" V 10850 7300 50  0000 C CNN
F 2 "Package_SO:TSSOP-16_4.4x5mm_P0.65mm" H 10850 7300 50  0001 C CNN
F 3 "http://www.ti.com/lit/gpn/sn74LS85" H 10850 7300 50  0001 C CNN
	1    10850 7300
	1    0    0    -1  
$EndComp
$Comp
L power:+3V3 #PWR076
U 1 1 610DACDD
P 10850 6600
F 0 "#PWR076" H 10850 6450 50  0001 C CNN
F 1 "+3V3" H 10865 6773 50  0000 C CNN
F 2 "" H 10850 6600 50  0001 C CNN
F 3 "" H 10850 6600 50  0001 C CNN
	1    10850 6600
	1    0    0    -1  
$EndComp
$Comp
L Device:C_Small C29
U 1 1 610DACE3
P 11050 6600
F 0 "C29" V 10950 6550 50  0000 L CNN
F 1 "100n" V 11150 6500 50  0000 L CNN
F 2 "Capacitor_SMD:C_0603_1608Metric" H 11050 6600 50  0001 C CNN
F 3 "~" H 11050 6600 50  0001 C CNN
	1    11050 6600
	0    1    1    0   
$EndComp
$Comp
L power:GNDREF #PWR080
U 1 1 610DACE9
P 11150 6600
F 0 "#PWR080" H 11150 6350 50  0001 C CNN
F 1 "GNDREF" H 11155 6427 50  0001 C CNN
F 2 "" H 11150 6600 50  0001 C CNN
F 3 "" H 11150 6600 50  0001 C CNN
	1    11150 6600
	1    0    0    -1  
$EndComp
Wire Wire Line
	10850 6600 10950 6600
Connection ~ 10850 6600
$Comp
L power:GNDREF #PWR077
U 1 1 610E4A1B
P 10850 8000
F 0 "#PWR077" H 10850 7750 50  0001 C CNN
F 1 "GNDREF" H 10855 7827 50  0001 C CNN
F 2 "" H 10850 8000 50  0001 C CNN
F 3 "" H 10850 8000 50  0001 C CNN
	1    10850 8000
	1    0    0    -1  
$EndComp
Connection ~ 9250 6600
Wire Wire Line
	9250 6600 9350 6600
$Comp
L power:GNDREF #PWR061
U 1 1 610D0D5D
P 9550 6600
F 0 "#PWR061" H 9550 6350 50  0001 C CNN
F 1 "GNDREF" H 9555 6427 50  0001 C CNN
F 2 "" H 9550 6600 50  0001 C CNN
F 3 "" H 9550 6600 50  0001 C CNN
	1    9550 6600
	1    0    0    -1  
$EndComp
$Comp
L Device:C_Small C24
U 1 1 610D0D57
P 9450 6600
F 0 "C24" V 9350 6550 50  0000 L CNN
F 1 "100n" V 9550 6500 50  0000 L CNN
F 2 "Capacitor_SMD:C_0603_1608Metric" H 9450 6600 50  0001 C CNN
F 3 "~" H 9450 6600 50  0001 C CNN
	1    9450 6600
	0    1    1    0   
$EndComp
$Comp
L power:+3V3 #PWR058
U 1 1 610D0D51
P 9250 6600
F 0 "#PWR058" H 9250 6450 50  0001 C CNN
F 1 "+3V3" H 9265 6773 50  0000 C CNN
F 2 "" H 9250 6600 50  0001 C CNN
F 3 "" H 9250 6600 50  0001 C CNN
	1    9250 6600
	1    0    0    -1  
$EndComp
$Comp
L power:GNDREF #PWR059
U 1 1 60E610D3
P 9250 8000
F 0 "#PWR059" H 9250 7750 50  0001 C CNN
F 1 "GNDREF" H 9255 7827 50  0001 C CNN
F 2 "" H 9250 8000 50  0001 C CNN
F 3 "" H 9250 8000 50  0001 C CNN
	1    9250 8000
	1    0    0    -1  
$EndComp
Wire Wire Line
	8750 6900 8500 6900
Wire Wire Line
	8500 7000 8750 7000
Wire Wire Line
	8750 7100 8500 7100
Wire Wire Line
	8500 7200 8750 7200
Entry Wire Line
	8400 7300 8500 7200
Entry Wire Line
	8400 7200 8500 7100
Entry Wire Line
	8400 7100 8500 7000
Entry Wire Line
	8400 7000 8500 6900
Text Label 8600 7200 0    50   ~ 0
B0
Text Label 8600 7100 0    50   ~ 0
B1
Text Label 8600 7000 0    50   ~ 0
B2
Text Label 8600 6900 0    50   ~ 0
B3
Entry Wire Line
	8550 7500 8650 7400
Entry Wire Line
	8550 7600 8650 7500
Entry Wire Line
	8550 7700 8650 7600
Entry Wire Line
	8550 7800 8650 7700
Wire Wire Line
	8650 7700 8750 7700
Wire Wire Line
	8650 7600 8750 7600
Wire Wire Line
	8650 7500 8750 7500
Wire Wire Line
	8650 7400 8750 7400
Text Label 8650 7700 0    50   ~ 0
A0
Text Label 8650 7600 0    50   ~ 0
A1
Text Label 8650 7500 0    50   ~ 0
A2
Text Label 8650 7400 0    50   ~ 0
A3
$Comp
L 74xx:74LS85 U14
U 1 1 5FA4EC2E
P 9250 7300
F 0 "U14" H 9050 7850 50  0000 C CNN
F 1 "74HC85" V 9250 7300 50  0000 C CNN
F 2 "Package_SO:TSSOP-16_4.4x5mm_P0.65mm" H 9250 7300 50  0001 C CNN
F 3 "http://www.ti.com/lit/gpn/sn74LS85" H 9250 7300 50  0001 C CNN
	1    9250 7300
	1    0    0    -1  
$EndComp
Text HLabel 11700 6400 0    50   Input ~ 0
COMP[0..2]
Wire Bus Line
	11700 6400 11750 6400
Wire Bus Line
	5750 9450 7450 9450
Wire Bus Line
	7450 9450 7450 8300
Wire Bus Line
	7450 8300 8550 8300
Connection ~ 5750 9450
Connection ~ 8550 8300
Wire Bus Line
	8400 8350 7500 8350
Wire Bus Line
	7500 8350 7500 9550
Wire Bus Line
	7500 9550 950  9550
Connection ~ 8400 8350
Entry Wire Line
	3900 8450 3800 8550
Entry Wire Line
	3900 8350 3800 8450
Entry Wire Line
	3900 8250 3800 8350
Entry Wire Line
	3900 8150 3800 8250
Connection ~ 3800 9450
Wire Bus Line
	3800 9450 5750 9450
Connection ~ 3650 9500
Wire Bus Line
	3650 9500 5600 9500
Text Notes 4600 8650 1    50   ~ 0
4b Adder
Text Notes 6550 8650 1    50   ~ 0
4b Adder
Text Notes 9200 7600 1    50   ~ 0
4b Comparator
Text Notes 10800 7600 1    50   ~ 0
4b Comparator
Text Notes 7850 6400 1    50   ~ 0
4X1 Mux
Text Notes 5350 6400 1    50   ~ 0
4X1 Mux
Text Notes 5350 3950 1    50   ~ 0
4X1 Mux
Text Notes 7800 3950 1    50   ~ 0
4X1 Mux
Wire Wire Line
	3900 7950 4000 7950
Wire Bus Line
	4350 4700 4350 6250
Wire Bus Line
	3350 6750 3350 7250
Wire Bus Line
	3350 2550 3350 3400
Wire Bus Line
	3350 3850 3350 4700
Wire Bus Line
	4350 2450 4350 4700
Wire Bus Line
	11750 6400 11750 7600
Wire Bus Line
	8550 7500 8550 8300
Wire Bus Line
	8400 7000 8400 8350
Wire Bus Line
	10150 7500 10150 8300
Wire Bus Line
	10000 7000 10000 8350
Wire Bus Line
	8550 2650 8550 6150
Wire Bus Line
	6100 2650 6100 6150
Wire Bus Line
	6500 2250 6500 6450
Wire Bus Line
	6650 2350 6650 6350
Wire Bus Line
	6800 2450 6800 6250
Wire Bus Line
	6950 2550 6950 6150
Wire Bus Line
	4050 2250 4050 7500
Wire Bus Line
	4200 2350 4200 7250
Wire Bus Line
	4500 2550 4500 6150
Wire Bus Line
	3350 4700 3350 6300
Wire Bus Line
	3350 950  3350 2550
Wire Bus Line
	5750 8250 5750 9450
Wire Bus Line
	7350 7500 7350 8150
Wire Bus Line
	5400 7500 5400 8150
Wire Bus Line
	5600 8750 5600 9500
Wire Bus Line
	3800 8250 3800 9450
Wire Bus Line
	3650 8750 3650 9500
Wire Bus Line
	3350 7250 3350 9200
Wire Bus Line
	950  3400 950  9550
Wire Bus Line
	2150 650  2150 3250
Wire Bus Line
	2150 3250 2150 9450
Wire Bus Line
	2000 850  2000 9500
$EndSCHEMATC
