EESchema Schematic File Version 4
EELAYER 30 0
EELAYER END
$Descr A4 11693 8268
encoding utf-8
Sheet 4 6
Title ""
Date ""
Rev ""
Comp ""
Comment1 ""
Comment2 ""
Comment3 ""
Comment4 ""
$EndDescr
$Comp
L sst39vf200a:SST39VF200A U?
U 1 1 627E2A51
P 6550 4900
AR Path="/627E2A51" Ref="U?"  Part="1" 
AR Path="/626E45E5/627E2A51" Ref="U50"  Part="1" 
F 0 "U50" H 6200 6200 50  0000 C CNN
F 1 "SST39VF200A" V 6550 5000 50  0000 C CNN
F 2 "sst39vf200a:sst39vf200a-70-4c-eke" H 5750 5950 50  0001 C CNN
F 3 "" H 5750 5950 50  0001 C CNN
	1    6550 4900
	1    0    0    -1  
$EndComp
$Comp
L Device:C_Small C?
U 1 1 627E2A57
P 5250 5200
AR Path="/627E2A57" Ref="C?"  Part="1" 
AR Path="/626E45E5/627E2A57" Ref="C56"  Part="1" 
F 0 "C56" V 5150 5150 50  0000 C CNN
F 1 "100n" V 5200 5350 50  0000 C CNN
F 2 "Capacitor_SMD:C_0603_1608Metric" H 5250 5200 50  0001 C CNN
F 3 "~" H 5250 5200 50  0001 C CNN
	1    5250 5200
	0    1    1    0   
$EndComp
$Comp
L power:GNDREF #PWR?
U 1 1 627E2A5D
P 5350 5200
AR Path="/627E2A5D" Ref="#PWR?"  Part="1" 
AR Path="/626E45E5/627E2A5D" Ref="#PWR0192"  Part="1" 
F 0 "#PWR0192" H 5350 4950 50  0001 C CNN
F 1 "GNDREF" H 5355 5027 50  0001 C CNN
F 2 "" H 5350 5200 50  0001 C CNN
F 3 "" H 5350 5200 50  0001 C CNN
	1    5350 5200
	1    0    0    -1  
$EndComp
$Comp
L power:+3V3 #PWR?
U 1 1 627E2A63
P 5100 5200
AR Path="/627E2A63" Ref="#PWR?"  Part="1" 
AR Path="/626E45E5/627E2A63" Ref="#PWR0151"  Part="1" 
F 0 "#PWR0151" H 5100 5050 50  0001 C CNN
F 1 "+3V3" H 4950 5250 50  0000 C CNN
F 2 "" H 5100 5200 50  0001 C CNN
F 3 "" H 5100 5200 50  0001 C CNN
	1    5100 5200
	1    0    0    -1  
$EndComp
Wire Wire Line
	5100 5200 5150 5200
$Comp
L Device:C_Small C?
U 1 1 627E2A6A
P 6700 3500
AR Path="/627E2A6A" Ref="C?"  Part="1" 
AR Path="/626E45E5/627E2A6A" Ref="C59"  Part="1" 
F 0 "C59" V 6600 3450 50  0000 C CNN
F 1 "100n" V 6650 3650 50  0000 C CNN
F 2 "Capacitor_SMD:C_0603_1608Metric" H 6700 3500 50  0001 C CNN
F 3 "~" H 6700 3500 50  0001 C CNN
	1    6700 3500
	0    1    1    0   
$EndComp
$Comp
L power:GNDREF #PWR?
U 1 1 627E2A70
P 6800 3500
AR Path="/627E2A70" Ref="#PWR?"  Part="1" 
AR Path="/626E45E5/627E2A70" Ref="#PWR0199"  Part="1" 
F 0 "#PWR0199" H 6800 3250 50  0001 C CNN
F 1 "GNDREF" H 6805 3327 50  0001 C CNN
F 2 "" H 6800 3500 50  0001 C CNN
F 3 "" H 6800 3500 50  0001 C CNN
	1    6800 3500
	1    0    0    -1  
$EndComp
$Comp
L power:+3V3 #PWR?
U 1 1 627E2A76
P 6550 3500
AR Path="/627E2A76" Ref="#PWR?"  Part="1" 
AR Path="/626E45E5/627E2A76" Ref="#PWR0198"  Part="1" 
F 0 "#PWR0198" H 6550 3350 50  0001 C CNN
F 1 "+3V3" H 6400 3550 50  0000 C CNN
F 2 "" H 6550 3500 50  0001 C CNN
F 3 "" H 6550 3500 50  0001 C CNN
	1    6550 3500
	1    0    0    -1  
$EndComp
Wire Wire Line
	6550 3500 6600 3500
Wire Wire Line
	6550 3550 6550 3500
Connection ~ 6550 3500
$Comp
L power:GNDREF #PWR?
U 1 1 627E2AA9
P 6050 5350
AR Path="/627E2AA9" Ref="#PWR?"  Part="1" 
AR Path="/626E45E5/627E2AA9" Ref="#PWR0196"  Part="1" 
F 0 "#PWR0196" H 6050 5100 50  0001 C CNN
F 1 "GNDREF" H 6055 5177 50  0001 C CNN
F 2 "" H 6050 5350 50  0001 C CNN
F 3 "" H 6050 5350 50  0001 C CNN
	1    6050 5350
	1    0    0    -1  
$EndComp
Wire Wire Line
	6050 5350 6050 5250
Connection ~ 6050 5350
Connection ~ 6050 4650
Wire Wire Line
	6050 4650 6050 4550
Connection ~ 6050 4750
Wire Wire Line
	6050 4750 6050 4650
Connection ~ 6050 4850
Wire Wire Line
	6050 4850 6050 4750
Connection ~ 6050 4950
Wire Wire Line
	6050 4950 6050 4850
Connection ~ 6050 5050
Wire Wire Line
	6050 5050 6050 4950
Connection ~ 6050 5150
Wire Wire Line
	6050 5150 6050 5050
Connection ~ 6050 5250
Wire Wire Line
	6050 5250 6050 5150
$Comp
L 74xx:74LS157 U?
U 1 1 627E2AC5
P 5100 6100
AR Path="/627E2AC5" Ref="U?"  Part="1" 
AR Path="/626E45E5/627E2AC5" Ref="U49"  Part="1" 
F 0 "U49" H 4850 6850 50  0000 C CNN
F 1 "SN74HC157" V 5100 6050 50  0000 C CNN
F 2 "Package_SO:TSSOP-16_4.4x5mm_P0.65mm" H 5100 6100 50  0001 C CNN
F 3 "http://www.ti.com/lit/gpn/sn74LS157" H 5100 6100 50  0001 C CNN
	1    5100 6100
	1    0    0    -1  
$EndComp
Connection ~ 5100 5200
$Comp
L power:GNDREF #PWR?
U 1 1 627E2ACC
P 5100 7100
AR Path="/627E2ACC" Ref="#PWR?"  Part="1" 
AR Path="/626E45E5/627E2ACC" Ref="#PWR0179"  Part="1" 
F 0 "#PWR0179" H 5100 6850 50  0001 C CNN
F 1 "GNDREF" H 5105 6927 50  0001 C CNN
F 2 "" H 5100 7100 50  0001 C CNN
F 3 "" H 5100 7100 50  0001 C CNN
	1    5100 7100
	1    0    0    -1  
$EndComp
$Comp
L Device:C_Small C?
U 1 1 627E2AD2
P 5250 3000
AR Path="/627E2AD2" Ref="C?"  Part="1" 
AR Path="/626E45E5/627E2AD2" Ref="C47"  Part="1" 
F 0 "C47" V 5150 2950 50  0000 C CNN
F 1 "100n" V 5200 3150 50  0000 C CNN
F 2 "Capacitor_SMD:C_0603_1608Metric" H 5250 3000 50  0001 C CNN
F 3 "~" H 5250 3000 50  0001 C CNN
	1    5250 3000
	0    1    1    0   
$EndComp
$Comp
L power:GNDREF #PWR?
U 1 1 627E2AD8
P 5350 3000
AR Path="/627E2AD8" Ref="#PWR?"  Part="1" 
AR Path="/626E45E5/627E2AD8" Ref="#PWR0180"  Part="1" 
F 0 "#PWR0180" H 5350 2750 50  0001 C CNN
F 1 "GNDREF" H 5355 2827 50  0001 C CNN
F 2 "" H 5350 3000 50  0001 C CNN
F 3 "" H 5350 3000 50  0001 C CNN
	1    5350 3000
	1    0    0    -1  
$EndComp
$Comp
L power:+3V3 #PWR?
U 1 1 627E2ADE
P 5100 3000
AR Path="/627E2ADE" Ref="#PWR?"  Part="1" 
AR Path="/626E45E5/627E2ADE" Ref="#PWR0149"  Part="1" 
F 0 "#PWR0149" H 5100 2850 50  0001 C CNN
F 1 "+3V3" H 4950 3050 50  0000 C CNN
F 2 "" H 5100 3000 50  0001 C CNN
F 3 "" H 5100 3000 50  0001 C CNN
	1    5100 3000
	1    0    0    -1  
$EndComp
Wire Wire Line
	5100 3000 5150 3000
$Comp
L 74xx:74LS157 U?
U 1 1 627E2AE5
P 5100 3900
AR Path="/627E2AE5" Ref="U?"  Part="1" 
AR Path="/626E45E5/627E2AE5" Ref="U38"  Part="1" 
F 0 "U38" H 4850 4650 50  0000 C CNN
F 1 "SN74HC157" V 5100 3850 50  0000 C CNN
F 2 "Package_SO:TSSOP-16_4.4x5mm_P0.65mm" H 5100 3900 50  0001 C CNN
F 3 "http://www.ti.com/lit/gpn/sn74LS157" H 5100 3900 50  0001 C CNN
	1    5100 3900
	1    0    0    -1  
$EndComp
$Comp
L power:GNDREF #PWR?
U 1 1 627E2AEC
P 5100 4900
AR Path="/627E2AEC" Ref="#PWR?"  Part="1" 
AR Path="/626E45E5/627E2AEC" Ref="#PWR0150"  Part="1" 
F 0 "#PWR0150" H 5100 4650 50  0001 C CNN
F 1 "GNDREF" H 5105 4727 50  0001 C CNN
F 2 "" H 5100 4900 50  0001 C CNN
F 3 "" H 5100 4900 50  0001 C CNN
	1    5100 4900
	1    0    0    -1  
$EndComp
Connection ~ 6500 6400
Wire Wire Line
	6500 6400 6650 6400
$Comp
L power:GNDREF #PWR?
U 1 1 627E2AF4
P 6500 6400
AR Path="/627E2AF4" Ref="#PWR?"  Part="1" 
AR Path="/626E45E5/627E2AF4" Ref="#PWR0197"  Part="1" 
F 0 "#PWR0197" H 6500 6150 50  0001 C CNN
F 1 "GNDREF" H 6505 6227 50  0001 C CNN
F 2 "" H 6500 6400 50  0001 C CNN
F 3 "" H 6500 6400 50  0001 C CNN
	1    6500 6400
	1    0    0    -1  
$EndComp
Text HLabel 4000 2700 0    50   Input ~ 0
PC[0..7]
Text HLabel 7500 2950 2    50   Input ~ 0
DQ[0..15]
Connection ~ 5100 3000
Text Label 5900 5900 0    50   ~ 0
~oe
Text Label 5900 5800 0    50   ~ 0
~we
Text Label 5900 5700 0    50   ~ 0
~ce
$Comp
L power:GNDREF #PWR?
U 1 1 627E2A95
P 5150 1550
AR Path="/627E2A95" Ref="#PWR?"  Part="1" 
AR Path="/626E45E5/627E2A95" Ref="#PWR0195"  Part="1" 
F 0 "#PWR0195" H 5150 1300 50  0001 C CNN
F 1 "GNDREF" H 5155 1377 50  0001 C CNN
F 2 "" H 5150 1550 50  0001 C CNN
F 3 "" H 5150 1550 50  0001 C CNN
	1    5150 1550
	1    0    0    -1  
$EndComp
Wire Wire Line
	6050 5900 5900 5900
$Comp
L Device:R_Small_US R?
U 1 1 627E2A85
P 5150 1450
AR Path="/627E2A85" Ref="R?"  Part="1" 
AR Path="/626E45E5/627E2A85" Ref="R24"  Part="1" 
F 0 "R24" H 4950 1500 50  0000 L CNN
F 1 "10k" H 4950 1400 50  0000 L CNN
F 2 "Resistor_SMD:R_0603_1608Metric" H 5150 1450 50  0001 C CNN
F 3 "~" H 5150 1450 50  0001 C CNN
	1    5150 1450
	1    0    0    -1  
$EndComp
Text Label 6400 2500 2    50   ~ 0
DQ15
Wire Wire Line
	6200 2500 6400 2500
Text Label 5500 2500 0    50   ~ 0
DQ14
Wire Wire Line
	5700 2500 5500 2500
Text Label 6400 2400 2    50   ~ 0
DQ13
Wire Wire Line
	6200 2400 6400 2400
Text Label 5500 2400 0    50   ~ 0
DQ12
Wire Wire Line
	5700 2400 5500 2400
Text Label 6400 2300 2    50   ~ 0
DQ11
Wire Wire Line
	6200 2300 6400 2300
Text Label 5500 2300 0    50   ~ 0
DQ10
Wire Wire Line
	5700 2300 5500 2300
Text Label 6400 2200 2    50   ~ 0
DQ9
Wire Wire Line
	6200 2200 6400 2200
Text Label 5500 2200 0    50   ~ 0
DQ8
Wire Wire Line
	5700 2200 5500 2200
Text Label 6400 2100 2    50   ~ 0
DQ7
Wire Wire Line
	6200 2100 6400 2100
Text Label 5500 2100 0    50   ~ 0
DQ6
Wire Wire Line
	5700 2100 5500 2100
Text Label 6400 2000 2    50   ~ 0
DQ5
Wire Wire Line
	6200 2000 6400 2000
Text Label 5500 2000 0    50   ~ 0
DQ4
Wire Wire Line
	5700 2000 5500 2000
Text Label 6400 1900 2    50   ~ 0
DQ3
Wire Wire Line
	6200 1900 6400 1900
Text Label 5500 1900 0    50   ~ 0
DQ2
Wire Wire Line
	5700 1900 5500 1900
Text Label 6400 1800 2    50   ~ 0
DQ1
Wire Wire Line
	6200 1800 6400 1800
Text Label 5500 1800 0    50   ~ 0
DQ0
Entry Wire Line
	7300 5250 7400 5150
Wire Wire Line
	7050 3750 7300 3750
Text Label 7300 3750 2    50   ~ 0
DQ0
Entry Wire Line
	7400 5050 7300 5150
Wire Wire Line
	7050 3850 7300 3850
Text Label 7300 3850 2    50   ~ 0
DQ1
Entry Wire Line
	7400 4950 7300 5050
Wire Wire Line
	7050 3950 7300 3950
Text Label 7300 3950 2    50   ~ 0
DQ2
Entry Wire Line
	7400 4850 7300 4950
Wire Wire Line
	7050 4050 7300 4050
Text Label 7300 4050 2    50   ~ 0
DQ3
Entry Wire Line
	7400 4750 7300 4850
Wire Wire Line
	7050 4150 7300 4150
Text Label 7300 4150 2    50   ~ 0
DQ4
Entry Wire Line
	7400 4650 7300 4750
Wire Wire Line
	7050 4250 7300 4250
Text Label 7300 4250 2    50   ~ 0
DQ5
Entry Wire Line
	7400 4550 7300 4650
Wire Wire Line
	7050 4350 7300 4350
Text Label 7300 4350 2    50   ~ 0
DQ6
Entry Wire Line
	7400 4450 7300 4550
Wire Wire Line
	7050 4450 7300 4450
Text Label 7300 4450 2    50   ~ 0
DQ7
Entry Wire Line
	7400 4350 7300 4450
Wire Wire Line
	7050 4550 7300 4550
Text Label 7300 4550 2    50   ~ 0
DQ8
Entry Wire Line
	7400 4250 7300 4350
Wire Wire Line
	7050 4650 7300 4650
Text Label 7300 4650 2    50   ~ 0
DQ9
Entry Wire Line
	7400 4150 7300 4250
Wire Wire Line
	7050 4750 7300 4750
Text Label 7300 4750 2    50   ~ 0
DQ10
Entry Wire Line
	7400 4050 7300 4150
Wire Wire Line
	7050 4850 7300 4850
Text Label 7300 4850 2    50   ~ 0
DQ11
Entry Wire Line
	7400 3950 7300 4050
Wire Wire Line
	7050 4950 7300 4950
Text Label 7300 4950 2    50   ~ 0
DQ12
Entry Wire Line
	7400 3850 7300 3950
Wire Wire Line
	7050 5050 7300 5050
Text Label 7300 5050 2    50   ~ 0
DQ13
Entry Wire Line
	7400 3750 7300 3850
Wire Wire Line
	7050 5150 7300 5150
Text Label 7300 5150 2    50   ~ 0
DQ14
Entry Wire Line
	7400 3650 7300 3750
Wire Wire Line
	7050 5250 7300 5250
Text Label 7300 5250 2    50   ~ 0
DQ15
Text Label 5700 3300 2    50   ~ 0
A0
Text Label 6700 2950 0    50   ~ 0
DQ[0..15]
Text Label 5800 5050 1    50   ~ 0
A[0..7]
Text Label 4150 4900 1    50   ~ 0
PC[0..7]
Text Label 4400 2700 0    50   ~ 0
WA[0..7]
Wire Wire Line
	5600 3300 5700 3300
Entry Wire Line
	5800 3400 5700 3300
Text Label 5700 3600 2    50   ~ 0
A1
Wire Wire Line
	5600 3600 5700 3600
Entry Wire Line
	5700 3600 5800 3500
Text Label 5700 3900 2    50   ~ 0
A2
Wire Wire Line
	5600 3900 5700 3900
Entry Wire Line
	5700 3900 5800 3800
Text Label 5700 4200 2    50   ~ 0
A3
Wire Wire Line
	5600 4200 5700 4200
Entry Wire Line
	5700 4200 5800 4100
Text Label 5700 5500 2    50   ~ 0
A4
Wire Wire Line
	5600 5500 5700 5500
Entry Wire Line
	5700 5500 5800 5400
Text Label 5700 5800 2    50   ~ 0
A5
Wire Wire Line
	5600 5800 5700 5800
Entry Wire Line
	5700 5800 5800 5700
Text Label 5700 6100 2    50   ~ 0
A6
Wire Wire Line
	5600 6100 5700 6100
Entry Wire Line
	5700 6100 5800 6000
Text Label 5700 6400 2    50   ~ 0
A7
Wire Wire Line
	5600 6400 5700 6400
Entry Wire Line
	5700 6400 5800 6300
Text Label 5900 3750 0    50   ~ 0
A0
Wire Wire Line
	6050 3750 5900 3750
Entry Wire Line
	5800 3850 5900 3750
Text Label 5900 3850 0    50   ~ 0
A1
Wire Wire Line
	6050 3850 5900 3850
Text Label 5900 3950 0    50   ~ 0
A2
Wire Wire Line
	6050 3950 5900 3950
Text Label 5900 4050 0    50   ~ 0
A3
Wire Wire Line
	6050 4050 5900 4050
Text Label 5900 4450 0    50   ~ 0
A7
Wire Wire Line
	6050 4450 5900 4450
Entry Wire Line
	5800 4150 5900 4050
Entry Wire Line
	5800 4050 5900 3950
Entry Wire Line
	5800 3950 5900 3850
Entry Wire Line
	5800 4250 5900 4150
Entry Wire Line
	5800 4350 5900 4250
Entry Wire Line
	5800 4450 5900 4350
Entry Wire Line
	5800 4550 5900 4450
Wire Wire Line
	6050 4350 5900 4350
Text Label 5900 4350 0    50   ~ 0
A6
Wire Wire Line
	6050 4250 5900 4250
Text Label 5900 4250 0    50   ~ 0
A5
Wire Wire Line
	6050 4150 5900 4150
Text Label 5900 4150 0    50   ~ 0
A4
$Comp
L power:GNDREF #PWR?
U 1 1 60AAABED
P 4600 4600
AR Path="/60AAABED" Ref="#PWR?"  Part="1" 
AR Path="/626E45E5/60AAABED" Ref="#PWR0202"  Part="1" 
F 0 "#PWR0202" H 4600 4350 50  0001 C CNN
F 1 "GNDREF" H 4605 4427 50  0001 C CNN
F 2 "" H 4600 4600 50  0001 C CNN
F 3 "" H 4600 4600 50  0001 C CNN
	1    4600 4600
	1    0    0    -1  
$EndComp
$Comp
L power:GNDREF #PWR?
U 1 1 60AAC085
P 4600 6800
AR Path="/60AAC085" Ref="#PWR?"  Part="1" 
AR Path="/626E45E5/60AAC085" Ref="#PWR0203"  Part="1" 
F 0 "#PWR0203" H 4600 6550 50  0001 C CNN
F 1 "GNDREF" H 4605 6627 50  0001 C CNN
F 2 "" H 4600 6800 50  0001 C CNN
F 3 "" H 4600 6800 50  0001 C CNN
	1    4600 6800
	1    0    0    -1  
$EndComp
Text Label 4400 3300 0    50   ~ 0
PC0
Text Label 4400 3400 0    50   ~ 0
WA0
Wire Wire Line
	4250 3300 4600 3300
Wire Wire Line
	4400 3400 4600 3400
Entry Wire Line
	4150 3200 4250 3300
Entry Wire Line
	4300 3500 4400 3400
Text Label 4400 3600 0    50   ~ 0
PC1
Text Label 4400 3700 0    50   ~ 0
WA1
Wire Wire Line
	4250 3600 4600 3600
Wire Wire Line
	4400 3700 4600 3700
Entry Wire Line
	4150 3500 4250 3600
Entry Wire Line
	4300 3800 4400 3700
Text Label 4400 3900 0    50   ~ 0
PC2
Text Label 4400 4000 0    50   ~ 0
WA2
Wire Wire Line
	4250 3900 4600 3900
Wire Wire Line
	4400 4000 4600 4000
Entry Wire Line
	4150 3800 4250 3900
Entry Wire Line
	4300 4100 4400 4000
Text Label 4400 4200 0    50   ~ 0
PC3
Text Label 4400 4300 0    50   ~ 0
WA3
Wire Wire Line
	4250 4200 4600 4200
Wire Wire Line
	4400 4300 4600 4300
Entry Wire Line
	4150 4100 4250 4200
Entry Wire Line
	4300 4400 4400 4300
Text Label 4400 5500 0    50   ~ 0
PC4
Text Label 4400 5600 0    50   ~ 0
WA4
Wire Wire Line
	4250 5500 4600 5500
Wire Wire Line
	4400 5600 4600 5600
Entry Wire Line
	4150 5400 4250 5500
Entry Wire Line
	4300 5700 4400 5600
Text Label 4400 5800 0    50   ~ 0
PC5
Text Label 4400 5900 0    50   ~ 0
WA5
Wire Wire Line
	4250 5800 4600 5800
Wire Wire Line
	4400 5900 4600 5900
Entry Wire Line
	4150 5700 4250 5800
Entry Wire Line
	4300 6000 4400 5900
Text Label 4400 6100 0    50   ~ 0
PC6
Text Label 4400 6200 0    50   ~ 0
WA6
Wire Wire Line
	4250 6100 4600 6100
Wire Wire Line
	4400 6200 4600 6200
Entry Wire Line
	4150 6000 4250 6100
Entry Wire Line
	4300 6300 4400 6200
Text Label 4400 6400 0    50   ~ 0
PC7
Text Label 4400 6500 0    50   ~ 0
WA7
Wire Wire Line
	4250 6400 4600 6400
Wire Wire Line
	4400 6500 4600 6500
Entry Wire Line
	4150 6300 4250 6400
Entry Wire Line
	4300 6600 4400 6500
Wire Bus Line
	4150 2700 4000 2700
Text Label 5500 1400 0    50   ~ 0
WA0
Wire Wire Line
	5500 1400 5700 1400
Text Label 6400 1400 2    50   ~ 0
WA1
Wire Wire Line
	6400 1400 6200 1400
Text Label 5500 1500 0    50   ~ 0
WA2
Wire Wire Line
	5500 1500 5700 1500
Text Label 6400 1500 2    50   ~ 0
WA3
Wire Wire Line
	6400 1500 6200 1500
Text Label 5500 1600 0    50   ~ 0
WA4
Wire Wire Line
	5500 1600 5700 1600
Text Label 6400 1600 2    50   ~ 0
WA5
Wire Wire Line
	6400 1600 6200 1600
Text Label 5500 1700 0    50   ~ 0
WA6
Wire Wire Line
	5500 1700 5700 1700
Text Label 6400 1700 2    50   ~ 0
WA7
Wire Wire Line
	6400 1700 6200 1700
Wire Wire Line
	5700 1800 5500 1800
$Comp
L power:+3V3 #PWR?
U 1 1 60B8006A
P 6200 1100
AR Path="/60B8006A" Ref="#PWR?"  Part="1" 
AR Path="/626E45E5/60B8006A" Ref="#PWR0204"  Part="1" 
F 0 "#PWR0204" H 6200 950 50  0001 C CNN
F 1 "+3V3" H 6200 1250 50  0000 C CNN
F 2 "" H 6200 1100 50  0001 C CNN
F 3 "" H 6200 1100 50  0001 C CNN
	1    6200 1100
	1    0    0    -1  
$EndComp
$Comp
L power:GNDREF #PWR?
U 1 1 60B8546E
P 5600 1050
AR Path="/60B8546E" Ref="#PWR?"  Part="1" 
AR Path="/626E45E5/60B8546E" Ref="#PWR0205"  Part="1" 
F 0 "#PWR0205" H 5600 800 50  0001 C CNN
F 1 "GNDREF" H 5605 877 50  0001 C CNN
F 2 "" H 5600 1050 50  0001 C CNN
F 3 "" H 5600 1050 50  0001 C CNN
	1    5600 1050
	1    0    0    -1  
$EndComp
Text Label 5300 1200 0    50   ~ 0
~ce
Text Label 6300 1200 0    50   ~ 0
~we
Text Label 5300 1300 0    50   ~ 0
~oe
Text Label 6500 1300 0    50   ~ 0
a_sel
Text Label 4400 4500 0    50   ~ 0
a_sel
Wire Wire Line
	4400 4500 4600 4500
Text Label 4400 6700 0    50   ~ 0
a_sel
Wire Wire Line
	4400 6700 4600 6700
$Comp
L Device:R_Small_US R?
U 1 1 60BFBC8E
P 6750 1450
AR Path="/60BFBC8E" Ref="R?"  Part="1" 
AR Path="/626E45E5/60BFBC8E" Ref="R25"  Part="1" 
F 0 "R25" H 6800 1500 50  0000 L CNN
F 1 "10k" H 6800 1400 50  0000 L CNN
F 2 "Resistor_SMD:R_0603_1608Metric" H 6750 1450 50  0001 C CNN
F 3 "~" H 6750 1450 50  0001 C CNN
	1    6750 1450
	1    0    0    -1  
$EndComp
$Comp
L power:GNDREF #PWR?
U 1 1 60BFE1D1
P 6750 1550
AR Path="/60BFE1D1" Ref="#PWR?"  Part="1" 
AR Path="/626E45E5/60BFE1D1" Ref="#PWR0206"  Part="1" 
F 0 "#PWR0206" H 6750 1300 50  0001 C CNN
F 1 "GNDREF" H 6755 1377 50  0001 C CNN
F 2 "" H 6750 1550 50  0001 C CNN
F 3 "" H 6750 1550 50  0001 C CNN
	1    6750 1550
	1    0    0    -1  
$EndComp
Wire Wire Line
	6050 5800 5900 5800
Wire Wire Line
	6050 5700 5900 5700
Wire Bus Line
	7400 2950 7500 2950
Wire Wire Line
	5150 1350 5150 1300
Wire Wire Line
	5150 1300 5700 1300
Wire Wire Line
	6500 1200 6200 1200
Wire Wire Line
	4850 1200 5700 1200
Wire Wire Line
	6500 1200 6500 1050
Text Notes 6650 5100 1    50   ~ 0
128k x 16 FLASH
Text Notes 5200 4250 1    50   ~ 0
Quad 2X1 Mux
Text Notes 5200 6450 1    50   ~ 0
Quad 2X1 Mux
$Comp
L Connector_Generic:Conn_02x15_Odd_Even J3
U 1 1 60155683
P 5900 1800
F 0 "J3" H 5950 2600 50  0000 C CNN
F 1 "Programmer" V 5950 1800 50  0000 C CNN
F 2 "Connector_PinHeader_2.54mm:PinHeader_2x15_P2.54mm_Vertical" H 5900 1800 50  0001 C CNN
F 3 "~" H 5900 1800 50  0001 C CNN
	1    5900 1800
	1    0    0    -1  
$EndComp
Wire Wire Line
	5600 1050 5700 1050
Wire Wire Line
	5700 1050 5700 1100
$Comp
L Device:R_Small_US R?
U 1 1 627E2A8B
P 6500 950
AR Path="/627E2A8B" Ref="R?"  Part="1" 
AR Path="/626E45E5/627E2A8B" Ref="R13"  Part="1" 
F 0 "R13" H 6550 1000 50  0000 L CNN
F 1 "10k" H 6550 900 50  0000 L CNN
F 2 "Resistor_SMD:R_0603_1608Metric" H 6500 950 50  0001 C CNN
F 3 "~" H 6500 950 50  0001 C CNN
	1    6500 950 
	1    0    0    -1  
$EndComp
$Comp
L power:+3V3 #PWR?
U 1 1 627E2AA3
P 6500 850
AR Path="/627E2AA3" Ref="#PWR?"  Part="1" 
AR Path="/626E45E5/627E2AA3" Ref="#PWR0193"  Part="1" 
F 0 "#PWR0193" H 6500 700 50  0001 C CNN
F 1 "+3V3" H 6450 1000 50  0000 C CNN
F 2 "" H 6500 850 50  0001 C CNN
F 3 "" H 6500 850 50  0001 C CNN
	1    6500 850 
	1    0    0    -1  
$EndComp
$Comp
L Device:R_Small_US R?
U 1 1 627E2A7F
P 4850 1450
AR Path="/627E2A7F" Ref="R?"  Part="1" 
AR Path="/626E45E5/627E2A7F" Ref="R14"  Part="1" 
F 0 "R14" H 4650 1500 50  0000 L CNN
F 1 "10k" H 4650 1400 50  0000 L CNN
F 2 "Resistor_SMD:R_0603_1608Metric" H 4850 1450 50  0001 C CNN
F 3 "~" H 4850 1450 50  0001 C CNN
	1    4850 1450
	1    0    0    -1  
$EndComp
Wire Wire Line
	4850 1200 4850 1350
$Comp
L power:GNDREF #PWR?
U 1 1 627E2A9B
P 4850 1550
AR Path="/627E2A9B" Ref="#PWR?"  Part="1" 
AR Path="/626E45E5/627E2A9B" Ref="#PWR0194"  Part="1" 
F 0 "#PWR0194" H 4850 1300 50  0001 C CNN
F 1 "GNDREF" H 4855 1377 50  0001 C CNN
F 2 "" H 4850 1550 50  0001 C CNN
F 3 "" H 4850 1550 50  0001 C CNN
	1    4850 1550
	1    0    0    -1  
$EndComp
Entry Wire Line
	5400 1500 5500 1400
Entry Wire Line
	5400 1600 5500 1500
Entry Wire Line
	5400 1700 5500 1600
Entry Wire Line
	5400 1800 5500 1700
Entry Wire Line
	5400 1900 5500 1800
Entry Wire Line
	5400 2000 5500 1900
Entry Wire Line
	5400 2100 5500 2000
Entry Wire Line
	5400 2200 5500 2100
Entry Wire Line
	5400 2300 5500 2200
Entry Wire Line
	5400 2400 5500 2300
Entry Wire Line
	5400 2500 5500 2400
Entry Wire Line
	5400 2600 5500 2500
Wire Wire Line
	6200 1300 6750 1300
Entry Wire Line
	6400 1800 6500 1900
Entry Wire Line
	6400 1700 6500 1800
Entry Wire Line
	6400 1600 6500 1700
Entry Wire Line
	6400 1500 6500 1600
Entry Wire Line
	6400 1400 6500 1500
Entry Wire Line
	6400 2300 6500 2400
Entry Wire Line
	6400 2200 6500 2300
Entry Wire Line
	6400 2100 6500 2200
Entry Wire Line
	6400 2000 6500 2100
Entry Wire Line
	6400 1900 6500 2000
Entry Wire Line
	6400 2500 6500 2600
Entry Wire Line
	6400 2400 6500 2500
Wire Bus Line
	5400 2600 6500 2600
Wire Bus Line
	6500 2600 6500 2950
Wire Bus Line
	6500 2950 7400 2950
Connection ~ 6500 2600
Connection ~ 7400 2950
Wire Bus Line
	6500 1800 6600 1800
Wire Bus Line
	6600 1800 6600 2700
Wire Bus Line
	6600 2700 5300 2700
Wire Bus Line
	5300 2700 5300 1800
Wire Bus Line
	5300 1800 5400 1800
Wire Bus Line
	4300 2700 5300 2700
Connection ~ 5300 2700
Wire Wire Line
	7050 1300 7050 1350
$Comp
L power:GNDREF #PWR?
U 1 1 62DF8412
P 7050 1850
AR Path="/62DF8412" Ref="#PWR?"  Part="1" 
AR Path="/626E45E5/62DF8412" Ref="#PWR0231"  Part="1" 
F 0 "#PWR0231" H 7050 1600 50  0001 C CNN
F 1 "GNDREF" H 7055 1677 50  0001 C CNN
F 2 "" H 7050 1850 50  0001 C CNN
F 3 "" H 7050 1850 50  0001 C CNN
	1    7050 1850
	1    0    0    -1  
$EndComp
$Comp
L Device:LED D?
U 1 1 62DF840C
P 7050 1700
AR Path="/62DF840C" Ref="D?"  Part="1" 
AR Path="/626E45E5/62DF840C" Ref="D79"  Part="1" 
F 0 "D79" V 7100 1650 50  0000 R CNN
F 1 "BLU" V 7000 1650 50  0000 R CNN
F 2 "LED_SMD:LED_0603_1608Metric" H 7050 1700 50  0001 C CNN
F 3 "~" H 7050 1700 50  0001 C CNN
	1    7050 1700
	0    -1   -1   0   
$EndComp
$Comp
L Device:R_Small_US R?
U 1 1 62DF8406
P 7050 1450
AR Path="/62DF8406" Ref="R?"  Part="1" 
AR Path="/626E45E5/62DF8406" Ref="R27"  Part="1" 
F 0 "R27" H 7100 1500 50  0000 L CNN
F 1 "1k" H 7100 1400 50  0000 L CNN
F 2 "Resistor_SMD:R_0603_1608Metric" H 7050 1450 50  0001 C CNN
F 3 "~" H 7050 1450 50  0001 C CNN
	1    7050 1450
	1    0    0    -1  
$EndComp
Wire Wire Line
	6750 1350 6750 1300
Wire Wire Line
	7050 1300 6750 1300
Connection ~ 6750 1300
Wire Bus Line
	5400 1500 5400 1800
Wire Bus Line
	6500 1500 6500 1800
Wire Bus Line
	5400 1900 5400 2600
Wire Bus Line
	6500 1900 6500 2600
Wire Bus Line
	4300 2700 4300 6600
Wire Bus Line
	4150 2700 4150 6300
Wire Bus Line
	5800 3400 5800 6300
Wire Bus Line
	7400 2950 7400 5150
$EndSCHEMATC
