EESchema Schematic File Version 4
EELAYER 30 0
EELAYER END
$Descr A4 11693 8268
encoding utf-8
Sheet 6 6
Title ""
Date ""
Rev ""
Comp ""
Comment1 ""
Comment2 ""
Comment3 ""
Comment4 ""
$EndDescr
$Comp
L 74xx:74LS139 U26
U 1 1 63267536
P 5250 2250
F 0 "U26" H 5250 2200 50  0000 C CNN
F 1 "SN74HC139" H 5250 2500 50  0000 C CNN
F 2 "Package_SO:TSSOP-16_4.4x5mm_P0.65mm" H 5250 2250 50  0001 C CNN
F 3 "http://www.ti.com/lit/ds/symlink/sn74ls139a.pdf" H 5250 2250 50  0001 C CNN
	1    5250 2250
	1    0    0    -1  
$EndComp
$Comp
L 74xx:74LS139 U26
U 2 1 6326779F
P 4900 6250
F 0 "U26" H 4900 6200 50  0000 C CNN
F 1 "SN74HC139" H 4900 6500 50  0000 C CNN
F 2 "Package_SO:TSSOP-16_4.4x5mm_P0.65mm" H 4900 6250 50  0001 C CNN
F 3 "http://www.ti.com/lit/ds/symlink/sn74ls139a.pdf" H 4900 6250 50  0001 C CNN
	2    4900 6250
	1    0    0    -1  
$EndComp
$Comp
L 74xx:74LS139 U26
U 3 1 63267D16
P 2450 6250
F 0 "U26" H 2350 6250 50  0000 L CNN
F 1 "SN74HC139" V 2300 6050 50  0000 L CNN
F 2 "Package_SO:TSSOP-16_4.4x5mm_P0.65mm" H 2450 6250 50  0001 C CNN
F 3 "http://www.ti.com/lit/ds/symlink/sn74ls139a.pdf" H 2450 6250 50  0001 C CNN
	3    2450 6250
	1    0    0    -1  
$EndComp
$Comp
L 74xx:74HC00 U23
U 1 1 5F9B2BE6
P 1550 4650
F 0 "U23" H 1550 4650 50  0000 C CNN
F 1 "SN74HC00" H 1550 4850 50  0000 C CNN
F 2 "Package_SO:TSSOP-14_4.4x5mm_P0.65mm" H 1550 4650 50  0001 C CNN
F 3 "http://www.ti.com/lit/gpn/sn74hc00" H 1550 4650 50  0001 C CNN
	1    1550 4650
	1    0    0    -1  
$EndComp
$Comp
L 74xx:74HC00 U23
U 2 1 5F9B35E6
P 1550 5150
F 0 "U23" H 1550 5150 50  0000 C CNN
F 1 "SN74HC00" H 1550 5350 50  0000 C CNN
F 2 "Package_SO:TSSOP-14_4.4x5mm_P0.65mm" H 1550 5150 50  0001 C CNN
F 3 "http://www.ti.com/lit/gpn/sn74hc00" H 1550 5150 50  0001 C CNN
	2    1550 5150
	1    0    0    -1  
$EndComp
$Comp
L 74xx:74HC00 U23
U 3 1 5F9B426F
P 2400 4900
F 0 "U23" H 2400 4900 50  0000 C CNN
F 1 "SN74HC00" H 2400 5100 50  0000 C CNN
F 2 "Package_SO:TSSOP-14_4.4x5mm_P0.65mm" H 2400 4900 50  0001 C CNN
F 3 "http://www.ti.com/lit/gpn/sn74hc00" H 2400 4900 50  0001 C CNN
	3    2400 4900
	1    0    0    -1  
$EndComp
$Comp
L 74xx:74HC00 U23
U 4 1 5F9B4D30
P 5850 6250
F 0 "U23" H 5850 6250 50  0000 C CNN
F 1 "SN74HC00" H 5850 6450 50  0000 C CNN
F 2 "Package_SO:TSSOP-14_4.4x5mm_P0.65mm" H 5850 6250 50  0001 C CNN
F 3 "http://www.ti.com/lit/gpn/sn74hc00" H 5850 6250 50  0001 C CNN
	4    5850 6250
	1    0    0    -1  
$EndComp
$Comp
L 74xx:74HC00 U23
U 5 1 5F9B5CCF
P 1250 6250
F 0 "U23" H 1150 6250 50  0000 L CNN
F 1 "SN74HC00" V 1100 6050 50  0000 L CNN
F 2 "Package_SO:TSSOP-14_4.4x5mm_P0.65mm" H 1250 6250 50  0001 C CNN
F 3 "http://www.ti.com/lit/gpn/sn74hc00" H 1250 6250 50  0001 C CNN
	5    1250 6250
	1    0    0    -1  
$EndComp
$Comp
L 74xx:74HC02 U24
U 1 1 5F9B2F51
P 6500 1800
F 0 "U24" H 6500 1800 50  0000 C CNN
F 1 "SN74HC02" H 6500 2000 50  0000 C CNN
F 2 "Package_SO:TSSOP-14_4.4x5mm_P0.65mm" H 6500 1800 50  0001 C CNN
F 3 "http://www.ti.com/lit/gpn/sn74hc02" H 6500 1800 50  0001 C CNN
	1    6500 1800
	1    0    0    -1  
$EndComp
$Comp
L 74xx:74HC02 U24
U 2 1 5F9B4770
P 6500 2150
F 0 "U24" H 6500 2150 50  0000 C CNN
F 1 "SN74HC02" H 6500 2384 50  0001 C CNN
F 2 "Package_SO:TSSOP-14_4.4x5mm_P0.65mm" H 6500 2150 50  0001 C CNN
F 3 "http://www.ti.com/lit/gpn/sn74hc02" H 6500 2150 50  0001 C CNN
	2    6500 2150
	1    0    0    -1  
$EndComp
$Comp
L 74xx:74HC02 U24
U 3 1 5F9B5710
P 6500 2500
F 0 "U24" H 6500 2500 50  0000 C CNN
F 1 "SN74HC02" H 6500 2734 50  0001 C CNN
F 2 "Package_SO:TSSOP-14_4.4x5mm_P0.65mm" H 6500 2500 50  0001 C CNN
F 3 "http://www.ti.com/lit/gpn/sn74hc02" H 6500 2500 50  0001 C CNN
	3    6500 2500
	1    0    0    -1  
$EndComp
$Comp
L 74xx:74HC02 U24
U 4 1 5F9B684C
P 6500 2850
F 0 "U24" H 6500 2850 50  0000 C CNN
F 1 "SN74HC02" H 6500 3084 50  0001 C CNN
F 2 "Package_SO:TSSOP-14_4.4x5mm_P0.65mm" H 6500 2850 50  0001 C CNN
F 3 "http://www.ti.com/lit/gpn/sn74hc02" H 6500 2850 50  0001 C CNN
	4    6500 2850
	1    0    0    -1  
$EndComp
$Comp
L 74xx:74HC02 U24
U 5 1 5F9B7B1A
P 1850 6250
F 0 "U24" H 1750 6250 50  0000 L CNN
F 1 "SN74HC02" V 1700 6050 50  0000 L CNN
F 2 "Package_SO:TSSOP-14_4.4x5mm_P0.65mm" H 1850 6250 50  0001 C CNN
F 3 "http://www.ti.com/lit/gpn/sn74hc02" H 1850 6250 50  0001 C CNN
	5    1850 6250
	1    0    0    -1  
$EndComp
$Comp
L 74xx:74LS27 U28
U 1 1 5F9B37BA
P 7000 3550
F 0 "U28" H 7000 3550 50  0000 C CNN
F 1 "74HC27" H 7000 3750 50  0000 C CNN
F 2 "Package_SO:TSSOP-14_4.4x5mm_P0.65mm" H 7000 3550 50  0001 C CNN
F 3 "http://www.ti.com/lit/gpn/sn74LS27" H 7000 3550 50  0001 C CNN
	1    7000 3550
	1    0    0    -1  
$EndComp
$Comp
L 74xx:74LS27 U28
U 2 1 5F9B5249
P 2800 2600
F 0 "U28" H 2800 2600 50  0000 C CNN
F 1 "74HC27" H 2800 2800 50  0000 C CNN
F 2 "Package_SO:TSSOP-14_4.4x5mm_P0.65mm" H 2800 2600 50  0001 C CNN
F 3 "http://www.ti.com/lit/gpn/sn74LS27" H 2800 2600 50  0001 C CNN
	2    2800 2600
	1    0    0    -1  
$EndComp
$Comp
L 74xx:74LS27 U28
U 3 1 5F9B6C5C
P 2800 3250
F 0 "U28" H 2800 3250 50  0000 C CNN
F 1 "74HC27" H 2800 3450 50  0000 C CNN
F 2 "Package_SO:TSSOP-14_4.4x5mm_P0.65mm" H 2800 3250 50  0001 C CNN
F 3 "http://www.ti.com/lit/gpn/sn74LS27" H 2800 3250 50  0001 C CNN
	3    2800 3250
	1    0    0    -1  
$EndComp
$Comp
L 74xx:74LS27 U28
U 4 1 5F9B8B03
P 3650 6250
F 0 "U28" H 3550 6250 50  0000 L CNN
F 1 "74HC27" V 3500 6100 50  0000 L CNN
F 2 "Package_SO:TSSOP-14_4.4x5mm_P0.65mm" H 3650 6250 50  0001 C CNN
F 3 "http://www.ti.com/lit/gpn/sn74LS27" H 3650 6250 50  0001 C CNN
	4    3650 6250
	1    0    0    -1  
$EndComp
$Comp
L 74xx:74LS32 U29
U 1 1 5F9B486B
P 3500 2950
F 0 "U29" H 3500 2950 50  0000 C CNN
F 1 "SN74HC32" H 3500 3150 50  0000 C CNN
F 2 "Package_SO:TSSOP-14_4.4x5mm_P0.65mm" H 3500 2950 50  0001 C CNN
F 3 "http://www.ti.com/lit/gpn/sn74LS32" H 3500 2950 50  0001 C CNN
	1    3500 2950
	1    0    0    -1  
$EndComp
$Comp
L 74xx:74LS32 U29
U 2 1 5F9B6D40
P 4350 2850
F 0 "U29" H 4350 2850 50  0000 C CNN
F 1 "SN74HC32" H 4350 3050 50  0000 C CNN
F 2 "Package_SO:TSSOP-14_4.4x5mm_P0.65mm" H 4350 2850 50  0001 C CNN
F 3 "http://www.ti.com/lit/gpn/sn74LS32" H 4350 2850 50  0001 C CNN
	2    4350 2850
	1    0    0    -1  
$EndComp
$Comp
L 74xx:74LS32 U29
U 3 1 5F9B8C86
P 7000 4050
F 0 "U29" H 7000 4050 50  0000 C CNN
F 1 "SN74HC32" H 7000 4250 50  0000 C CNN
F 2 "Package_SO:TSSOP-14_4.4x5mm_P0.65mm" H 7000 4050 50  0001 C CNN
F 3 "http://www.ti.com/lit/gpn/sn74LS32" H 7000 4050 50  0001 C CNN
	3    7000 4050
	1    0    0    -1  
$EndComp
$Comp
L 74xx:74LS32 U29
U 4 1 5F9BADD9
P 7900 3650
F 0 "U29" H 7900 3650 50  0000 C CNN
F 1 "SN74HC32" H 7900 3850 50  0000 C CNN
F 2 "Package_SO:TSSOP-14_4.4x5mm_P0.65mm" H 7900 3650 50  0001 C CNN
F 3 "http://www.ti.com/lit/gpn/sn74LS32" H 7900 3650 50  0001 C CNN
	4    7900 3650
	1    0    0    -1  
$EndComp
$Comp
L 74xx:74LS32 U29
U 5 1 5F9BC9DB
P 3050 6250
F 0 "U29" H 2950 6250 50  0000 L CNN
F 1 "SN74HC32" V 2900 6050 50  0000 L CNN
F 2 "Package_SO:TSSOP-14_4.4x5mm_P0.65mm" H 3050 6250 50  0001 C CNN
F 3 "http://www.ti.com/lit/gpn/sn74LS32" H 3050 6250 50  0001 C CNN
	5    3050 6250
	1    0    0    -1  
$EndComp
$Comp
L 74xGxx:74LVC3GU04 U25
U 1 1 5F9B4548
P 2050 3150
F 0 "U25" H 1900 3000 50  0000 C CNN
F 1 "74HC3GU04" H 1800 3300 50  0000 C CNN
F 2 "Package_SO:TSSOP-8_3x3mm_P0.65mm" H 2050 3150 50  0001 C CNN
F 3 "http://www.ti.com/lit/sg/scyt129e/scyt129e.pdf" H 2050 3150 50  0001 C CNN
	1    2050 3150
	1    0    0    -1  
$EndComp
$Comp
L 74xGxx:74LVC3GU04 U25
U 3 1 5F9BCD55
P 2050 3600
F 0 "U25" H 1950 3450 50  0000 C CNN
F 1 "74HC3GU04" H 2050 3750 50  0000 C CNN
F 2 "Package_SO:TSSOP-8_3x3mm_P0.65mm" H 2050 3600 50  0001 C CNN
F 3 "http://www.ti.com/lit/sg/scyt129e/scyt129e.pdf" H 2050 3600 50  0001 C CNN
	3    2050 3600
	1    0    0    -1  
$EndComp
$Comp
L 74xGxx:74LVC3GU04 U25
U 2 1 5F9BD6F1
P 2050 4000
F 0 "U25" H 1950 3850 50  0000 C CNN
F 1 "74HC3GU04" H 2050 4150 50  0000 C CNN
F 2 "Package_SO:TSSOP-8_3x3mm_P0.65mm" H 2050 4000 50  0001 C CNN
F 3 "http://www.ti.com/lit/sg/scyt129e/scyt129e.pdf" H 2050 4000 50  0001 C CNN
	2    2050 4000
	1    0    0    -1  
$EndComp
$Comp
L 74xGxx:74LVC3GU04 U27
U 2 1 5F9C594A
P 7300 2850
F 0 "U27" H 7250 2700 50  0000 C CNN
F 1 "74HC3GU04" H 7250 3000 50  0000 C CNN
F 2 "Package_SO:TSSOP-8_3x3mm_P0.65mm" H 7300 2850 50  0001 C CNN
F 3 "http://www.ti.com/lit/sg/scyt129e/scyt129e.pdf" H 7300 2850 50  0001 C CNN
	2    7300 2850
	1    0    0    -1  
$EndComp
$Comp
L 74xx:74LS253 U30
U 1 1 5F9D0731
P 5750 4150
F 0 "U30" H 5500 5000 50  0000 C CNN
F 1 "SN74HC253" V 5750 4150 50  0000 C CNN
F 2 "Package_SO:SSOP-16_5.3x6.2mm_P0.65mm" H 5750 4150 50  0001 C CNN
F 3 "http://www.ti.com/lit/gpn/sn74LS253" H 5750 4150 50  0001 C CNN
	1    5750 4150
	1    0    0    -1  
$EndComp
$Comp
L power:+3V3 #PWR088
U 1 1 5FB52AC5
P 1850 5750
F 0 "#PWR088" H 1850 5600 50  0001 C CNN
F 1 "+3V3" H 1850 5900 50  0000 C CNN
F 2 "" H 1850 5750 50  0001 C CNN
F 3 "" H 1850 5750 50  0001 C CNN
	1    1850 5750
	1    0    0    -1  
$EndComp
$Comp
L power:GNDREF #PWR092
U 1 1 5FB52ACB
P 2100 5750
F 0 "#PWR092" H 2100 5500 50  0001 C CNN
F 1 "GNDREF" H 2105 5577 50  0001 C CNN
F 2 "" H 2100 5750 50  0001 C CNN
F 3 "" H 2100 5750 50  0001 C CNN
	1    2100 5750
	1    0    0    -1  
$EndComp
$Comp
L Device:C_Small C33
U 1 1 5FB52AD1
P 2000 5750
F 0 "C33" V 1900 5750 50  0000 C CNN
F 1 "100n" V 1950 5900 50  0000 C CNN
F 2 "Capacitor_SMD:C_0603_1608Metric" H 2000 5750 50  0001 C CNN
F 3 "~" H 2000 5750 50  0001 C CNN
	1    2000 5750
	0    1    1    0   
$EndComp
Wire Wire Line
	1900 5750 1850 5750
Connection ~ 1850 5750
$Comp
L power:+3V3 #PWR085
U 1 1 5FB538F9
P 1250 5750
F 0 "#PWR085" H 1250 5600 50  0001 C CNN
F 1 "+3V3" H 1250 5900 50  0000 C CNN
F 2 "" H 1250 5750 50  0001 C CNN
F 3 "" H 1250 5750 50  0001 C CNN
	1    1250 5750
	1    0    0    -1  
$EndComp
$Comp
L power:GNDREF #PWR087
U 1 1 5FB538FF
P 1500 5750
F 0 "#PWR087" H 1500 5500 50  0001 C CNN
F 1 "GNDREF" H 1505 5577 50  0001 C CNN
F 2 "" H 1500 5750 50  0001 C CNN
F 3 "" H 1500 5750 50  0001 C CNN
	1    1500 5750
	1    0    0    -1  
$EndComp
$Comp
L Device:C_Small C32
U 1 1 5FB53905
P 1400 5750
F 0 "C32" V 1300 5750 50  0000 C CNN
F 1 "100n" V 1350 5900 50  0000 C CNN
F 2 "Capacitor_SMD:C_0603_1608Metric" H 1400 5750 50  0001 C CNN
F 3 "~" H 1400 5750 50  0001 C CNN
	1    1400 5750
	0    1    1    0   
$EndComp
Wire Wire Line
	1300 5750 1250 5750
Connection ~ 1250 5750
$Comp
L power:+3V3 #PWR094
U 1 1 5FBE0458
P 2450 5750
F 0 "#PWR094" H 2450 5600 50  0001 C CNN
F 1 "+3V3" H 2450 5900 50  0000 C CNN
F 2 "" H 2450 5750 50  0001 C CNN
F 3 "" H 2450 5750 50  0001 C CNN
	1    2450 5750
	1    0    0    -1  
$EndComp
$Comp
L power:GNDREF #PWR096
U 1 1 5FBE045E
P 2700 5750
F 0 "#PWR096" H 2700 5500 50  0001 C CNN
F 1 "GNDREF" H 2705 5577 50  0001 C CNN
F 2 "" H 2700 5750 50  0001 C CNN
F 3 "" H 2700 5750 50  0001 C CNN
	1    2700 5750
	1    0    0    -1  
$EndComp
$Comp
L Device:C_Small C35
U 1 1 5FBE0464
P 2600 5750
F 0 "C35" V 2500 5750 50  0000 C CNN
F 1 "100n" V 2550 5900 50  0000 C CNN
F 2 "Capacitor_SMD:C_0603_1608Metric" H 2600 5750 50  0001 C CNN
F 3 "~" H 2600 5750 50  0001 C CNN
	1    2600 5750
	0    1    1    0   
$EndComp
Wire Wire Line
	2500 5750 2450 5750
$Comp
L power:+3V3 #PWR097
U 1 1 5FBE1537
P 3050 5750
F 0 "#PWR097" H 3050 5600 50  0001 C CNN
F 1 "+3V3" H 3050 5900 50  0000 C CNN
F 2 "" H 3050 5750 50  0001 C CNN
F 3 "" H 3050 5750 50  0001 C CNN
	1    3050 5750
	1    0    0    -1  
$EndComp
$Comp
L power:GNDREF #PWR099
U 1 1 5FBE153D
P 3300 5750
F 0 "#PWR099" H 3300 5500 50  0001 C CNN
F 1 "GNDREF" H 3305 5577 50  0001 C CNN
F 2 "" H 3300 5750 50  0001 C CNN
F 3 "" H 3300 5750 50  0001 C CNN
	1    3300 5750
	1    0    0    -1  
$EndComp
$Comp
L Device:C_Small C36
U 1 1 5FBE1543
P 3200 5750
F 0 "C36" V 3100 5750 50  0000 C CNN
F 1 "100n" V 3150 5900 50  0000 C CNN
F 2 "Capacitor_SMD:C_0603_1608Metric" H 3200 5750 50  0001 C CNN
F 3 "~" H 3200 5750 50  0001 C CNN
	1    3200 5750
	0    1    1    0   
$EndComp
Wire Wire Line
	3100 5750 3050 5750
$Comp
L power:+3V3 #PWR0100
U 1 1 5FBE40EA
P 3650 5750
F 0 "#PWR0100" H 3650 5600 50  0001 C CNN
F 1 "+3V3" H 3650 5900 50  0000 C CNN
F 2 "" H 3650 5750 50  0001 C CNN
F 3 "" H 3650 5750 50  0001 C CNN
	1    3650 5750
	1    0    0    -1  
$EndComp
$Comp
L power:GNDREF #PWR0102
U 1 1 5FBE40F0
P 3900 5750
F 0 "#PWR0102" H 3900 5500 50  0001 C CNN
F 1 "GNDREF" H 3905 5577 50  0001 C CNN
F 2 "" H 3900 5750 50  0001 C CNN
F 3 "" H 3900 5750 50  0001 C CNN
	1    3900 5750
	1    0    0    -1  
$EndComp
$Comp
L Device:C_Small C37
U 1 1 5FBE40F6
P 3800 5750
F 0 "C37" V 3700 5750 50  0000 C CNN
F 1 "100n" V 3750 5900 50  0000 C CNN
F 2 "Capacitor_SMD:C_0603_1608Metric" H 3800 5750 50  0001 C CNN
F 3 "~" H 3800 5750 50  0001 C CNN
	1    3800 5750
	0    1    1    0   
$EndComp
Wire Wire Line
	3700 5750 3650 5750
Connection ~ 3650 5750
Connection ~ 2450 5750
Connection ~ 3050 5750
$Comp
L power:GNDREF #PWR086
U 1 1 5FC2F98A
P 1250 6750
F 0 "#PWR086" H 1250 6500 50  0001 C CNN
F 1 "GNDREF" H 1255 6577 50  0001 C CNN
F 2 "" H 1250 6750 50  0001 C CNN
F 3 "" H 1250 6750 50  0001 C CNN
	1    1250 6750
	1    0    0    -1  
$EndComp
$Comp
L power:GNDREF #PWR089
U 1 1 5FC3052D
P 1850 6750
F 0 "#PWR089" H 1850 6500 50  0001 C CNN
F 1 "GNDREF" H 1855 6577 50  0001 C CNN
F 2 "" H 1850 6750 50  0001 C CNN
F 3 "" H 1850 6750 50  0001 C CNN
	1    1850 6750
	1    0    0    -1  
$EndComp
$Comp
L power:GNDREF #PWR095
U 1 1 5FC30BF7
P 2450 6750
F 0 "#PWR095" H 2450 6500 50  0001 C CNN
F 1 "GNDREF" H 2455 6577 50  0001 C CNN
F 2 "" H 2450 6750 50  0001 C CNN
F 3 "" H 2450 6750 50  0001 C CNN
	1    2450 6750
	1    0    0    -1  
$EndComp
$Comp
L power:GNDREF #PWR098
U 1 1 5FC317BE
P 3050 6750
F 0 "#PWR098" H 3050 6500 50  0001 C CNN
F 1 "GNDREF" H 3055 6577 50  0001 C CNN
F 2 "" H 3050 6750 50  0001 C CNN
F 3 "" H 3050 6750 50  0001 C CNN
	1    3050 6750
	1    0    0    -1  
$EndComp
$Comp
L power:GNDREF #PWR0101
U 1 1 5FC32339
P 3650 6750
F 0 "#PWR0101" H 3650 6500 50  0001 C CNN
F 1 "GNDREF" H 3655 6577 50  0001 C CNN
F 2 "" H 3650 6750 50  0001 C CNN
F 3 "" H 3650 6750 50  0001 C CNN
	1    3650 6750
	1    0    0    -1  
$EndComp
$Comp
L power:GNDREF #PWR0105
U 1 1 5FCC6CEF
P 5550 6350
F 0 "#PWR0105" H 5550 6100 50  0001 C CNN
F 1 "GNDREF" H 5555 6177 50  0001 C CNN
F 2 "" H 5550 6350 50  0001 C CNN
F 3 "" H 5550 6350 50  0001 C CNN
	1    5550 6350
	1    0    0    -1  
$EndComp
Wire Wire Line
	5550 6350 5550 6150
Connection ~ 5550 6350
NoConn ~ 6150 6250
Wire Wire Line
	1150 4550 1250 4550
Text Label 1150 4550 0    50   ~ 0
I13
Text Label 1150 4750 0    50   ~ 0
I12
Wire Wire Line
	1150 4750 1250 4750
Text Label 1150 5050 0    50   ~ 0
I15
Wire Wire Line
	1150 5050 1250 5050
Entry Wire Line
	1050 4450 1150 4550
Entry Wire Line
	1050 4650 1150 4750
Entry Wire Line
	1050 4950 1150 5050
Wire Wire Line
	1850 4650 2000 4650
Wire Wire Line
	2000 4650 2000 4800
Wire Wire Line
	2000 4800 2100 4800
Wire Wire Line
	1850 5150 2000 5150
Wire Wire Line
	2000 5150 2000 5000
Wire Wire Line
	2000 5000 2100 5000
$Comp
L power:GNDREF #PWR091
U 1 1 5FDE971E
P 2050 3250
F 0 "#PWR091" H 2050 3000 50  0001 C CNN
F 1 "GNDREF" H 2055 3077 50  0001 C CNN
F 2 "" H 2050 3250 50  0001 C CNN
F 3 "" H 2050 3250 50  0001 C CNN
	1    2050 3250
	1    0    0    -1  
$EndComp
$Comp
L power:+3V3 #PWR090
U 1 1 5FDEA6D9
P 2050 2950
F 0 "#PWR090" H 2050 2800 50  0001 C CNN
F 1 "+3V3" H 2050 3100 50  0000 C CNN
F 2 "" H 2050 2950 50  0001 C CNN
F 3 "" H 2050 2950 50  0001 C CNN
	1    2050 2950
	1    0    0    -1  
$EndComp
$Comp
L power:GNDREF #PWR093
U 1 1 5FDEA6DF
P 2300 2950
F 0 "#PWR093" H 2300 2700 50  0001 C CNN
F 1 "GNDREF" H 2305 2777 50  0001 C CNN
F 2 "" H 2300 2950 50  0001 C CNN
F 3 "" H 2300 2950 50  0001 C CNN
	1    2300 2950
	1    0    0    -1  
$EndComp
$Comp
L Device:C_Small C34
U 1 1 5FDEA6E5
P 2200 2950
F 0 "C34" V 2100 2950 50  0000 C CNN
F 1 "100n" V 2150 3100 50  0000 C CNN
F 2 "Capacitor_SMD:C_0603_1608Metric" H 2200 2950 50  0001 C CNN
F 3 "~" H 2200 2950 50  0001 C CNN
	1    2200 2950
	0    1    1    0   
$EndComp
Wire Wire Line
	2100 2950 2050 2950
Wire Wire Line
	2050 3050 2050 2950
Connection ~ 2050 2950
Wire Wire Line
	1200 5250 1250 5250
Text HLabel 2100 5250 2    50   Input ~ 0
~rk
Text HLabel 2100 4550 2    50   Input ~ 0
~rm
Wire Wire Line
	2000 4650 2000 4550
Wire Wire Line
	2000 4550 2100 4550
Connection ~ 2000 4650
Wire Wire Line
	2100 5250 2000 5250
Wire Wire Line
	2000 5250 2000 5150
Connection ~ 2000 5150
Text HLabel 2750 4900 2    50   Input ~ 0
~ralu
$Comp
L power:GNDREF #PWR0110
U 1 1 5FDE4FFB
P 6500 1350
F 0 "#PWR0110" H 6500 1100 50  0001 C CNN
F 1 "GNDREF" H 6505 1177 50  0001 C CNN
F 2 "" H 6500 1350 50  0001 C CNN
F 3 "" H 6500 1350 50  0001 C CNN
	1    6500 1350
	1    0    0    -1  
$EndComp
Connection ~ 6500 1050
Wire Wire Line
	6500 1150 6500 1050
Wire Wire Line
	6550 1050 6500 1050
$Comp
L Device:C_Small C39
U 1 1 5FDE3B2D
P 6650 1050
F 0 "C39" V 6550 1050 50  0000 C CNN
F 1 "100n" V 6600 1200 50  0000 C CNN
F 2 "Capacitor_SMD:C_0603_1608Metric" H 6650 1050 50  0001 C CNN
F 3 "~" H 6650 1050 50  0001 C CNN
	1    6650 1050
	0    1    1    0   
$EndComp
$Comp
L power:GNDREF #PWR0111
U 1 1 5FDE3B27
P 6750 1050
F 0 "#PWR0111" H 6750 800 50  0001 C CNN
F 1 "GNDREF" H 6755 877 50  0001 C CNN
F 2 "" H 6750 1050 50  0001 C CNN
F 3 "" H 6750 1050 50  0001 C CNN
	1    6750 1050
	1    0    0    -1  
$EndComp
$Comp
L power:+3V3 #PWR0109
U 1 1 5FDE3B21
P 6500 1050
F 0 "#PWR0109" H 6500 900 50  0001 C CNN
F 1 "+3V3" H 6500 1200 50  0000 C CNN
F 2 "" H 6500 1050 50  0001 C CNN
F 3 "" H 6500 1050 50  0001 C CNN
	1    6500 1050
	1    0    0    -1  
$EndComp
$Comp
L 74xGxx:74LVC3GU04 U27
U 1 1 5F9C51AB
P 6500 1250
F 0 "U27" H 6350 1100 50  0000 C CNN
F 1 "74HC3GU04" H 6250 1400 50  0000 C CNN
F 2 "Package_SO:TSSOP-8_3x3mm_P0.65mm" H 6500 1250 50  0001 C CNN
F 3 "http://www.ti.com/lit/sg/scyt129e/scyt129e.pdf" H 6500 1250 50  0001 C CNN
	1    6500 1250
	1    0    0    -1  
$EndComp
Text HLabel 5750 1250 0    50   Input ~ 0
clk
Text HLabel 6850 1250 2    50   Input ~ 0
pc_clk
Text Label 1150 2500 0    50   ~ 0
I13
Text Label 1150 2600 0    50   ~ 0
I15
Text Label 1150 2700 0    50   ~ 0
I14
Entry Wire Line
	1050 2400 1150 2500
Entry Wire Line
	1050 2500 1150 2600
Entry Wire Line
	1050 2600 1150 2700
Wire Wire Line
	1550 3150 1750 3150
Wire Wire Line
	1450 3600 1750 3600
Wire Wire Line
	1350 4000 1750 4000
Wire Wire Line
	2300 3150 2500 3150
Wire Wire Line
	2500 3250 2400 3250
Wire Wire Line
	2400 3250 2400 3600
Wire Wire Line
	2400 3600 2300 3600
Wire Wire Line
	2500 3350 2500 4000
Wire Wire Line
	2300 4000 2500 4000
Text Label 2450 4000 2    50   ~ 0
~I14
Wire Wire Line
	3100 2600 3150 2600
Wire Wire Line
	3150 2600 3150 2850
Wire Wire Line
	3150 2850 3200 2850
Wire Wire Line
	3100 3250 3150 3250
Wire Wire Line
	3150 3250 3150 3050
Wire Wire Line
	3150 3050 3200 3050
$Comp
L power:GNDREF #PWR0103
U 1 1 5FCF861A
P 4400 6450
F 0 "#PWR0103" H 4400 6200 50  0001 C CNN
F 1 "GNDREF" H 4405 6277 50  0001 C CNN
F 2 "" H 4400 6450 50  0001 C CNN
F 3 "" H 4400 6450 50  0001 C CNN
	1    4400 6450
	1    0    0    -1  
$EndComp
Wire Wire Line
	4400 6450 4400 6250
Connection ~ 4400 6450
Connection ~ 4400 6250
Wire Wire Line
	4400 6250 4400 6150
NoConn ~ 5400 6450
NoConn ~ 5400 6350
NoConn ~ 5400 6250
NoConn ~ 5400 6150
Wire Wire Line
	1150 2600 1450 2600
Wire Wire Line
	1150 2500 1550 2500
Wire Wire Line
	1150 2700 1350 2700
Wire Wire Line
	1550 3150 1550 2500
Connection ~ 1550 2500
Wire Wire Line
	1550 2500 2500 2500
Wire Wire Line
	1450 3600 1450 2600
Connection ~ 1450 2600
Wire Wire Line
	1450 2600 2500 2600
Wire Wire Line
	1350 4000 1350 2700
Connection ~ 1350 2700
Wire Wire Line
	1350 2700 2500 2700
Text Label 3800 2150 0    50   ~ 0
I1
Text Label 3800 2250 0    50   ~ 0
I0
Text Label 3800 2350 0    50   ~ 0
I14
Entry Wire Line
	3700 2050 3800 2150
Entry Wire Line
	3700 2150 3800 2250
Entry Wire Line
	3700 2250 3800 2350
Wire Wire Line
	3800 2250 4750 2250
Wire Wire Line
	3800 2150 4750 2150
Wire Wire Line
	3800 2350 4000 2350
Wire Wire Line
	4650 2850 4700 2850
Wire Wire Line
	4700 2850 4700 2450
Wire Wire Line
	4700 2450 4750 2450
Connection ~ 3800 2950
Wire Wire Line
	3800 2950 4050 2950
Text Label 2400 3400 3    50   ~ 0
~I15
Text Label 2450 3150 2    50   ~ 0
~I13
Wire Wire Line
	4000 2350 4000 2750
Wire Wire Line
	4000 2750 4050 2750
Text HLabel 6900 1800 2    50   Input ~ 0
a_clk
Text HLabel 6900 2150 2    50   Input ~ 0
b_clk
Text HLabel 6900 2500 2    50   Input ~ 0
d_clk
Text HLabel 7600 2850 2    50   Input ~ 0
~m_clk
Wire Wire Line
	5750 1250 6100 1250
Wire Wire Line
	5750 2150 5900 2150
Wire Wire Line
	5900 2150 5900 1700
Wire Wire Line
	5900 1700 6200 1700
Wire Wire Line
	5750 2250 6000 2250
Wire Wire Line
	6000 2250 6000 2050
Wire Wire Line
	6000 2050 6200 2050
Wire Wire Line
	5750 2350 6000 2350
Wire Wire Line
	6000 2350 6000 2400
Wire Wire Line
	6000 2400 6200 2400
Wire Wire Line
	5750 2450 5900 2450
Wire Wire Line
	5900 2450 5900 2750
Wire Wire Line
	5900 2750 6200 2750
Wire Wire Line
	6200 2950 6100 2950
Wire Wire Line
	6100 2950 6100 2600
Wire Wire Line
	6100 2600 6200 2600
Wire Wire Line
	6100 2600 6100 2250
Wire Wire Line
	6100 2250 6200 2250
Connection ~ 6100 2600
Wire Wire Line
	6100 2250 6100 1900
Wire Wire Line
	6100 1900 6200 1900
Connection ~ 6100 2250
Wire Wire Line
	6100 1900 6100 1250
Connection ~ 6100 1900
Connection ~ 6100 1250
Wire Wire Line
	6100 1250 6200 1250
Wire Wire Line
	1200 5250 1200 5400
Wire Wire Line
	1200 5400 3150 5400
Wire Wire Line
	3150 5400 3150 4000
Wire Wire Line
	3150 4000 2500 4000
Connection ~ 2500 4000
Wire Bus Line
	1050 2050 3700 2050
Wire Wire Line
	2700 4900 2750 4900
Wire Bus Line
	900  2050 1050 2050
Connection ~ 1050 2050
NoConn ~ 6250 4150
$Comp
L power:+3V3 #PWR0106
U 1 1 60251F5E
P 5750 3150
F 0 "#PWR0106" H 5750 3000 50  0001 C CNN
F 1 "+3V3" H 5750 3300 50  0000 C CNN
F 2 "" H 5750 3150 50  0001 C CNN
F 3 "" H 5750 3150 50  0001 C CNN
	1    5750 3150
	1    0    0    -1  
$EndComp
$Comp
L power:GNDREF #PWR0108
U 1 1 60251F64
P 6000 3150
F 0 "#PWR0108" H 6000 2900 50  0001 C CNN
F 1 "GNDREF" H 6005 2977 50  0001 C CNN
F 2 "" H 6000 3150 50  0001 C CNN
F 3 "" H 6000 3150 50  0001 C CNN
	1    6000 3150
	1    0    0    -1  
$EndComp
$Comp
L Device:C_Small C38
U 1 1 60251F6A
P 5900 3150
F 0 "C38" V 5800 3150 50  0000 C CNN
F 1 "100n" V 5850 3300 50  0000 C CNN
F 2 "Capacitor_SMD:C_0603_1608Metric" H 5900 3150 50  0001 C CNN
F 3 "~" H 5900 3150 50  0001 C CNN
	1    5900 3150
	0    1    1    0   
$EndComp
Wire Wire Line
	5800 3150 5750 3150
Connection ~ 5750 3150
$Comp
L power:GNDREF #PWR0107
U 1 1 6025987B
P 5750 5250
F 0 "#PWR0107" H 5750 5000 50  0001 C CNN
F 1 "GNDREF" H 5755 5077 50  0001 C CNN
F 2 "" H 5750 5250 50  0001 C CNN
F 3 "" H 5750 5250 50  0001 C CNN
	1    5750 5250
	1    0    0    -1  
$EndComp
$Comp
L power:GNDREF #PWR0104
U 1 1 6025AC9C
P 5250 4650
F 0 "#PWR0104" H 5250 4400 50  0001 C CNN
F 1 "GNDREF" H 5255 4477 50  0001 C CNN
F 2 "" H 5250 4650 50  0001 C CNN
F 3 "" H 5250 4650 50  0001 C CNN
	1    5250 4650
	1    0    0    -1  
$EndComp
Wire Wire Line
	5250 4650 5250 4450
Connection ~ 5250 4650
Connection ~ 5250 4250
Wire Wire Line
	5250 4250 5250 4150
Connection ~ 5250 4350
Wire Wire Line
	5250 4350 5250 4250
Connection ~ 5250 4450
Wire Wire Line
	5250 4450 5250 4350
Wire Wire Line
	5250 4150 5250 3950
Connection ~ 5250 4150
Text Label 4000 3550 0    50   ~ 0
COMP0
Text Label 4000 3800 0    50   ~ 0
COMP1
Text Label 4000 3900 0    50   ~ 0
COMP2
Entry Wire Line
	3900 3450 4000 3550
Entry Wire Line
	3900 3700 4000 3800
Entry Wire Line
	3900 3800 4000 3900
$Comp
L 74xGxx:74LVC3GU04 U27
U 3 1 5F9C618B
P 4700 3550
F 0 "U27" H 4650 3400 50  0000 C CNN
F 1 "74HC3GU04" H 4700 3700 50  0000 C CNN
F 2 "Package_SO:TSSOP-8_3x3mm_P0.65mm" H 4700 3550 50  0001 C CNN
F 3 "http://www.ti.com/lit/sg/scyt129e/scyt129e.pdf" H 4700 3550 50  0001 C CNN
	3    4700 3550
	1    0    0    -1  
$EndComp
Wire Wire Line
	5250 3750 4950 3750
Wire Wire Line
	4950 3750 4950 3900
Wire Wire Line
	4000 3900 4950 3900
Wire Wire Line
	5250 3650 4850 3650
Wire Wire Line
	4850 3650 4850 3800
Wire Wire Line
	4000 3800 4850 3800
Wire Wire Line
	4950 3550 5250 3550
Wire Wire Line
	5250 3450 4950 3450
Wire Wire Line
	4950 3450 4950 3300
Wire Wire Line
	4950 3300 4350 3300
Wire Wire Line
	4350 3550 4400 3550
Wire Wire Line
	4350 3300 4350 3550
Wire Wire Line
	4000 3550 4350 3550
Connection ~ 4350 3550
Text HLabel 4000 3150 2    50   Input ~ 0
COMP[0..2]
Text Label 4950 4850 0    50   ~ 0
I10
Text Label 4950 4950 0    50   ~ 0
I11
Entry Wire Line
	4850 4950 4950 4850
Entry Wire Line
	4850 5050 4950 4950
Wire Wire Line
	4950 4950 5250 4950
Wire Wire Line
	4950 4850 5250 4850
Wire Bus Line
	4000 3150 3900 3150
$Comp
L power:GNDREF #PWR0112
U 1 1 6044C3B7
P 6700 3650
F 0 "#PWR0112" H 6700 3400 50  0001 C CNN
F 1 "GNDREF" H 6705 3477 50  0001 C CNN
F 2 "" H 6700 3650 50  0001 C CNN
F 3 "" H 6700 3650 50  0001 C CNN
	1    6700 3650
	1    0    0    -1  
$EndComp
Wire Wire Line
	6250 3450 6700 3450
Text Label 6550 3550 0    50   ~ 0
I12
Entry Wire Line
	6450 3650 6550 3550
Wire Wire Line
	6550 3550 6700 3550
Wire Wire Line
	7300 3550 7600 3550
Text HLabel 8300 3650 2    50   Input ~ 0
~pcl
Wire Wire Line
	8300 3650 8200 3650
Wire Wire Line
	6850 1250 6750 1250
Wire Wire Line
	6800 1800 6900 1800
Wire Wire Line
	6800 2150 6900 2150
Wire Wire Line
	6900 2500 6800 2500
Wire Wire Line
	7600 2850 7550 2850
Wire Wire Line
	7300 4050 7350 4050
Wire Wire Line
	7350 4050 7350 3750
Wire Wire Line
	7350 3750 7600 3750
Wire Wire Line
	3800 5500 6600 5500
Wire Wire Line
	6600 5500 6600 4150
Wire Wire Line
	6600 4150 6700 4150
Wire Wire Line
	3800 2950 3800 5500
Text Label 6550 3950 0    50   ~ 0
I13
Entry Wire Line
	6450 4050 6550 3950
Wire Wire Line
	6550 3950 6700 3950
Wire Bus Line
	6450 5450 4850 5450
Wire Bus Line
	1050 5450 4850 5450
Connection ~ 4850 5450
Text HLabel 900  2050 0    50   Input ~ 0
I[0..15]
Text Notes 5850 4400 1    50   ~ 0
Dual 4X1 Mux
Text Notes 5000 2550 0    50   ~ 0
2X4 Decoder
Text Label 3850 2950 0    50   ~ 0
nop
Text Label 3150 2850 1    50   ~ 0
nop_i0
Text Label 3150 3250 1    50   ~ 0
nop_i1
Text Label 4700 2800 1    50   ~ 0
~clkdec_en
Text Label 5850 2150 2    50   ~ 0
~wa
Text Label 5850 2250 2    50   ~ 0
~wb
Text Label 5850 2350 2    50   ~ 0
~wd
Text Label 5850 2450 2    50   ~ 0
~wm
Text Label 4950 3550 0    50   ~ 0
~COMP0
Text Label 6250 3450 0    50   ~ 0
pcl_i0
Text Label 7350 4000 1    50   ~ 0
pcl_i2
Text Label 7550 3550 2    50   ~ 0
pcl_i1
Text Label 6800 2850 0    50   ~ 0
m_clk
Wire Wire Line
	6800 2850 7000 2850
Wire Bus Line
	6450 3650 6450 5450
Wire Bus Line
	3700 2050 3700 2250
Wire Bus Line
	4850 4950 4850 5450
Wire Bus Line
	3900 3150 3900 3800
Wire Bus Line
	1050 2050 1050 5450
$EndSCHEMATC
