EESchema Schematic File Version 4
EELAYER 30 0
EELAYER END
$Descr A4 11693 8268
encoding utf-8
Sheet 2 6
Title ""
Date ""
Rev ""
Comp ""
Comment1 ""
Comment2 ""
Comment3 ""
Comment4 ""
$EndDescr
$Comp
L 4xxx:4075 U21
U 1 1 5F9C7C0B
P 2850 3300
F 0 "U21" H 2850 3300 50  0000 C CNN
F 1 "CD74HC4075" H 2800 3500 50  0000 C CNN
F 2 "Package_SO:TSSOP-14_4.4x5mm_P0.65mm" H 2850 3300 50  0001 C CNN
F 3 "http://www.intersil.com/content/dam/Intersil/documents/cd40/cd4071bms-72bms-75bms.pdf" H 2850 3300 50  0001 C CNN
	1    2850 3300
	1    0    0    -1  
$EndComp
$Comp
L 4xxx:4075 U21
U 2 1 5F9C8445
P 2050 3000
F 0 "U21" H 2050 3000 50  0000 C CNN
F 1 "CD74HC4075" H 2050 3200 50  0000 C CNN
F 2 "Package_SO:TSSOP-14_4.4x5mm_P0.65mm" H 2050 3000 50  0001 C CNN
F 3 "http://www.intersil.com/content/dam/Intersil/documents/cd40/cd4071bms-72bms-75bms.pdf" H 2050 3000 50  0001 C CNN
	2    2050 3000
	1    0    0    -1  
$EndComp
$Comp
L 4xxx:4075 U21
U 3 1 5F9C8DEA
P 2050 3550
F 0 "U21" H 2050 3550 50  0000 C CNN
F 1 "CD74HC4075" H 2050 3750 50  0000 C CNN
F 2 "Package_SO:TSSOP-14_4.4x5mm_P0.65mm" H 2050 3550 50  0001 C CNN
F 3 "http://www.intersil.com/content/dam/Intersil/documents/cd40/cd4071bms-72bms-75bms.pdf" H 2050 3550 50  0001 C CNN
	3    2050 3550
	1    0    0    -1  
$EndComp
$Comp
L 4xxx:4075 U21
U 4 1 5F9C96DE
P 800 4600
F 0 "U21" H 700 4600 50  0000 L CNN
F 1 "CD74HC4075" V 650 4350 50  0000 L CNN
F 2 "Package_SO:TSSOP-14_4.4x5mm_P0.65mm" H 800 4600 50  0001 C CNN
F 3 "http://www.intersil.com/content/dam/Intersil/documents/cd40/cd4071bms-72bms-75bms.pdf" H 800 4600 50  0001 C CNN
	4    800  4600
	1    0    0    -1  
$EndComp
$Comp
L 74xGxx:74LVC3GU04 U33
U 1 1 5F9F7A39
P 1250 2650
F 0 "U33" H 1100 2500 50  0000 C CNN
F 1 "74HC3GU04" H 1000 2800 50  0000 C CNN
F 2 "Package_SO:TSSOP-8_3x3mm_P0.65mm" H 1250 2650 50  0001 C CNN
F 3 "http://www.ti.com/lit/sg/scyt129e/scyt129e.pdf" H 1250 2650 50  0001 C CNN
	1    1250 2650
	1    0    0    -1  
$EndComp
$Comp
L 74xGxx:74LVC3GU04 U33
U 3 1 5F9F80BD
P 2900 4100
F 0 "U33" H 2850 3950 50  0000 C CNN
F 1 "74HC3GU04" H 2900 4250 50  0000 C CNN
F 2 "Package_SO:TSSOP-8_3x3mm_P0.65mm" H 2900 4100 50  0001 C CNN
F 3 "http://www.ti.com/lit/sg/scyt129e/scyt129e.pdf" H 2900 4100 50  0001 C CNN
	3    2900 4100
	1    0    0    -1  
$EndComp
$Comp
L 74xGxx:74LVC3GU04 U33
U 2 1 5F9F85E4
P 1250 3000
F 0 "U33" H 1200 2850 50  0000 C CNN
F 1 "74HC3GU04" H 1225 3176 50  0001 C CNN
F 2 "Package_SO:TSSOP-8_3x3mm_P0.65mm" H 1250 3000 50  0001 C CNN
F 3 "http://www.ti.com/lit/sg/scyt129e/scyt129e.pdf" H 1250 3000 50  0001 C CNN
	2    1250 3000
	1    0    0    -1  
$EndComp
$Comp
L 74xx:74HC02 U34
U 1 1 5F9C7C01
P 7950 2600
F 0 "U34" H 7950 2600 50  0000 C CNN
F 1 "SN74HC02" H 7950 2800 50  0000 C CNN
F 2 "Package_SO:TSSOP-14_4.4x5mm_P0.65mm" H 7950 2600 50  0001 C CNN
F 3 "http://www.ti.com/lit/gpn/sn74hc02" H 7950 2600 50  0001 C CNN
	1    7950 2600
	0    -1   -1   0   
$EndComp
$Comp
L 74xx:74HC02 U34
U 2 1 5F9C9DCF
P 7950 4950
F 0 "U34" H 7950 4950 50  0000 C CNN
F 1 "SN74HC02" H 7950 5150 50  0000 C CNN
F 2 "Package_SO:TSSOP-14_4.4x5mm_P0.65mm" H 7950 4950 50  0001 C CNN
F 3 "http://www.ti.com/lit/gpn/sn74hc02" H 7950 4950 50  0001 C CNN
	2    7950 4950
	0    -1   -1   0   
$EndComp
$Comp
L 74xx:74HC02 U34
U 3 1 5F9CABBE
P 3950 4250
F 0 "U34" H 3950 4250 50  0000 C CNN
F 1 "SN74HC02" H 3950 4450 50  0000 C CNN
F 2 "Package_SO:TSSOP-14_4.4x5mm_P0.65mm" H 3950 4250 50  0001 C CNN
F 3 "http://www.ti.com/lit/gpn/sn74hc02" H 3950 4250 50  0001 C CNN
	3    3950 4250
	1    0    0    -1  
$EndComp
$Comp
L 74xx:74HC02 U34
U 4 1 5F9CBB7F
P 3950 4700
F 0 "U34" H 3950 4700 50  0000 C CNN
F 1 "SN74HC02" H 3950 4900 50  0000 C CNN
F 2 "Package_SO:TSSOP-14_4.4x5mm_P0.65mm" H 3950 4700 50  0001 C CNN
F 3 "http://www.ti.com/lit/gpn/sn74hc02" H 3950 4700 50  0001 C CNN
	4    3950 4700
	1    0    0    -1  
$EndComp
$Comp
L 74xx:74HC02 U34
U 5 1 5F9CE0A2
P 1400 4600
F 0 "U34" H 1300 4600 50  0000 L CNN
F 1 "SN74HC02" V 1250 4400 50  0000 L CNN
F 2 "Package_SO:TSSOP-14_4.4x5mm_P0.65mm" H 1400 4600 50  0001 C CNN
F 3 "http://www.ti.com/lit/gpn/sn74hc02" H 1400 4600 50  0001 C CNN
	5    1400 4600
	1    0    0    -1  
$EndComp
$Comp
L 74xx:74HC273 U35
U 1 1 5F9C84B1
P 8700 1900
F 0 "U35" H 8450 2550 50  0000 C CNN
F 1 "SN74HC273" V 8700 1850 50  0000 C CNN
F 2 "Package_SO:TSSOP-20_4.4x6.5mm_P0.65mm" H 8700 1900 50  0001 C CNN
F 3 "https://assets.nexperia.com/documents/data-sheet/74HC_HCT273.pdf" H 8700 1900 50  0001 C CNN
	1    8700 1900
	1    0    0    -1  
$EndComp
$Comp
L 74xx:74HC273 U37
U 1 1 5F9CABB6
P 8700 4250
F 0 "U37" H 8450 4900 50  0000 C CNN
F 1 "SN74HC273" V 8700 4250 50  0000 C CNN
F 2 "Package_SO:TSSOP-20_4.4x6.5mm_P0.65mm" H 8700 4250 50  0001 C CNN
F 3 "https://assets.nexperia.com/documents/data-sheet/74HC_HCT273.pdf" H 8700 4250 50  0001 C CNN
	1    8700 4250
	1    0    0    -1  
$EndComp
$Comp
L 74xx:74LS139 U36
U 1 1 5F9CDE5E
P 3900 3100
F 0 "U36" H 3900 3050 50  0000 C CNN
F 1 "SN74HC139" H 3900 3350 50  0000 C CNN
F 2 "Package_SO:TSSOP-16_4.4x5mm_P0.65mm" H 3900 3100 50  0001 C CNN
F 3 "http://www.ti.com/lit/ds/symlink/sn74ls139a.pdf" H 3900 3100 50  0001 C CNN
	1    3900 3100
	1    0    0    -1  
$EndComp
$Comp
L 74xx:74LS139 U36
U 2 1 5F9CF206
P 2950 4650
F 0 "U36" H 2950 4600 50  0000 C CNN
F 1 "SN74HC139" H 2950 4900 50  0000 C CNN
F 2 "Package_SO:TSSOP-16_4.4x5mm_P0.65mm" H 2950 4650 50  0001 C CNN
F 3 "http://www.ti.com/lit/ds/symlink/sn74ls139a.pdf" H 2950 4650 50  0001 C CNN
	2    2950 4650
	1    0    0    -1  
$EndComp
$Comp
L 74xx:74LS139 U36
U 3 1 5F9D00CA
P 2000 4600
F 0 "U36" H 1900 4600 50  0000 L CNN
F 1 "SN74HC139" V 1850 4400 50  0000 L CNN
F 2 "Package_SO:TSSOP-16_4.4x5mm_P0.65mm" H 2000 4600 50  0001 C CNN
F 3 "http://www.ti.com/lit/ds/symlink/sn74ls139a.pdf" H 2000 4600 50  0001 C CNN
	3    2000 4600
	1    0    0    -1  
$EndComp
$Comp
L 74xx:74LS541 U32
U 1 1 5F9CD6D0
P 6850 4250
F 0 "U32" H 6600 4900 50  0000 C CNN
F 1 "74HC7541" H 6850 3950 50  0000 C CNN
F 2 "Package_SO:TSSOP-20_4.4x6.5mm_P0.65mm" H 6850 4250 50  0001 C CNN
F 3 "http://www.ti.com/lit/gpn/sn74LS541" H 6850 4250 50  0001 C CNN
	1    6850 4250
	1    0    0    -1  
$EndComp
$Comp
L Device:C_Small C40
U 1 1 5FA85391
P 1400 2450
F 0 "C40" V 1300 2400 50  0000 C CNN
F 1 "100n" V 1350 2600 50  0000 C CNN
F 2 "Capacitor_SMD:C_0603_1608Metric" H 1400 2450 50  0001 C CNN
F 3 "~" H 1400 2450 50  0001 C CNN
	1    1400 2450
	0    1    1    0   
$EndComp
$Comp
L power:GNDREF #PWR0113
U 1 1 5FA86D9E
P 1250 2750
F 0 "#PWR0113" H 1250 2500 50  0001 C CNN
F 1 "GNDREF" H 1255 2577 50  0001 C CNN
F 2 "" H 1250 2750 50  0001 C CNN
F 3 "" H 1250 2750 50  0001 C CNN
	1    1250 2750
	1    0    0    -1  
$EndComp
$Comp
L power:+3V3 #PWR022
U 1 1 5FA888E5
P 1250 2450
F 0 "#PWR022" H 1250 2300 50  0001 C CNN
F 1 "+3V3" H 1265 2623 50  0000 C CNN
F 2 "" H 1250 2450 50  0001 C CNN
F 3 "" H 1250 2450 50  0001 C CNN
	1    1250 2450
	1    0    0    -1  
$EndComp
Wire Wire Line
	1250 2450 1300 2450
$Comp
L power:GNDREF #PWR0116
U 1 1 5FAAB22F
P 1500 2450
F 0 "#PWR0116" H 1500 2200 50  0001 C CNN
F 1 "GNDREF" H 1505 2277 50  0001 C CNN
F 2 "" H 1500 2450 50  0001 C CNN
F 3 "" H 1500 2450 50  0001 C CNN
	1    1500 2450
	1    0    0    -1  
$EndComp
Wire Wire Line
	1250 2550 1250 2450
Connection ~ 1250 2450
NoConn ~ 3150 4100
$Comp
L power:GNDREF #PWR0123
U 1 1 5FAB71D6
P 2600 4100
F 0 "#PWR0123" H 2600 3850 50  0001 C CNN
F 1 "GNDREF" H 2605 3927 50  0001 C CNN
F 2 "" H 2600 4100 50  0001 C CNN
F 3 "" H 2600 4100 50  0001 C CNN
	1    2600 4100
	1    0    0    -1  
$EndComp
$Comp
L power:GNDREF #PWR0122
U 1 1 5FAED551
P 2550 3400
F 0 "#PWR0122" H 2550 3150 50  0001 C CNN
F 1 "GNDREF" H 2555 3227 50  0001 C CNN
F 2 "" H 2550 3400 50  0001 C CNN
F 3 "" H 2550 3400 50  0001 C CNN
	1    2550 3400
	1    0    0    -1  
$EndComp
Connection ~ 800  4100
$Comp
L power:GNDREF #PWR020
U 1 1 5FB21183
P 1050 4100
F 0 "#PWR020" H 1050 3850 50  0001 C CNN
F 1 "GNDREF" H 1055 3927 50  0001 C CNN
F 2 "" H 1050 4100 50  0001 C CNN
F 3 "" H 1050 4100 50  0001 C CNN
	1    1050 4100
	1    0    0    -1  
$EndComp
Wire Wire Line
	800  4100 850  4100
$Comp
L power:+3V3 #PWR01
U 1 1 5FB2117C
P 800 4100
F 0 "#PWR01" H 800 3950 50  0001 C CNN
F 1 "+3V3" H 815 4273 50  0000 C CNN
F 2 "" H 800 4100 50  0001 C CNN
F 3 "" H 800 4100 50  0001 C CNN
	1    800  4100
	1    0    0    -1  
$EndComp
$Comp
L Device:C_Small C10
U 1 1 5FB21176
P 950 4100
F 0 "C10" V 850 4050 50  0000 C CNN
F 1 "100n" V 900 4250 50  0000 C CNN
F 2 "Capacitor_SMD:C_0603_1608Metric" H 950 4100 50  0001 C CNN
F 3 "~" H 950 4100 50  0001 C CNN
	1    950  4100
	0    1    1    0   
$EndComp
$Comp
L power:GNDREF #PWR0117
U 1 1 5FB2E4EE
P 1650 4100
F 0 "#PWR0117" H 1650 3850 50  0001 C CNN
F 1 "GNDREF" H 1655 3927 50  0001 C CNN
F 2 "" H 1650 4100 50  0001 C CNN
F 3 "" H 1650 4100 50  0001 C CNN
	1    1650 4100
	1    0    0    -1  
$EndComp
Wire Wire Line
	1400 4100 1450 4100
$Comp
L power:+3V3 #PWR0114
U 1 1 5FB2E4F5
P 1400 4100
F 0 "#PWR0114" H 1400 3950 50  0001 C CNN
F 1 "+3V3" H 1415 4273 50  0000 C CNN
F 2 "" H 1400 4100 50  0001 C CNN
F 3 "" H 1400 4100 50  0001 C CNN
	1    1400 4100
	1    0    0    -1  
$EndComp
$Comp
L Device:C_Small C41
U 1 1 5FB2E4FB
P 1550 4100
F 0 "C41" V 1450 4050 50  0000 C CNN
F 1 "100n" V 1500 4250 50  0000 C CNN
F 2 "Capacitor_SMD:C_0603_1608Metric" H 1550 4100 50  0001 C CNN
F 3 "~" H 1550 4100 50  0001 C CNN
	1    1550 4100
	0    1    1    0   
$EndComp
$Comp
L power:GNDREF #PWR0120
U 1 1 5FB2EF5E
P 2250 4100
F 0 "#PWR0120" H 2250 3850 50  0001 C CNN
F 1 "GNDREF" H 2255 3927 50  0001 C CNN
F 2 "" H 2250 4100 50  0001 C CNN
F 3 "" H 2250 4100 50  0001 C CNN
	1    2250 4100
	1    0    0    -1  
$EndComp
Wire Wire Line
	2000 4100 2050 4100
$Comp
L power:+3V3 #PWR0118
U 1 1 5FB2EF65
P 2000 4100
F 0 "#PWR0118" H 2000 3950 50  0001 C CNN
F 1 "+3V3" H 2015 4273 50  0000 C CNN
F 2 "" H 2000 4100 50  0001 C CNN
F 3 "" H 2000 4100 50  0001 C CNN
	1    2000 4100
	1    0    0    -1  
$EndComp
$Comp
L Device:C_Small C42
U 1 1 5FB2EF6B
P 2150 4100
F 0 "C42" V 2050 4050 50  0000 C CNN
F 1 "100n" V 2100 4250 50  0000 C CNN
F 2 "Capacitor_SMD:C_0603_1608Metric" H 2150 4100 50  0001 C CNN
F 3 "~" H 2150 4100 50  0001 C CNN
	1    2150 4100
	0    1    1    0   
$EndComp
Connection ~ 2000 4100
Connection ~ 1400 4100
$Comp
L power:GNDREF #PWR019
U 1 1 5FB3BCB5
P 800 5100
F 0 "#PWR019" H 800 4850 50  0001 C CNN
F 1 "GNDREF" H 805 4927 50  0001 C CNN
F 2 "" H 800 5100 50  0001 C CNN
F 3 "" H 800 5100 50  0001 C CNN
	1    800  5100
	1    0    0    -1  
$EndComp
$Comp
L power:GNDREF #PWR0115
U 1 1 5FB3C5AE
P 1400 5100
F 0 "#PWR0115" H 1400 4850 50  0001 C CNN
F 1 "GNDREF" H 1405 4927 50  0001 C CNN
F 2 "" H 1400 5100 50  0001 C CNN
F 3 "" H 1400 5100 50  0001 C CNN
	1    1400 5100
	1    0    0    -1  
$EndComp
$Comp
L power:GNDREF #PWR0119
U 1 1 5FB3D448
P 2000 5100
F 0 "#PWR0119" H 2000 4850 50  0001 C CNN
F 1 "GNDREF" H 2005 4927 50  0001 C CNN
F 2 "" H 2000 5100 50  0001 C CNN
F 3 "" H 2000 5100 50  0001 C CNN
	1    2000 5100
	1    0    0    -1  
$EndComp
$Comp
L power:GNDREF #PWR0140
U 1 1 5FB576B0
P 8950 1100
F 0 "#PWR0140" H 8950 850 50  0001 C CNN
F 1 "GNDREF" H 8955 927 50  0001 C CNN
F 2 "" H 8950 1100 50  0001 C CNN
F 3 "" H 8950 1100 50  0001 C CNN
	1    8950 1100
	1    0    0    -1  
$EndComp
Wire Wire Line
	8700 1100 8750 1100
$Comp
L power:+3V3 #PWR0136
U 1 1 5FB576B7
P 8700 1100
F 0 "#PWR0136" H 8700 950 50  0001 C CNN
F 1 "+3V3" H 8715 1273 50  0000 C CNN
F 2 "" H 8700 1100 50  0001 C CNN
F 3 "" H 8700 1100 50  0001 C CNN
	1    8700 1100
	1    0    0    -1  
$EndComp
$Comp
L Device:C_Small C45
U 1 1 5FB576BD
P 8850 1100
F 0 "C45" V 8750 1050 50  0000 C CNN
F 1 "100n" V 8800 1250 50  0000 C CNN
F 2 "Capacitor_SMD:C_0603_1608Metric" H 8850 1100 50  0001 C CNN
F 3 "~" H 8850 1100 50  0001 C CNN
	1    8850 1100
	0    1    1    0   
$EndComp
Connection ~ 8700 1100
$Comp
L power:GNDREF #PWR0137
U 1 1 5FB582F7
P 8700 2700
F 0 "#PWR0137" H 8700 2450 50  0001 C CNN
F 1 "GNDREF" H 8705 2527 50  0001 C CNN
F 2 "" H 8700 2700 50  0001 C CNN
F 3 "" H 8700 2700 50  0001 C CNN
	1    8700 2700
	1    0    0    -1  
$EndComp
$Comp
L power:GNDREF #PWR0139
U 1 1 5FB587F4
P 8700 5050
F 0 "#PWR0139" H 8700 4800 50  0001 C CNN
F 1 "GNDREF" H 8705 4877 50  0001 C CNN
F 2 "" H 8700 5050 50  0001 C CNN
F 3 "" H 8700 5050 50  0001 C CNN
	1    8700 5050
	1    0    0    -1  
$EndComp
$Comp
L power:GNDREF #PWR0141
U 1 1 5FB599B7
P 8950 3450
F 0 "#PWR0141" H 8950 3200 50  0001 C CNN
F 1 "GNDREF" H 8955 3277 50  0001 C CNN
F 2 "" H 8950 3450 50  0001 C CNN
F 3 "" H 8950 3450 50  0001 C CNN
	1    8950 3450
	1    0    0    -1  
$EndComp
Wire Wire Line
	8700 3450 8750 3450
$Comp
L power:+3V3 #PWR0138
U 1 1 5FB599BE
P 8700 3450
F 0 "#PWR0138" H 8700 3300 50  0001 C CNN
F 1 "+3V3" H 8715 3623 50  0000 C CNN
F 2 "" H 8700 3450 50  0001 C CNN
F 3 "" H 8700 3450 50  0001 C CNN
	1    8700 3450
	1    0    0    -1  
$EndComp
$Comp
L Device:C_Small C46
U 1 1 5FB599C4
P 8850 3450
F 0 "C46" V 8750 3400 50  0000 C CNN
F 1 "100n" V 8800 3600 50  0000 C CNN
F 2 "Capacitor_SMD:C_0603_1608Metric" H 8850 3450 50  0001 C CNN
F 3 "~" H 8850 3450 50  0001 C CNN
	1    8850 3450
	0    1    1    0   
$EndComp
Connection ~ 8700 3450
NoConn ~ 3450 4550
NoConn ~ 3450 4650
NoConn ~ 3450 4750
NoConn ~ 3450 4850
$Comp
L power:GNDREF #PWR0121
U 1 1 5FB6A8BC
P 2450 4850
F 0 "#PWR0121" H 2450 4600 50  0001 C CNN
F 1 "GNDREF" H 2455 4677 50  0001 C CNN
F 2 "" H 2450 4850 50  0001 C CNN
F 3 "" H 2450 4850 50  0001 C CNN
	1    2450 4850
	1    0    0    -1  
$EndComp
Wire Wire Line
	2450 4850 2450 4650
Connection ~ 2450 4850
Connection ~ 2450 4650
Wire Wire Line
	2450 4650 2450 4550
$Comp
L power:GNDREF #PWR0134
U 1 1 5FB844B8
P 7100 1100
F 0 "#PWR0134" H 7100 850 50  0001 C CNN
F 1 "GNDREF" H 7105 927 50  0001 C CNN
F 2 "" H 7100 1100 50  0001 C CNN
F 3 "" H 7100 1100 50  0001 C CNN
	1    7100 1100
	1    0    0    -1  
$EndComp
Wire Wire Line
	6850 1100 6900 1100
$Comp
L power:+3V3 #PWR0130
U 1 1 5FB844BF
P 6850 1100
F 0 "#PWR0130" H 6850 950 50  0001 C CNN
F 1 "+3V3" H 6865 1273 50  0000 C CNN
F 2 "" H 6850 1100 50  0001 C CNN
F 3 "" H 6850 1100 50  0001 C CNN
	1    6850 1100
	1    0    0    -1  
$EndComp
$Comp
L Device:C_Small C43
U 1 1 5FB844C5
P 7000 1100
F 0 "C43" V 6900 1050 50  0000 C CNN
F 1 "100n" V 6950 1250 50  0000 C CNN
F 2 "Capacitor_SMD:C_0603_1608Metric" H 7000 1100 50  0001 C CNN
F 3 "~" H 7000 1100 50  0001 C CNN
	1    7000 1100
	0    1    1    0   
$EndComp
$Comp
L power:GNDREF #PWR0135
U 1 1 5FB853BD
P 7100 3450
F 0 "#PWR0135" H 7100 3200 50  0001 C CNN
F 1 "GNDREF" H 7105 3277 50  0001 C CNN
F 2 "" H 7100 3450 50  0001 C CNN
F 3 "" H 7100 3450 50  0001 C CNN
	1    7100 3450
	1    0    0    -1  
$EndComp
Wire Wire Line
	6850 3450 6900 3450
$Comp
L power:+3V3 #PWR0132
U 1 1 5FB853C4
P 6850 3450
F 0 "#PWR0132" H 6850 3300 50  0001 C CNN
F 1 "+3V3" H 6865 3623 50  0000 C CNN
F 2 "" H 6850 3450 50  0001 C CNN
F 3 "" H 6850 3450 50  0001 C CNN
	1    6850 3450
	1    0    0    -1  
$EndComp
$Comp
L Device:C_Small C44
U 1 1 5FB853CA
P 7000 3450
F 0 "C44" V 6900 3400 50  0000 C CNN
F 1 "100n" V 6950 3600 50  0000 C CNN
F 2 "Capacitor_SMD:C_0603_1608Metric" H 7000 3450 50  0001 C CNN
F 3 "~" H 7000 3450 50  0001 C CNN
	1    7000 3450
	0    1    1    0   
$EndComp
Connection ~ 6850 3450
Connection ~ 6850 1100
$Comp
L power:GNDREF #PWR0133
U 1 1 5FB883CA
P 6850 5050
F 0 "#PWR0133" H 6850 4800 50  0001 C CNN
F 1 "GNDREF" H 6855 4877 50  0001 C CNN
F 2 "" H 6850 5050 50  0001 C CNN
F 3 "" H 6850 5050 50  0001 C CNN
	1    6850 5050
	1    0    0    -1  
$EndComp
$Comp
L power:GNDREF #PWR0131
U 1 1 5FB88D1E
P 6850 2700
F 0 "#PWR0131" H 6850 2450 50  0001 C CNN
F 1 "GNDREF" H 6855 2527 50  0001 C CNN
F 2 "" H 6850 2700 50  0001 C CNN
F 3 "" H 6850 2700 50  0001 C CNN
	1    6850 2700
	1    0    0    -1  
$EndComp
NoConn ~ 4250 4250
NoConn ~ 4250 4700
$Comp
L power:GNDREF #PWR0125
U 1 1 5FBB0DDF
P 3650 4800
F 0 "#PWR0125" H 3650 4550 50  0001 C CNN
F 1 "GNDREF" H 3655 4627 50  0001 C CNN
F 2 "" H 3650 4800 50  0001 C CNN
F 3 "" H 3650 4800 50  0001 C CNN
	1    3650 4800
	1    0    0    -1  
$EndComp
Wire Wire Line
	3650 4800 3650 4600
Connection ~ 3650 4800
$Comp
L power:GNDREF #PWR0124
U 1 1 5FBB24B0
P 3650 4350
F 0 "#PWR0124" H 3650 4100 50  0001 C CNN
F 1 "GNDREF" H 3655 4177 50  0001 C CNN
F 2 "" H 3650 4350 50  0001 C CNN
F 3 "" H 3650 4350 50  0001 C CNN
	1    3650 4350
	1    0    0    -1  
$EndComp
Wire Wire Line
	3650 4350 3650 4150
Connection ~ 3650 4350
Text HLabel 750  2000 2    50   Input ~ 0
ADDR[0..7]
Text HLabel 7600 800  0    50   Input ~ 0
DATA[0..7]
Text HLabel 6450 2650 2    50   Input ~ 0
~rm
Wire Wire Line
	950  2650 700  2650
Text Label 700  2650 0    50   ~ 0
ADDR7
Entry Wire Line
	600  2550 700  2650
Wire Wire Line
	950  3000 700  3000
Text Label 700  3000 0    50   ~ 0
ADDR6
Entry Wire Line
	600  2900 700  3000
Text Label 700  3450 0    50   ~ 0
ADDR4
Entry Wire Line
	600  3350 700  3450
Text Label 700  3550 0    50   ~ 0
ADDR3
Entry Wire Line
	600  3450 700  3550
Text Label 700  3650 0    50   ~ 0
ADDR2
Entry Wire Line
	600  3550 700  3650
Entry Wire Line
	600  3150 700  3250
Text Label 700  3250 0    50   ~ 0
ADDR5
Wire Wire Line
	1500 2650 1650 2650
Wire Wire Line
	1650 2650 1650 2900
Wire Wire Line
	1500 3000 1750 3000
Wire Wire Line
	1650 3250 1650 3100
Wire Wire Line
	1650 3100 1750 3100
Wire Wire Line
	700  3250 1650 3250
Wire Wire Line
	700  3450 1750 3450
Wire Wire Line
	700  3550 1750 3550
Wire Wire Line
	700  3650 1750 3650
Wire Wire Line
	2350 3550 2450 3550
Wire Wire Line
	2450 3550 2450 3300
Wire Wire Line
	2450 3300 2550 3300
Wire Wire Line
	2350 3000 2450 3000
Wire Wire Line
	2450 3000 2450 3200
Wire Wire Line
	2450 3200 2550 3200
Wire Wire Line
	3400 3000 3200 3000
Text Label 3200 3000 0    50   ~ 0
ADDR1
Entry Wire Line
	3100 2900 3200 3000
Wire Wire Line
	3400 3100 3200 3100
Text Label 3200 3100 0    50   ~ 0
ADDR0
Entry Wire Line
	3100 3000 3200 3100
Wire Wire Line
	3150 3300 3400 3300
Wire Bus Line
	3100 2150 600  2150
Wire Bus Line
	600  2000 600  2150
Connection ~ 600  2150
Text HLabel 8250 2600 2    50   Input ~ 0
~rst
$Comp
L Device:R_Pack08 RN3
U 1 1 5FE27D2C
P 9450 1800
F 0 "RN3" V 8950 1800 50  0000 C CNN
F 1 "1k" V 9850 1800 50  0000 C CNN
F 2 "Resistor_SMD:R_Array_Convex_8x0602" V 9925 1800 50  0001 C CNN
F 3 "~" H 9450 1800 50  0001 C CNN
	1    9450 1800
	0    1    1    0   
$EndComp
Wire Wire Line
	9200 1400 9250 1400
Wire Wire Line
	9200 1500 9250 1500
Wire Wire Line
	9200 1600 9250 1600
Wire Wire Line
	9200 1700 9250 1700
Wire Wire Line
	9200 1800 9250 1800
Wire Wire Line
	9200 1900 9250 1900
Wire Wire Line
	9200 2000 9250 2000
Wire Wire Line
	9200 2100 9250 2100
Wire Wire Line
	9650 1400 9700 1400
Wire Wire Line
	8150 2800 8150 2300
Wire Wire Line
	8150 2300 8200 2300
$Comp
L Device:R_Pack08 RN4
U 1 1 5FEF3A73
P 9450 4150
F 0 "RN4" V 8950 4150 50  0000 C CNN
F 1 "1k" V 9850 4150 50  0000 C CNN
F 2 "Resistor_SMD:R_Array_Convex_8x0602" V 9925 4150 50  0001 C CNN
F 3 "~" H 9450 4150 50  0001 C CNN
	1    9450 4150
	0    1    1    0   
$EndComp
Wire Wire Line
	9250 3750 9200 3750
Wire Wire Line
	9250 3850 9200 3850
Wire Wire Line
	9250 3950 9200 3950
Wire Wire Line
	9250 4050 9200 4050
Wire Wire Line
	9250 4150 9200 4150
Wire Wire Line
	9250 4250 9200 4250
Wire Wire Line
	9250 4350 9200 4350
Wire Wire Line
	9250 4450 9200 4450
$Comp
L Device:R_Small_US R10
U 1 1 5FEF3A81
P 8350 5350
F 0 "R10" H 8500 5400 50  0000 C CNN
F 1 "1k" H 8500 5300 50  0000 C CNN
F 2 "Resistor_SMD:R_0603_1608Metric" H 8350 5350 50  0001 C CNN
F 3 "~" H 8350 5350 50  0001 C CNN
	1    8350 5350
	1    0    0    -1  
$EndComp
Wire Wire Line
	8150 5200 8150 4650
Wire Wire Line
	8150 4650 8200 4650
$Comp
L 74xx:74LS541 U31
U 1 1 5F9C9D4D
P 6850 1900
F 0 "U31" H 6600 2550 50  0000 C CNN
F 1 "74HC7541" H 6850 1600 50  0000 C CNN
F 2 "Package_SO:TSSOP-20_4.4x6.5mm_P0.65mm" H 6850 1900 50  0001 C CNN
F 3 "http://www.ti.com/lit/gpn/sn74LS541" H 6850 1900 50  0001 C CNN
	1    6850 1900
	1    0    0    -1  
$EndComp
$Comp
L Switch:SW_DIP_x08 SW4
U 1 1 600899DC
P 5000 1800
F 0 "SW4" H 5000 2450 50  0000 C CNN
F 1 "219-8MST" H 5000 2350 50  0000 C CNN
F 2 "Button_Switch_SMD:SW_DIP_SPSTx08_Slide_6.7x21.88mm_W8.61mm_P2.54mm_LowProfile" H 5000 1800 50  0001 C CNN
F 3 "~" H 5000 1800 50  0001 C CNN
	1    5000 1800
	1    0    0    -1  
$EndComp
$Comp
L power:+3V3 #PWR0126
U 1 1 600FBF25
P 4700 1400
F 0 "#PWR0126" H 4700 1250 50  0001 C CNN
F 1 "+3V3" H 4650 1550 50  0000 C CNN
F 2 "" H 4700 1400 50  0001 C CNN
F 3 "" H 4700 1400 50  0001 C CNN
	1    4700 1400
	1    0    0    -1  
$EndComp
Wire Wire Line
	4700 1400 4700 1500
Connection ~ 4700 1400
Connection ~ 4700 1500
Wire Wire Line
	4700 1500 4700 1600
Connection ~ 4700 1600
Wire Wire Line
	4700 1600 4700 1700
Connection ~ 4700 1700
Wire Wire Line
	4700 1700 4700 1800
Connection ~ 4700 1800
Wire Wire Line
	4700 1800 4700 1900
Connection ~ 4700 1900
Wire Wire Line
	4700 1900 4700 2000
Connection ~ 4700 2000
Wire Wire Line
	4700 2000 4700 2100
$Comp
L power:GNDREF #PWR0128
U 1 1 60144A32
P 5350 2550
F 0 "#PWR0128" H 5350 2300 50  0001 C CNN
F 1 "GNDREF" H 5355 2377 50  0001 C CNN
F 2 "" H 5350 2550 50  0001 C CNN
F 3 "" H 5350 2550 50  0001 C CNN
	1    5350 2550
	1    0    0    -1  
$EndComp
Wire Wire Line
	5350 2550 5450 2550
Wire Wire Line
	6350 2300 6300 2300
$Comp
L Switch:SW_DIP_x08 SW5
U 1 1 60295627
P 5000 4150
F 0 "SW5" H 5000 4800 50  0000 C CNN
F 1 "219-8MST" H 5000 4700 50  0000 C CNN
F 2 "Button_Switch_SMD:SW_DIP_SPSTx08_Slide_6.7x21.88mm_W8.61mm_P2.54mm_LowProfile" H 5000 4150 50  0001 C CNN
F 3 "~" H 5000 4150 50  0001 C CNN
	1    5000 4150
	1    0    0    -1  
$EndComp
$Comp
L power:+3V3 #PWR0127
U 1 1 60295633
P 4700 3750
F 0 "#PWR0127" H 4700 3600 50  0001 C CNN
F 1 "+3V3" H 4650 3900 50  0000 C CNN
F 2 "" H 4700 3750 50  0001 C CNN
F 3 "" H 4700 3750 50  0001 C CNN
	1    4700 3750
	1    0    0    -1  
$EndComp
Wire Wire Line
	4700 3750 4700 3850
Connection ~ 4700 3750
Connection ~ 4700 3850
Wire Wire Line
	4700 3850 4700 3950
Connection ~ 4700 3950
Wire Wire Line
	4700 3950 4700 4050
Connection ~ 4700 4050
Wire Wire Line
	4700 4050 4700 4150
Connection ~ 4700 4150
Wire Wire Line
	4700 4150 4700 4250
Connection ~ 4700 4250
Wire Wire Line
	4700 4250 4700 4350
Connection ~ 4700 4350
Wire Wire Line
	4700 4350 4700 4450
$Comp
L power:GNDREF #PWR0129
U 1 1 60295647
P 5350 4900
F 0 "#PWR0129" H 5350 4650 50  0001 C CNN
F 1 "GNDREF" H 5355 4727 50  0001 C CNN
F 2 "" H 5350 4900 50  0001 C CNN
F 3 "" H 5350 4900 50  0001 C CNN
	1    5350 4900
	1    0    0    -1  
$EndComp
Wire Wire Line
	5350 4900 5450 4900
Connection ~ 5350 4900
Connection ~ 5450 4900
Wire Wire Line
	5450 4900 5550 4900
Connection ~ 5550 4900
Wire Wire Line
	5550 4900 5650 4900
Connection ~ 5650 4900
Wire Wire Line
	5650 4900 5750 4900
Connection ~ 5750 4900
Wire Wire Line
	5750 4900 5850 4900
Connection ~ 5850 4900
Wire Wire Line
	5850 4900 5950 4900
Connection ~ 5950 4900
Wire Wire Line
	5950 4900 6050 4900
Wire Bus Line
	750  2000 600  2000
Wire Wire Line
	4450 5100 6300 5100
Wire Wire Line
	4450 5100 4450 3300
Wire Wire Line
	4450 3300 4400 3300
Wire Wire Line
	4400 3200 6300 3200
Wire Wire Line
	6300 2300 6300 3200
Text Label 4900 3000 2    50   ~ 0
en_led0
Text Label 4550 3600 1    50   ~ 0
en_led1
Text Label 4900 3200 2    50   ~ 0
en_sw0
Text Label 4450 3350 3    50   ~ 0
en_sw1
Wire Wire Line
	7950 2300 8150 2300
Connection ~ 8150 2300
Wire Wire Line
	8150 4650 7950 4650
Connection ~ 8150 4650
Wire Wire Line
	8250 2600 8200 2600
Wire Wire Line
	8200 2600 8200 2400
Text HLabel 8250 4950 2    50   Input ~ 0
~rst
Wire Wire Line
	8250 4950 8200 4950
Wire Wire Line
	8200 4950 8200 4750
Text HLabel 8050 5300 3    50   Input ~ 0
~m_clk
Wire Wire Line
	8050 5300 8050 5250
Wire Wire Line
	7850 3000 7850 2900
Wire Wire Line
	4400 3000 7850 3000
Wire Wire Line
	7850 5300 7850 5250
Text Label 7350 1400 0    50   ~ 0
DATA0
Wire Wire Line
	7350 1400 7600 1400
Entry Wire Line
	7600 1400 7700 1300
Text Label 7350 1500 0    50   ~ 0
DATA1
Wire Wire Line
	7350 1500 7600 1500
Entry Wire Line
	7600 1500 7700 1400
Text Label 7350 1600 0    50   ~ 0
DATA2
Wire Wire Line
	7350 1600 7600 1600
Entry Wire Line
	7600 1600 7700 1500
Text Label 7350 1700 0    50   ~ 0
DATA3
Wire Wire Line
	7350 1700 7600 1700
Entry Wire Line
	7600 1700 7700 1600
Text Label 7350 1800 0    50   ~ 0
DATA4
Wire Wire Line
	7350 1800 7600 1800
Entry Wire Line
	7600 1800 7700 1700
Text Label 7350 1900 0    50   ~ 0
DATA5
Wire Wire Line
	7350 1900 7600 1900
Entry Wire Line
	7600 1900 7700 1800
Text Label 7350 2000 0    50   ~ 0
DATA6
Wire Wire Line
	7350 2000 7600 2000
Entry Wire Line
	7600 2000 7700 1900
Text Label 7350 2100 0    50   ~ 0
DATA7
Wire Wire Line
	7350 2100 7600 2100
Entry Wire Line
	7600 2100 7700 2000
Text Label 7350 3750 0    50   ~ 0
DATA0
Wire Wire Line
	7350 3750 7600 3750
Entry Wire Line
	7600 3750 7700 3650
Text Label 7350 3850 0    50   ~ 0
DATA1
Wire Wire Line
	7350 3850 7600 3850
Entry Wire Line
	7600 3850 7700 3750
Text Label 7350 3950 0    50   ~ 0
DATA2
Wire Wire Line
	7350 3950 7600 3950
Entry Wire Line
	7600 3950 7700 3850
Text Label 7350 4050 0    50   ~ 0
DATA3
Wire Wire Line
	7350 4050 7600 4050
Entry Wire Line
	7600 4050 7700 3950
Text Label 7350 4150 0    50   ~ 0
DATA4
Wire Wire Line
	7350 4150 7600 4150
Entry Wire Line
	7600 4150 7700 4050
Text Label 7350 4250 0    50   ~ 0
DATA5
Wire Wire Line
	7350 4250 7600 4250
Entry Wire Line
	7600 4250 7700 4150
Text Label 7350 4350 0    50   ~ 0
DATA6
Wire Wire Line
	7350 4350 7600 4350
Entry Wire Line
	7600 4350 7700 4250
Text Label 7350 4450 0    50   ~ 0
DATA7
Wire Wire Line
	7350 4450 7600 4450
Entry Wire Line
	7600 4450 7700 4350
Text Label 8050 3750 2    50   ~ 0
DATA0
Wire Wire Line
	8200 3750 7800 3750
Entry Wire Line
	7800 3750 7700 3650
Text Label 8050 3850 2    50   ~ 0
DATA1
Wire Wire Line
	8200 3850 7800 3850
Entry Wire Line
	7800 3850 7700 3750
Text Label 8050 3950 2    50   ~ 0
DATA2
Wire Wire Line
	8200 3950 7800 3950
Entry Wire Line
	7800 3950 7700 3850
Text Label 8050 4050 2    50   ~ 0
DATA3
Wire Wire Line
	8200 4050 7800 4050
Entry Wire Line
	7800 4050 7700 3950
Text Label 8050 4150 2    50   ~ 0
DATA4
Wire Wire Line
	8200 4150 7800 4150
Entry Wire Line
	7800 4150 7700 4050
Text Label 8050 4250 2    50   ~ 0
DATA5
Wire Wire Line
	8200 4250 7800 4250
Entry Wire Line
	7800 4250 7700 4150
Text Label 8050 4350 2    50   ~ 0
DATA6
Wire Wire Line
	8200 4350 7800 4350
Entry Wire Line
	7800 4350 7700 4250
Text Label 8050 4450 2    50   ~ 0
DATA7
Wire Wire Line
	8200 4450 7800 4450
Entry Wire Line
	7800 4450 7700 4350
Text Label 8050 1400 2    50   ~ 0
DATA0
Wire Wire Line
	8200 1400 7800 1400
Entry Wire Line
	7800 1400 7700 1300
Text Label 8050 1500 2    50   ~ 0
DATA1
Wire Wire Line
	8200 1500 7800 1500
Entry Wire Line
	7800 1500 7700 1400
Text Label 8050 1600 2    50   ~ 0
DATA2
Wire Wire Line
	8200 1600 7800 1600
Entry Wire Line
	7800 1600 7700 1500
Text Label 8050 1700 2    50   ~ 0
DATA3
Wire Wire Line
	8200 1700 7800 1700
Entry Wire Line
	7800 1700 7700 1600
Text Label 8050 1800 2    50   ~ 0
DATA4
Wire Wire Line
	8200 1800 7800 1800
Entry Wire Line
	7800 1800 7700 1700
Text Label 8050 1900 2    50   ~ 0
DATA5
Wire Wire Line
	8200 1900 7800 1900
Entry Wire Line
	7800 1900 7700 1800
Text Label 8050 2000 2    50   ~ 0
DATA6
Wire Wire Line
	8200 2000 7800 2000
Entry Wire Line
	7800 2000 7700 1900
Text Label 8050 2100 2    50   ~ 0
DATA7
Wire Wire Line
	8200 2100 7800 2100
Entry Wire Line
	7800 2100 7700 2000
Wire Wire Line
	6300 5100 6300 4650
Wire Wire Line
	6300 4650 6350 4650
Text HLabel 6450 5000 2    50   Input ~ 0
~rm
Wire Wire Line
	6450 5000 6350 5000
Wire Wire Line
	6350 5000 6350 4750
Wire Wire Line
	6350 2400 6350 2650
Wire Wire Line
	6350 2650 6450 2650
Wire Wire Line
	4400 3100 4550 3100
Wire Wire Line
	4550 3100 4550 5300
Wire Wire Line
	4550 5300 7850 5300
Wire Bus Line
	7600 800  7700 800 
$Comp
L Device:R_Small_US R23
U 1 1 6038B3F8
P 8300 2950
F 0 "R23" H 8450 3000 50  0000 C CNN
F 1 "1k" H 8450 2900 50  0000 C CNN
F 2 "Resistor_SMD:R_0603_1608Metric" H 8300 2950 50  0001 C CNN
F 3 "~" H 8300 2950 50  0001 C CNN
	1    8300 2950
	1    0    0    -1  
$EndComp
Wire Wire Line
	8300 3050 8300 3100
Text Notes 3650 3400 0    50   ~ 0
2X4 Decoder
Text Notes 8800 2150 1    50   ~ 0
8b Register
Text Notes 8800 4450 1    50   ~ 0
8b Register
Text Notes 7000 4500 1    50   ~ 0
8b Tri-state Buffer
Text Notes 7000 2150 1    50   ~ 0
8b Tri-state Buffer
$Comp
L Device:LED D?
U 1 1 5FE84E45
P 10000 1200
AR Path="/5FE84E45" Ref="D?"  Part="1" 
AR Path="/608488F6/5FE84E45" Ref="D63"  Part="1" 
F 0 "D63" H 10150 1150 50  0000 C CNN
F 1 "GRN" H 10000 1100 50  0000 C CNN
F 2 "LED_SMD:LED_0603_1608Metric" H 10000 1200 50  0001 C CNN
F 3 "~" H 10000 1200 50  0001 C CNN
	1    10000 1200
	-1   0    0    1   
$EndComp
Text HLabel 8050 2950 3    50   Input ~ 0
~m_clk
Wire Wire Line
	8050 2950 8050 2900
$Comp
L Device:LED D?
U 1 1 5FF7B63C
P 10000 1350
AR Path="/5FF7B63C" Ref="D?"  Part="1" 
AR Path="/608488F6/5FF7B63C" Ref="D64"  Part="1" 
F 0 "D64" H 10150 1300 50  0000 C CNN
F 1 "GRN" H 10000 1150 50  0001 C CNN
F 2 "LED_SMD:LED_0603_1608Metric" H 10000 1350 50  0001 C CNN
F 3 "~" H 10000 1350 50  0001 C CNN
	1    10000 1350
	-1   0    0    1   
$EndComp
$Comp
L Device:LED D?
U 1 1 5FF823D5
P 10000 1500
AR Path="/5FF823D5" Ref="D?"  Part="1" 
AR Path="/608488F6/5FF823D5" Ref="D65"  Part="1" 
F 0 "D65" H 10150 1450 50  0000 C CNN
F 1 "GRN" H 10000 1400 50  0001 C CNN
F 2 "LED_SMD:LED_0603_1608Metric" H 10000 1500 50  0001 C CNN
F 3 "~" H 10000 1500 50  0001 C CNN
	1    10000 1500
	-1   0    0    1   
$EndComp
$Comp
L Device:LED D?
U 1 1 5FF823DB
P 10000 1650
AR Path="/5FF823DB" Ref="D?"  Part="1" 
AR Path="/608488F6/5FF823DB" Ref="D66"  Part="1" 
F 0 "D66" H 10150 1600 50  0000 C CNN
F 1 "GRN" H 10000 1450 50  0001 C CNN
F 2 "LED_SMD:LED_0603_1608Metric" H 10000 1650 50  0001 C CNN
F 3 "~" H 10000 1650 50  0001 C CNN
	1    10000 1650
	-1   0    0    1   
$EndComp
$Comp
L Device:LED D?
U 1 1 5FFA52F4
P 10000 1800
AR Path="/5FFA52F4" Ref="D?"  Part="1" 
AR Path="/608488F6/5FFA52F4" Ref="D67"  Part="1" 
F 0 "D67" H 10150 1750 50  0000 C CNN
F 1 "GRN" H 10000 1700 50  0001 C CNN
F 2 "LED_SMD:LED_0603_1608Metric" H 10000 1800 50  0001 C CNN
F 3 "~" H 10000 1800 50  0001 C CNN
	1    10000 1800
	-1   0    0    1   
$EndComp
$Comp
L Device:LED D?
U 1 1 5FFA52FA
P 10000 1950
AR Path="/5FFA52FA" Ref="D?"  Part="1" 
AR Path="/608488F6/5FFA52FA" Ref="D68"  Part="1" 
F 0 "D68" H 10150 1900 50  0000 C CNN
F 1 "GRN" H 10000 1750 50  0001 C CNN
F 2 "LED_SMD:LED_0603_1608Metric" H 10000 1950 50  0001 C CNN
F 3 "~" H 10000 1950 50  0001 C CNN
	1    10000 1950
	-1   0    0    1   
$EndComp
$Comp
L Device:LED D?
U 1 1 5FFA5300
P 10000 2100
AR Path="/5FFA5300" Ref="D?"  Part="1" 
AR Path="/608488F6/5FFA5300" Ref="D69"  Part="1" 
F 0 "D69" H 10150 2050 50  0000 C CNN
F 1 "GRN" H 10000 2000 50  0001 C CNN
F 2 "LED_SMD:LED_0603_1608Metric" H 10000 2100 50  0001 C CNN
F 3 "~" H 10000 2100 50  0001 C CNN
	1    10000 2100
	-1   0    0    1   
$EndComp
$Comp
L Device:LED D?
U 1 1 5FFA5306
P 10000 2250
AR Path="/5FFA5306" Ref="D?"  Part="1" 
AR Path="/608488F6/5FFA5306" Ref="D70"  Part="1" 
F 0 "D70" H 10150 2200 50  0000 C CNN
F 1 "GRN" H 10000 2050 50  0001 C CNN
F 2 "LED_SMD:LED_0603_1608Metric" H 10000 2250 50  0001 C CNN
F 3 "~" H 10000 2250 50  0001 C CNN
	1    10000 2250
	-1   0    0    1   
$EndComp
Wire Wire Line
	9700 1400 9700 1200
Wire Wire Line
	9700 1200 9850 1200
Wire Wire Line
	9750 1500 9750 1350
Wire Wire Line
	9750 1350 9850 1350
Wire Wire Line
	9650 1500 9750 1500
Wire Wire Line
	9800 1600 9800 1500
Wire Wire Line
	9800 1500 9850 1500
Wire Wire Line
	9650 1600 9800 1600
Wire Wire Line
	9800 1700 9800 1650
Wire Wire Line
	9800 1650 9850 1650
Wire Wire Line
	9650 1700 9800 1700
Wire Wire Line
	9650 1800 9850 1800
Wire Wire Line
	9800 1900 9800 1950
Wire Wire Line
	9800 1950 9850 1950
Wire Wire Line
	9650 1900 9800 1900
Wire Wire Line
	9800 2000 9800 2100
Wire Wire Line
	9800 2100 9850 2100
Wire Wire Line
	9650 2000 9800 2000
Wire Wire Line
	9750 2100 9750 2250
Wire Wire Line
	9750 2250 9850 2250
Wire Wire Line
	9650 2100 9750 2100
Wire Wire Line
	10150 1200 10200 1200
Wire Wire Line
	10200 1200 10200 1350
Wire Wire Line
	10200 2250 10150 2250
Wire Wire Line
	10150 2100 10200 2100
Connection ~ 10200 2100
Wire Wire Line
	10200 2100 10200 2250
Wire Wire Line
	10150 1950 10200 1950
Connection ~ 10200 1950
Wire Wire Line
	10200 1950 10200 2100
Wire Wire Line
	10150 1800 10200 1800
Connection ~ 10200 1800
Wire Wire Line
	10200 1800 10200 1950
Wire Wire Line
	10150 1650 10200 1650
Connection ~ 10200 1650
Wire Wire Line
	10200 1650 10200 1800
Wire Wire Line
	10150 1500 10200 1500
Connection ~ 10200 1500
Wire Wire Line
	10200 1500 10200 1650
Wire Wire Line
	10150 1350 10200 1350
Connection ~ 10200 1350
Wire Wire Line
	10200 1350 10200 1500
$Comp
L power:GNDREF #PWR0227
U 1 1 60120F62
P 10200 2250
F 0 "#PWR0227" H 10200 2000 50  0001 C CNN
F 1 "GNDREF" H 10205 2077 50  0001 C CNN
F 2 "" H 10200 2250 50  0001 C CNN
F 3 "" H 10200 2250 50  0001 C CNN
	1    10200 2250
	1    0    0    -1  
$EndComp
Connection ~ 10200 2250
$Comp
L Device:LED D?
U 1 1 6013B482
P 8300 3250
AR Path="/6013B482" Ref="D?"  Part="1" 
AR Path="/608488F6/6013B482" Ref="D61"  Part="1" 
F 0 "D61" V 8300 3150 50  0000 C CNN
F 1 "BLU" H 8300 3350 50  0000 C CNN
F 2 "LED_SMD:LED_0603_1608Metric" H 8300 3250 50  0001 C CNN
F 3 "~" H 8300 3250 50  0001 C CNN
	1    8300 3250
	0    -1   -1   0   
$EndComp
$Comp
L power:GNDREF #PWR0228
U 1 1 6017A65D
P 8300 3400
F 0 "#PWR0228" H 8300 3150 50  0001 C CNN
F 1 "GNDREF" H 8305 3227 50  0001 C CNN
F 2 "" H 8300 3400 50  0001 C CNN
F 3 "" H 8300 3400 50  0001 C CNN
	1    8300 3400
	1    0    0    -1  
$EndComp
Wire Wire Line
	8150 2800 8300 2800
Wire Wire Line
	8300 2800 8300 2850
$Comp
L Device:LED D?
U 1 1 6032A1ED
P 8350 5600
AR Path="/6032A1ED" Ref="D?"  Part="1" 
AR Path="/608488F6/6032A1ED" Ref="D62"  Part="1" 
F 0 "D62" V 8350 5500 50  0000 C CNN
F 1 "BLU" H 8350 5700 50  0000 C CNN
F 2 "LED_SMD:LED_0603_1608Metric" H 8350 5600 50  0001 C CNN
F 3 "~" H 8350 5600 50  0001 C CNN
	1    8350 5600
	0    -1   -1   0   
$EndComp
Wire Wire Line
	8150 5200 8350 5200
Wire Wire Line
	8350 5200 8350 5250
$Comp
L power:GNDREF #PWR0229
U 1 1 6035CAB1
P 8350 5750
F 0 "#PWR0229" H 8350 5500 50  0001 C CNN
F 1 "GNDREF" H 8355 5577 50  0001 C CNN
F 2 "" H 8350 5750 50  0001 C CNN
F 3 "" H 8350 5750 50  0001 C CNN
	1    8350 5750
	1    0    0    -1  
$EndComp
$Comp
L Device:LED D?
U 1 1 60383CD8
P 10000 3550
AR Path="/60383CD8" Ref="D?"  Part="1" 
AR Path="/608488F6/60383CD8" Ref="D71"  Part="1" 
F 0 "D71" H 10150 3500 50  0000 C CNN
F 1 "GRN" H 10000 3450 50  0000 C CNN
F 2 "LED_SMD:LED_0603_1608Metric" H 10000 3550 50  0001 C CNN
F 3 "~" H 10000 3550 50  0001 C CNN
	1    10000 3550
	-1   0    0    1   
$EndComp
$Comp
L Device:LED D?
U 1 1 60383CDE
P 10000 3700
AR Path="/60383CDE" Ref="D?"  Part="1" 
AR Path="/608488F6/60383CDE" Ref="D72"  Part="1" 
F 0 "D72" H 10150 3650 50  0000 C CNN
F 1 "GRN" H 10000 3500 50  0001 C CNN
F 2 "LED_SMD:LED_0603_1608Metric" H 10000 3700 50  0001 C CNN
F 3 "~" H 10000 3700 50  0001 C CNN
	1    10000 3700
	-1   0    0    1   
$EndComp
$Comp
L Device:LED D?
U 1 1 60383CE4
P 10000 3850
AR Path="/60383CE4" Ref="D?"  Part="1" 
AR Path="/608488F6/60383CE4" Ref="D73"  Part="1" 
F 0 "D73" H 10150 3800 50  0000 C CNN
F 1 "GRN" H 10000 3750 50  0001 C CNN
F 2 "LED_SMD:LED_0603_1608Metric" H 10000 3850 50  0001 C CNN
F 3 "~" H 10000 3850 50  0001 C CNN
	1    10000 3850
	-1   0    0    1   
$EndComp
$Comp
L Device:LED D?
U 1 1 60383CEA
P 10000 4000
AR Path="/60383CEA" Ref="D?"  Part="1" 
AR Path="/608488F6/60383CEA" Ref="D74"  Part="1" 
F 0 "D74" H 10150 3950 50  0000 C CNN
F 1 "GRN" H 10000 3800 50  0001 C CNN
F 2 "LED_SMD:LED_0603_1608Metric" H 10000 4000 50  0001 C CNN
F 3 "~" H 10000 4000 50  0001 C CNN
	1    10000 4000
	-1   0    0    1   
$EndComp
$Comp
L Device:LED D?
U 1 1 60383CF0
P 10000 4150
AR Path="/60383CF0" Ref="D?"  Part="1" 
AR Path="/608488F6/60383CF0" Ref="D75"  Part="1" 
F 0 "D75" H 10150 4100 50  0000 C CNN
F 1 "GRN" H 10000 4050 50  0001 C CNN
F 2 "LED_SMD:LED_0603_1608Metric" H 10000 4150 50  0001 C CNN
F 3 "~" H 10000 4150 50  0001 C CNN
	1    10000 4150
	-1   0    0    1   
$EndComp
$Comp
L Device:LED D?
U 1 1 60383CF6
P 10000 4300
AR Path="/60383CF6" Ref="D?"  Part="1" 
AR Path="/608488F6/60383CF6" Ref="D76"  Part="1" 
F 0 "D76" H 10150 4250 50  0000 C CNN
F 1 "GRN" H 10000 4100 50  0001 C CNN
F 2 "LED_SMD:LED_0603_1608Metric" H 10000 4300 50  0001 C CNN
F 3 "~" H 10000 4300 50  0001 C CNN
	1    10000 4300
	-1   0    0    1   
$EndComp
$Comp
L Device:LED D?
U 1 1 60383CFC
P 10000 4450
AR Path="/60383CFC" Ref="D?"  Part="1" 
AR Path="/608488F6/60383CFC" Ref="D77"  Part="1" 
F 0 "D77" H 10150 4400 50  0000 C CNN
F 1 "GRN" H 10000 4350 50  0001 C CNN
F 2 "LED_SMD:LED_0603_1608Metric" H 10000 4450 50  0001 C CNN
F 3 "~" H 10000 4450 50  0001 C CNN
	1    10000 4450
	-1   0    0    1   
$EndComp
$Comp
L Device:LED D?
U 1 1 60383D02
P 10000 4600
AR Path="/60383D02" Ref="D?"  Part="1" 
AR Path="/608488F6/60383D02" Ref="D78"  Part="1" 
F 0 "D78" H 10150 4550 50  0000 C CNN
F 1 "GRN" H 10000 4400 50  0001 C CNN
F 2 "LED_SMD:LED_0603_1608Metric" H 10000 4600 50  0001 C CNN
F 3 "~" H 10000 4600 50  0001 C CNN
	1    10000 4600
	-1   0    0    1   
$EndComp
Wire Wire Line
	9700 3750 9700 3550
Wire Wire Line
	9700 3550 9850 3550
Wire Wire Line
	9750 3850 9750 3700
Wire Wire Line
	9750 3700 9850 3700
Wire Wire Line
	9800 3950 9800 3850
Wire Wire Line
	9800 3850 9850 3850
Wire Wire Line
	9800 4050 9800 4000
Wire Wire Line
	9800 4000 9850 4000
Wire Wire Line
	9800 4250 9800 4300
Wire Wire Line
	9800 4300 9850 4300
Wire Wire Line
	9800 4350 9800 4450
Wire Wire Line
	9800 4450 9850 4450
Wire Wire Line
	9750 4450 9750 4600
Wire Wire Line
	9750 4600 9850 4600
Wire Wire Line
	10150 3550 10200 3550
Wire Wire Line
	10200 3550 10200 3700
Wire Wire Line
	10200 4600 10150 4600
Wire Wire Line
	10150 4450 10200 4450
Connection ~ 10200 4450
Wire Wire Line
	10200 4450 10200 4600
Wire Wire Line
	10150 4300 10200 4300
Connection ~ 10200 4300
Wire Wire Line
	10200 4300 10200 4450
Wire Wire Line
	10150 4150 10200 4150
Connection ~ 10200 4150
Wire Wire Line
	10200 4150 10200 4300
Wire Wire Line
	10150 4000 10200 4000
Connection ~ 10200 4000
Wire Wire Line
	10200 4000 10200 4150
Wire Wire Line
	10150 3850 10200 3850
Connection ~ 10200 3850
Wire Wire Line
	10200 3850 10200 4000
Wire Wire Line
	10150 3700 10200 3700
Connection ~ 10200 3700
Wire Wire Line
	10200 3700 10200 3850
$Comp
L power:GNDREF #PWR0230
U 1 1 60383D32
P 10200 4600
F 0 "#PWR0230" H 10200 4350 50  0001 C CNN
F 1 "GNDREF" H 10205 4427 50  0001 C CNN
F 2 "" H 10200 4600 50  0001 C CNN
F 3 "" H 10200 4600 50  0001 C CNN
	1    10200 4600
	1    0    0    -1  
$EndComp
Connection ~ 10200 4600
Wire Wire Line
	9650 3750 9700 3750
Wire Wire Line
	9650 3850 9750 3850
Wire Wire Line
	9650 3950 9800 3950
Wire Wire Line
	9650 4050 9800 4050
Wire Wire Line
	9650 4150 9850 4150
Wire Wire Line
	9650 4250 9800 4250
Wire Wire Line
	9650 4350 9800 4350
Wire Wire Line
	9650 4450 9750 4450
Text Label 1500 2650 0    50   ~ 0
~ADDR7
Text Label 1500 3000 0    50   ~ 0
~ADDR6
Wire Wire Line
	1650 2900 1750 2900
Text Label 3150 3300 0    50   ~ 0
addr_en
Text Label 2450 3350 3    50   ~ 0
addr_en_i0
Text Label 2450 3200 1    50   ~ 0
addr_en_i1
Text Label 8100 4650 2    50   ~ 0
led1_clk
Text Label 8100 2300 2    50   ~ 0
led0_clk
Connection ~ 5850 2550
Connection ~ 5450 2550
Connection ~ 5950 2550
Wire Wire Line
	5950 2550 6050 2550
Wire Wire Line
	5850 2550 5950 2550
Connection ~ 5750 2550
Wire Wire Line
	5750 2550 5850 2550
Wire Wire Line
	5650 2550 5750 2550
Connection ~ 5650 2550
Connection ~ 5550 2550
Wire Wire Line
	5550 2550 5650 2550
Wire Wire Line
	5450 2550 5550 2550
Connection ~ 5350 2550
Wire Wire Line
	5300 2100 6050 2100
Wire Wire Line
	5300 2000 5950 2000
Wire Wire Line
	5300 1900 5850 1900
Wire Wire Line
	5300 1800 5750 1800
Wire Wire Line
	5300 1700 5650 1700
Wire Wire Line
	5300 1600 5550 1600
Wire Wire Line
	5300 1500 5450 1500
Wire Wire Line
	5300 1400 5350 1400
$Comp
L Device:R_Pack08 RN1
U 1 1 600EBF94
P 5750 2350
F 0 "RN1" V 6150 2350 50  0000 C CNN
F 1 "10k" V 5250 2350 50  0000 C CNN
F 2 "Resistor_SMD:R_Array_Convex_8x0602" V 6225 2350 50  0001 C CNN
F 3 "~" H 5750 2350 50  0001 C CNN
	1    5750 2350
	1    0    0    -1  
$EndComp
Wire Wire Line
	6050 2150 6050 2100
Connection ~ 6050 2100
Wire Wire Line
	6050 2100 6350 2100
Wire Wire Line
	5950 2150 5950 2000
Connection ~ 5950 2000
Wire Wire Line
	5950 2000 6350 2000
Wire Wire Line
	5850 2150 5850 1900
Connection ~ 5850 1900
Wire Wire Line
	5850 1900 6350 1900
Wire Wire Line
	5750 2150 5750 1800
Connection ~ 5750 1800
Wire Wire Line
	5750 1800 6350 1800
Wire Wire Line
	5650 2150 5650 1700
Connection ~ 5650 1700
Wire Wire Line
	5650 1700 6350 1700
Wire Wire Line
	5550 2150 5550 1600
Connection ~ 5550 1600
Wire Wire Line
	5550 1600 6350 1600
Wire Wire Line
	5450 2150 5450 1500
Connection ~ 5450 1500
Wire Wire Line
	5450 1500 6350 1500
Wire Wire Line
	5350 2150 5350 1400
Connection ~ 5350 1400
Wire Wire Line
	5350 1400 6350 1400
Wire Wire Line
	5300 3750 5350 3750
Wire Wire Line
	5300 3850 5450 3850
Wire Wire Line
	5300 3950 5550 3950
Wire Wire Line
	5300 4050 5650 4050
Wire Wire Line
	5300 4150 5750 4150
Wire Wire Line
	5300 4250 5850 4250
Wire Wire Line
	5300 4350 5950 4350
Wire Wire Line
	5300 4450 6050 4450
$Comp
L Device:R_Pack08 RN2
U 1 1 6029562D
P 5750 4700
F 0 "RN2" V 6150 4700 50  0000 C CNN
F 1 "10k" V 5250 4700 50  0000 C CNN
F 2 "Resistor_SMD:R_Array_Convex_8x0602" V 6225 4700 50  0001 C CNN
F 3 "~" H 5750 4700 50  0001 C CNN
	1    5750 4700
	1    0    0    -1  
$EndComp
Wire Wire Line
	5350 4500 5350 3750
Connection ~ 5350 3750
Wire Wire Line
	5350 3750 6350 3750
Wire Wire Line
	5450 4500 5450 3850
Connection ~ 5450 3850
Wire Wire Line
	5450 3850 6350 3850
Wire Wire Line
	5550 3950 5550 4500
Connection ~ 5550 3950
Wire Wire Line
	5550 3950 6350 3950
Wire Wire Line
	5650 4500 5650 4050
Connection ~ 5650 4050
Wire Wire Line
	5650 4050 6350 4050
Wire Wire Line
	5750 4150 5750 4500
Connection ~ 5750 4150
Wire Wire Line
	5750 4150 6350 4150
Wire Wire Line
	5850 4500 5850 4250
Connection ~ 5850 4250
Wire Wire Line
	5850 4250 6350 4250
Wire Wire Line
	5950 4350 5950 4500
Connection ~ 5950 4350
Wire Wire Line
	5950 4350 6350 4350
Wire Wire Line
	6050 4500 6050 4450
Connection ~ 6050 4450
Wire Wire Line
	6050 4450 6350 4450
Wire Bus Line
	3100 2150 3100 3000
Wire Bus Line
	600  2150 600  3550
Wire Bus Line
	7700 800  7700 4350
$EndSCHEMATC
