EESchema Schematic File Version 4
EELAYER 30 0
EELAYER END
$Descr A4 11693 8268
encoding utf-8
Sheet 5 6
Title ""
Date ""
Rev ""
Comp ""
Comment1 ""
Comment2 ""
Comment3 ""
Comment4 ""
$EndDescr
$Comp
L Device:C_Small C?
U 1 1 5FB17A57
P 3300 3050
AR Path="/5FB17A57" Ref="C?"  Part="1" 
AR Path="/5FAFFE1A/5FB17A57" Ref="C8"  Part="1" 
F 0 "C8" V 3200 2900 50  0000 L CNN
F 1 "100n" V 3200 3050 50  0000 L CNN
F 2 "Capacitor_SMD:C_0603_1608Metric" H 3300 3050 50  0001 C CNN
F 3 "~" H 3300 3050 50  0001 C CNN
	1    3300 3050
	1    0    0    -1  
$EndComp
$Comp
L Switch:SW_Push SW?
U 1 1 5FB17A5D
P 3450 3050
AR Path="/5FB17A5D" Ref="SW?"  Part="1" 
AR Path="/5FAFFE1A/5FB17A5D" Ref="SW2"  Part="1" 
F 0 "SW2" H 3200 3150 50  0000 L CNN
F 1 "clk_button" H 3200 3250 50  0000 L CNN
F 2 "Button_Switch_SMD:SW_SPST_PTS810" H 3450 3250 50  0001 C CNN
F 3 "~" H 3450 3250 50  0001 C CNN
	1    3450 3050
	0    1    1    0   
$EndComp
$Comp
L Device:R_Small_US R?
U 1 1 5FB17A63
P 3450 3400
AR Path="/5FB17A63" Ref="R?"  Part="1" 
AR Path="/5FAFFE1A/5FB17A63" Ref="R3"  Part="1" 
F 0 "R3" H 3300 3450 50  0000 L CNN
F 1 "1k" H 3300 3350 50  0000 L CNN
F 2 "Resistor_SMD:R_0603_1608Metric" H 3450 3400 50  0001 C CNN
F 3 "~" H 3450 3400 50  0001 C CNN
	1    3450 3400
	1    0    0    -1  
$EndComp
$Comp
L power:GNDREF #PWR?
U 1 1 5FB17AAA
P 3450 3500
AR Path="/5FB17AAA" Ref="#PWR?"  Part="1" 
AR Path="/5FAFFE1A/5FB17AAA" Ref="#PWR014"  Part="1" 
F 0 "#PWR014" H 3450 3250 50  0001 C CNN
F 1 "GNDREF" H 3455 3327 50  0001 C CNN
F 2 "" H 3450 3500 50  0001 C CNN
F 3 "" H 3450 3500 50  0001 C CNN
	1    3450 3500
	1    0    0    -1  
$EndComp
Wire Wire Line
	3450 3300 3450 3250
Wire Wire Line
	3450 3250 3300 3250
Wire Wire Line
	3300 3250 3300 3150
Connection ~ 3450 3250
Wire Wire Line
	3300 2950 3300 2850
Wire Wire Line
	3300 2850 3450 2850
$Comp
L power:+3V3 #PWR?
U 1 1 5FB17AB6
P 3450 2800
AR Path="/5FB17AB6" Ref="#PWR?"  Part="1" 
AR Path="/5FAFFE1A/5FB17AB6" Ref="#PWR013"  Part="1" 
F 0 "#PWR013" H 3450 2650 50  0001 C CNN
F 1 "+3V3" H 3465 2973 50  0000 C CNN
F 2 "" H 3450 2800 50  0001 C CNN
F 3 "" H 3450 2800 50  0001 C CNN
	1    3450 2800
	1    0    0    -1  
$EndComp
Wire Wire Line
	3450 2850 3450 2800
Connection ~ 3450 2850
Wire Wire Line
	3450 3250 3700 3250
$Comp
L Device:R_Small_US R?
U 1 1 5FB17ADA
P 5500 5300
AR Path="/5FB17ADA" Ref="R?"  Part="1" 
AR Path="/5FAFFE1A/5FB17ADA" Ref="R8"  Part="1" 
F 0 "R8" H 5550 5350 50  0000 L CNN
F 1 "1k" H 5550 5250 50  0000 L CNN
F 2 "Resistor_SMD:R_0603_1608Metric" H 5500 5300 50  0001 C CNN
F 3 "~" H 5500 5300 50  0001 C CNN
	1    5500 5300
	1    0    0    -1  
$EndComp
$Comp
L Switch:SW_DIP_x02 SW?
U 1 1 5FB17AE6
P 5800 5000
AR Path="/5FB17AE6" Ref="SW?"  Part="1" 
AR Path="/5FAFFE1A/5FB17AE6" Ref="SW3"  Part="1" 
F 0 "SW3" H 5800 5250 50  0000 C CNN
F 1 "clk_sel" H 5800 4850 50  0000 C CNN
F 2 "Button_Switch_SMD:SW_DIP_SPSTx02_Slide_6.7x6.64mm_W8.61mm_P2.54mm_LowProfile" H 5800 5000 50  0001 C CNN
F 3 "~" H 5800 5000 50  0001 C CNN
	1    5800 5000
	1    0    0    -1  
$EndComp
Connection ~ 4000 1900
Wire Wire Line
	4000 1900 4000 2000
Wire Wire Line
	4050 1900 4000 1900
$Comp
L power:GNDREF #PWR?
U 1 1 5FB17AEF
P 4250 1900
AR Path="/5FB17AEF" Ref="#PWR?"  Part="1" 
AR Path="/5FAFFE1A/5FB17AEF" Ref="#PWR025"  Part="1" 
F 0 "#PWR025" H 4250 1650 50  0001 C CNN
F 1 "GNDREF" H 4255 1727 50  0001 C CNN
F 2 "" H 4250 1900 50  0001 C CNN
F 3 "" H 4250 1900 50  0001 C CNN
	1    4250 1900
	1    0    0    -1  
$EndComp
$Comp
L power:+3V3 #PWR?
U 1 1 5FB17AF5
P 4000 1900
AR Path="/5FB17AF5" Ref="#PWR?"  Part="1" 
AR Path="/5FAFFE1A/5FB17AF5" Ref="#PWR023"  Part="1" 
F 0 "#PWR023" H 4000 1750 50  0001 C CNN
F 1 "+3V3" H 4015 2073 50  0000 C CNN
F 2 "" H 4000 1900 50  0001 C CNN
F 3 "" H 4000 1900 50  0001 C CNN
	1    4000 1900
	1    0    0    -1  
$EndComp
$Comp
L Device:C_Small C?
U 1 1 5FB17AFB
P 4150 1900
AR Path="/5FB17AFB" Ref="C?"  Part="1" 
AR Path="/5FAFFE1A/5FB17AFB" Ref="C11"  Part="1" 
F 0 "C11" V 4050 1800 50  0000 L CNN
F 1 "100n" V 4100 1950 50  0000 L CNN
F 2 "Capacitor_SMD:C_0603_1608Metric" H 4150 1900 50  0001 C CNN
F 3 "~" H 4150 1900 50  0001 C CNN
	1    4150 1900
	0    1    1    0   
$EndComp
$Comp
L power:GNDREF #PWR?
U 1 1 5FB17B01
P 4000 2200
AR Path="/5FB17B01" Ref="#PWR?"  Part="1" 
AR Path="/5FAFFE1A/5FB17B01" Ref="#PWR024"  Part="1" 
F 0 "#PWR024" H 4000 1950 50  0001 C CNN
F 1 "GNDREF" H 4005 2027 50  0001 C CNN
F 2 "" H 4000 2200 50  0001 C CNN
F 3 "" H 4000 2200 50  0001 C CNN
	1    4000 2200
	1    0    0    -1  
$EndComp
Wire Wire Line
	2450 2100 2350 2100
$Comp
L power:GNDREF #PWR?
U 1 1 5FB17B1F
P 2150 2300
AR Path="/5FB17B1F" Ref="#PWR?"  Part="1" 
AR Path="/5FAFFE1A/5FB17B1F" Ref="#PWR011"  Part="1" 
F 0 "#PWR011" H 2150 2050 50  0001 C CNN
F 1 "GNDREF" H 2155 2127 50  0001 C CNN
F 2 "" H 2150 2300 50  0001 C CNN
F 3 "" H 2150 2300 50  0001 C CNN
	1    2150 2300
	1    0    0    -1  
$EndComp
$Comp
L Connector:Conn_Coaxial J?
U 1 1 5FB17B31
P 2150 2100
AR Path="/5FB17B31" Ref="J?"  Part="1" 
AR Path="/5FAFFE1A/5FB17B31" Ref="J2"  Part="1" 
F 0 "J2" H 2000 2000 50  0000 L CNN
F 1 "EXT_CLK" H 1900 2250 50  0000 L CNN
F 2 "bnc-right-angle:BNC-Right-Angle" H 2150 2100 50  0001 C CNN
F 3 " ~" H 2150 2100 50  0001 C CNN
	1    2150 2100
	-1   0    0    -1  
$EndComp
$Comp
L power:+3V3 #PWR?
U 1 1 5FB17B3D
P 6100 4900
AR Path="/5FB17B3D" Ref="#PWR?"  Part="1" 
AR Path="/5FAFFE1A/5FB17B3D" Ref="#PWR034"  Part="1" 
F 0 "#PWR034" H 6100 4750 50  0001 C CNN
F 1 "+3V3" H 6115 5073 50  0000 C CNN
F 2 "" H 6100 4900 50  0001 C CNN
F 3 "" H 6100 4900 50  0001 C CNN
	1    6100 4900
	1    0    0    -1  
$EndComp
Wire Wire Line
	6100 4900 6100 5000
$Comp
L power:GNDREF #PWR?
U 1 1 5FB17B54
P 5500 5400
AR Path="/5FB17B54" Ref="#PWR?"  Part="1" 
AR Path="/5FAFFE1A/5FB17B54" Ref="#PWR030"  Part="1" 
F 0 "#PWR030" H 5500 5150 50  0001 C CNN
F 1 "GNDREF" H 5505 5227 50  0001 C CNN
F 2 "" H 5500 5400 50  0001 C CNN
F 3 "" H 5500 5400 50  0001 C CNN
	1    5500 5400
	1    0    0    -1  
$EndComp
$Comp
L Device:R_Small_US R?
U 1 1 5FB17B5E
P 5350 5300
AR Path="/5FB17B5E" Ref="R?"  Part="1" 
AR Path="/5FAFFE1A/5FB17B5E" Ref="R7"  Part="1" 
F 0 "R7" H 5200 5350 50  0000 L CNN
F 1 "1k" H 5200 5250 50  0000 L CNN
F 2 "Resistor_SMD:R_0603_1608Metric" H 5350 5300 50  0001 C CNN
F 3 "~" H 5350 5300 50  0001 C CNN
	1    5350 5300
	1    0    0    -1  
$EndComp
$Comp
L power:GNDREF #PWR?
U 1 1 5FB17B64
P 5350 5400
AR Path="/5FB17B64" Ref="#PWR?"  Part="1" 
AR Path="/5FAFFE1A/5FB17B64" Ref="#PWR029"  Part="1" 
F 0 "#PWR029" H 5350 5150 50  0001 C CNN
F 1 "GNDREF" H 5355 5227 50  0001 C CNN
F 2 "" H 5350 5400 50  0001 C CNN
F 3 "" H 5350 5400 50  0001 C CNN
	1    5350 5400
	1    0    0    -1  
$EndComp
Wire Wire Line
	5350 5200 5350 4900
Wire Wire Line
	5350 4900 5500 4900
Connection ~ 5500 4900
Wire Wire Line
	4600 3950 4700 3950
$Comp
L power:GNDREF #PWR?
U 1 1 5FB17B76
P 5200 4350
AR Path="/5FB17B76" Ref="#PWR?"  Part="1" 
AR Path="/5FAFFE1A/5FB17B76" Ref="#PWR032"  Part="1" 
F 0 "#PWR032" H 5200 4100 50  0001 C CNN
F 1 "GNDREF" H 5205 4177 50  0001 C CNN
F 2 "" H 5200 4350 50  0001 C CNN
F 3 "" H 5200 4350 50  0001 C CNN
	1    5200 4350
	1    0    0    -1  
$EndComp
$Comp
L Device:C_Small C?
U 1 1 5FB17B7C
P 5350 2200
AR Path="/5FB17B7C" Ref="C?"  Part="1" 
AR Path="/5FAFFE1A/5FB17B7C" Ref="C13"  Part="1" 
F 0 "C13" V 5250 2100 50  0000 L CNN
F 1 "100n" V 5300 2250 50  0000 L CNN
F 2 "Capacitor_SMD:C_0603_1608Metric" H 5350 2200 50  0001 C CNN
F 3 "~" H 5350 2200 50  0001 C CNN
	1    5350 2200
	0    1    1    0   
$EndComp
$Comp
L power:+3V3 #PWR?
U 1 1 5FB17B82
P 5200 2200
AR Path="/5FB17B82" Ref="#PWR?"  Part="1" 
AR Path="/5FAFFE1A/5FB17B82" Ref="#PWR031"  Part="1" 
F 0 "#PWR031" H 5200 2050 50  0001 C CNN
F 1 "+3V3" H 5215 2373 50  0000 C CNN
F 2 "" H 5200 2200 50  0001 C CNN
F 3 "" H 5200 2200 50  0001 C CNN
	1    5200 2200
	1    0    0    -1  
$EndComp
$Comp
L power:GNDREF #PWR?
U 1 1 5FB17B88
P 5450 2200
AR Path="/5FB17B88" Ref="#PWR?"  Part="1" 
AR Path="/5FAFFE1A/5FB17B88" Ref="#PWR033"  Part="1" 
F 0 "#PWR033" H 5450 1950 50  0001 C CNN
F 1 "GNDREF" H 5455 2027 50  0001 C CNN
F 2 "" H 5450 2200 50  0001 C CNN
F 3 "" H 5450 2200 50  0001 C CNN
	1    5450 2200
	1    0    0    -1  
$EndComp
Wire Wire Line
	5250 2200 5200 2200
Wire Wire Line
	5200 2250 5200 2200
Connection ~ 5200 2200
$Comp
L power:GNDREF #PWR?
U 1 1 5FB17B91
P 4700 3750
AR Path="/5FB17B91" Ref="#PWR?"  Part="1" 
AR Path="/5FAFFE1A/5FB17B91" Ref="#PWR028"  Part="1" 
F 0 "#PWR028" H 4700 3500 50  0001 C CNN
F 1 "GNDREF" H 4705 3577 50  0001 C CNN
F 2 "" H 4700 3750 50  0001 C CNN
F 3 "" H 4700 3750 50  0001 C CNN
	1    4700 3750
	1    0    0    -1  
$EndComp
NoConn ~ 5700 3250
Wire Wire Line
	4250 3250 4250 2750
Connection ~ 4700 3750
Wire Wire Line
	4700 3750 4700 3550
Connection ~ 4700 3550
Wire Wire Line
	4700 3550 4700 3450
Connection ~ 4700 3450
Wire Wire Line
	4700 3350 4700 3250
Wire Wire Line
	4700 3450 4700 3350
Connection ~ 4700 3350
$Comp
L 74xx:74LS253 U?
U 1 1 5FB17BA9
P 5200 3250
AR Path="/5FB17BA9" Ref="U?"  Part="1" 
AR Path="/5FAFFE1A/5FB17BA9" Ref="U22"  Part="1" 
F 0 "U22" H 4950 4100 50  0000 C CNN
F 1 "SN74HC253" V 5200 3250 50  0000 C CNN
F 2 "Package_SO:SSOP-16_5.3x6.2mm_P0.65mm" H 5200 3250 50  0001 C CNN
F 3 "https://www.digikey.com/product-detail/en/texas-instruments/SN74HC253DBR/296-8282-1-ND/376639" H 5200 3250 50  0001 C CNN
	1    5200 3250
	1    0    0    -1  
$EndComp
Wire Wire Line
	4700 3250 4700 3050
Connection ~ 4700 3250
Text HLabel 6100 2550 2    50   Input ~ 0
clk
$Comp
L power:GNDREF #PWR?
U 1 1 60674FA2
P 8350 4050
AR Path="/60674FA2" Ref="#PWR?"  Part="1" 
AR Path="/5FAFFE1A/60674FA2" Ref="#PWR07"  Part="1" 
F 0 "#PWR07" H 8350 3800 50  0001 C CNN
F 1 "GNDREF" H 8355 3877 50  0001 C CNN
F 2 "" H 8350 4050 50  0001 C CNN
F 3 "" H 8350 4050 50  0001 C CNN
	1    8350 4050
	1    0    0    -1  
$EndComp
$Comp
L power:+3V3 #PWR?
U 1 1 60674FA8
P 8350 3750
AR Path="/60674FA8" Ref="#PWR?"  Part="1" 
AR Path="/5FAFFE1A/60674FA8" Ref="#PWR06"  Part="1" 
F 0 "#PWR06" H 8350 3600 50  0001 C CNN
F 1 "+3V3" H 8365 3923 50  0000 C CNN
F 2 "" H 8350 3750 50  0001 C CNN
F 3 "" H 8350 3750 50  0001 C CNN
	1    8350 3750
	1    0    0    -1  
$EndComp
$Comp
L Device:C_Small C?
U 1 1 60674FAE
P 8500 3750
AR Path="/60674FAE" Ref="C?"  Part="1" 
AR Path="/5FAFFE1A/60674FAE" Ref="C5"  Part="1" 
F 0 "C5" V 8400 3700 50  0000 L CNN
F 1 "100n" V 8450 3800 50  0000 L CNN
F 2 "Capacitor_SMD:C_0603_1608Metric" H 8500 3750 50  0001 C CNN
F 3 "~" H 8500 3750 50  0001 C CNN
	1    8500 3750
	0    1    1    0   
$EndComp
$Comp
L power:GNDREF #PWR?
U 1 1 60674FB4
P 8600 3750
AR Path="/60674FB4" Ref="#PWR?"  Part="1" 
AR Path="/5FAFFE1A/60674FB4" Ref="#PWR08"  Part="1" 
F 0 "#PWR08" H 8600 3500 50  0001 C CNN
F 1 "GNDREF" H 8605 3577 50  0001 C CNN
F 2 "" H 8600 3750 50  0001 C CNN
F 3 "" H 8600 3750 50  0001 C CNN
	1    8600 3750
	1    0    0    -1  
$EndComp
Wire Wire Line
	8400 3750 8350 3750
Wire Wire Line
	8350 3750 8350 3850
Connection ~ 8350 3750
$Comp
L Switch:SW_Push SW?
U 1 1 60674FBD
P 7700 4150
AR Path="/60674FBD" Ref="SW?"  Part="1" 
AR Path="/5FAFFE1A/60674FBD" Ref="SW1"  Part="1" 
F 0 "SW1" V 7600 4250 50  0000 L CNN
F 1 "rst_button" H 7700 4300 50  0000 L CNN
F 2 "Button_Switch_SMD:SW_SPST_PTS810" H 7700 4350 50  0001 C CNN
F 3 "~" H 7700 4350 50  0001 C CNN
	1    7700 4150
	0    1    1    0   
$EndComp
Wire Wire Line
	7700 3950 8050 3950
$Comp
L Device:C_Small C?
U 1 1 60674FC6
P 7350 4100
AR Path="/60674FC6" Ref="C?"  Part="1" 
AR Path="/5FAFFE1A/60674FC6" Ref="C1"  Part="1" 
F 0 "C1" H 7400 4150 50  0000 L CNN
F 1 "4.7u" H 7400 4050 50  0000 L CNN
F 2 "Capacitor_SMD:C_0603_1608Metric" H 7350 4100 50  0001 C CNN
F 3 "~" H 7350 4100 50  0001 C CNN
	1    7350 4100
	1    0    0    -1  
$EndComp
$Comp
L Device:R_Small_US R?
U 1 1 60674FCC
P 7150 3800
AR Path="/60674FCC" Ref="R?"  Part="1" 
AR Path="/5FAFFE1A/60674FCC" Ref="R1"  Part="1" 
F 0 "R1" H 7000 3850 50  0000 L CNN
F 1 "10k" H 6950 3750 50  0000 L CNN
F 2 "Resistor_SMD:R_0603_1608Metric" H 7150 3800 50  0001 C CNN
F 3 "~" H 7150 3800 50  0001 C CNN
	1    7150 3800
	1    0    0    -1  
$EndComp
$Comp
L Device:R_Small_US R?
U 1 1 60674FD2
P 7150 4100
AR Path="/60674FD2" Ref="R?"  Part="1" 
AR Path="/5FAFFE1A/60674FD2" Ref="R2"  Part="1" 
F 0 "R2" H 7000 4150 50  0000 L CNN
F 1 "47k" H 6950 4050 50  0000 L CNN
F 2 "Resistor_SMD:R_0603_1608Metric" H 7150 4100 50  0001 C CNN
F 3 "~" H 7150 4100 50  0001 C CNN
	1    7150 4100
	1    0    0    -1  
$EndComp
Wire Wire Line
	7350 4000 7350 3950
Wire Wire Line
	7350 3950 7700 3950
Connection ~ 7700 3950
Wire Wire Line
	7150 3900 7150 3950
Wire Wire Line
	7150 3950 7350 3950
Connection ~ 7150 3950
Wire Wire Line
	7150 3950 7150 4000
Connection ~ 7350 3950
$Comp
L power:GNDREF #PWR?
U 1 1 60674FE0
P 7700 4350
AR Path="/60674FE0" Ref="#PWR?"  Part="1" 
AR Path="/5FAFFE1A/60674FE0" Ref="#PWR05"  Part="1" 
F 0 "#PWR05" H 7700 4100 50  0001 C CNN
F 1 "GNDREF" H 7705 4177 50  0001 C CNN
F 2 "" H 7700 4350 50  0001 C CNN
F 3 "" H 7700 4350 50  0001 C CNN
	1    7700 4350
	1    0    0    -1  
$EndComp
$Comp
L power:+3V3 #PWR?
U 1 1 60674FE6
P 7150 3700
AR Path="/60674FE6" Ref="#PWR?"  Part="1" 
AR Path="/5FAFFE1A/60674FE6" Ref="#PWR02"  Part="1" 
F 0 "#PWR02" H 7150 3550 50  0001 C CNN
F 1 "+3V3" H 7165 3873 50  0000 C CNN
F 2 "" H 7150 3700 50  0001 C CNN
F 3 "" H 7150 3700 50  0001 C CNN
	1    7150 3700
	1    0    0    -1  
$EndComp
$Comp
L power:GNDREF #PWR?
U 1 1 60674FEC
P 7350 4200
AR Path="/60674FEC" Ref="#PWR?"  Part="1" 
AR Path="/5FAFFE1A/60674FEC" Ref="#PWR04"  Part="1" 
F 0 "#PWR04" H 7350 3950 50  0001 C CNN
F 1 "GNDREF" H 7355 4027 50  0001 C CNN
F 2 "" H 7350 4200 50  0001 C CNN
F 3 "" H 7350 4200 50  0001 C CNN
	1    7350 4200
	1    0    0    -1  
$EndComp
$Comp
L power:GNDREF #PWR?
U 1 1 60674FF2
P 7150 4200
AR Path="/60674FF2" Ref="#PWR?"  Part="1" 
AR Path="/5FAFFE1A/60674FF2" Ref="#PWR03"  Part="1" 
F 0 "#PWR03" H 7150 3950 50  0001 C CNN
F 1 "GNDREF" H 7155 4027 50  0001 C CNN
F 2 "" H 7150 4200 50  0001 C CNN
F 3 "" H 7150 4200 50  0001 C CNN
	1    7150 4200
	1    0    0    -1  
$EndComp
$Comp
L 74xGxx:74LVC3G17 U1
U 2 1 6068E4D8
P 4000 3250
F 0 "U1" H 3950 3100 50  0000 C CNN
F 1 "SN74LVC3G17" H 3950 3400 50  0000 C CNN
F 2 "Package_SO:VSSOP-8_2.3x2mm_P0.5mm" H 4000 3250 50  0001 C CNN
F 3 "http://www.ti.com/lit/sg/scyt129e/scyt129e.pdf" H 4000 3250 50  0001 C CNN
	2    4000 3250
	1    0    0    -1  
$EndComp
$Comp
L 74xGxx:74LVC3G17 U1
U 1 1 6068F356
P 4000 2100
F 0 "U1" H 3850 1950 50  0000 C CNN
F 1 "SN74LVC3G17" H 3700 2250 50  0000 C CNN
F 2 "Package_SO:VSSOP-8_2.3x2mm_P0.5mm" H 4000 2100 50  0001 C CNN
F 3 "http://www.ti.com/lit/sg/scyt129e/scyt129e.pdf" H 4000 2100 50  0001 C CNN
	1    4000 2100
	1    0    0    -1  
$EndComp
$Comp
L 74xGxx:74LVC3G17 U20
U 3 1 6068C6F9
P 4950 5000
F 0 "U20" H 4900 4850 50  0000 C CNN
F 1 "SN74LVC3G17" H 4900 5150 50  0001 C CNN
F 2 "Package_SO:VSSOP-8_2.3x2mm_P0.5mm" H 4950 5000 50  0001 C CNN
F 3 "http://www.ti.com/lit/sg/scyt129e/scyt129e.pdf" H 4950 5000 50  0001 C CNN
	3    4950 5000
	-1   0    0    -1  
$EndComp
$Comp
L 74xGxx:74LVC3G17 U20
U 1 1 6068D68D
P 8350 3950
F 0 "U20" H 8200 3800 50  0000 C CNN
F 1 "SN74LVC3G17" H 8050 4100 50  0000 C CNN
F 2 "Package_SO:VSSOP-8_2.3x2mm_P0.5mm" H 8350 3950 50  0001 C CNN
F 3 "http://www.ti.com/lit/sg/scyt129e/scyt129e.pdf" H 8350 3950 50  0001 C CNN
	1    8350 3950
	1    0    0    -1  
$EndComp
$Comp
L 74xGxx:74LVC3G17 U20
U 2 1 6068B78E
P 4950 4700
F 0 "U20" H 4900 4550 50  0000 C CNN
F 1 "SN74LVC3G17" H 4900 4850 50  0000 C CNN
F 2 "Package_SO:VSSOP-8_2.3x2mm_P0.5mm" H 4950 4700 50  0001 C CNN
F 3 "http://www.ti.com/lit/sg/scyt129e/scyt129e.pdf" H 4950 4700 50  0001 C CNN
	2    4950 4700
	-1   0    0    -1  
$EndComp
Wire Wire Line
	4600 5000 4700 5000
Wire Wire Line
	4600 3950 4600 5000
Wire Wire Line
	4700 4050 4700 4700
Wire Wire Line
	5500 5000 5250 5000
Connection ~ 5500 5000
Wire Wire Line
	5250 4700 5500 4700
Wire Wire Line
	5500 4700 5500 4900
Text HLabel 8650 3950 2    50   Input ~ 0
~rst
Wire Wire Line
	4350 2850 4700 2850
Wire Wire Line
	4700 2750 4250 2750
Wire Wire Line
	4250 2100 4250 2650
Wire Wire Line
	4250 2650 4700 2650
$Comp
L power:GNDREF #PWR?
U 1 1 5FA57D64
P 4600 2450
AR Path="/5FA57D64" Ref="#PWR?"  Part="1" 
AR Path="/5FAFFE1A/5FA57D64" Ref="#PWR010"  Part="1" 
F 0 "#PWR010" H 4600 2200 50  0001 C CNN
F 1 "GNDREF" H 4605 2277 50  0001 C CNN
F 2 "" H 4600 2450 50  0001 C CNN
F 3 "" H 4600 2450 50  0001 C CNN
	1    4600 2450
	1    0    0    -1  
$EndComp
Wire Wire Line
	4700 2450 4700 2550
$Comp
L Regulator_Linear:LD1117S33TR_SOT223 U?
U 1 1 5FA94BF5
P 8250 2800
AR Path="/5FA94BF5" Ref="U?"  Part="1" 
AR Path="/5FAFFE1A/5FA94BF5" Ref="U2"  Part="1" 
F 0 "U2" H 8250 3042 50  0000 C CNN
F 1 "LD1117S33TR_SOT223" H 8250 2951 50  0000 C CNN
F 2 "Package_TO_SOT_SMD:SOT-223-3_TabPin2" H 8250 3000 50  0001 C CNN
F 3 "https://www.mouser.com/ProductDetail/STMicroelectronics/LD1117S33CTR?qs=8u%2FLf1IQwKF9meFZLHfRog%3D%3D" H 8350 2550 50  0001 C CNN
	1    8250 2800
	1    0    0    -1  
$EndComp
$Comp
L Device:CP_Small C?
U 1 1 5FA94BFB
P 7550 2950
AR Path="/5FA94BFB" Ref="C?"  Part="1" 
AR Path="/5FAFFE1A/5FA94BFB" Ref="C3"  Part="1" 
F 0 "C3" H 7350 3000 50  0000 L CNN
F 1 "100u" H 7350 2900 50  0000 L CNN
F 2 "Capacitor_SMD:CP_Elec_6.3x7.7" H 7550 2950 50  0001 C CNN
F 3 "~" H 7550 2950 50  0001 C CNN
	1    7550 2950
	1    0    0    -1  
$EndComp
$Comp
L Device:C_Small C?
U 1 1 5FA94C01
P 7900 2950
AR Path="/5FA94C01" Ref="C?"  Part="1" 
AR Path="/5FAFFE1A/5FA94C01" Ref="C4"  Part="1" 
F 0 "C4" H 7700 3000 50  0000 L CNN
F 1 "100n" H 7650 2900 50  0000 L CNN
F 2 "Capacitor_SMD:C_0603_1608Metric" H 7900 2950 50  0001 C CNN
F 3 "~" H 7900 2950 50  0001 C CNN
	1    7900 2950
	1    0    0    -1  
$EndComp
$Comp
L Device:CP_Small C?
U 1 1 5FA94C07
P 9200 2950
AR Path="/5FA94C07" Ref="C?"  Part="1" 
AR Path="/5FAFFE1A/5FA94C07" Ref="C7"  Part="1" 
F 0 "C7" H 9000 3000 50  0000 L CNN
F 1 "100u" H 8950 2900 50  0000 L CNN
F 2 "Capacitor_SMD:CP_Elec_6.3x7.7" H 9200 2950 50  0001 C CNN
F 3 "~" H 9200 2950 50  0001 C CNN
	1    9200 2950
	1    0    0    -1  
$EndComp
$Comp
L Device:C_Small C?
U 1 1 5FA94C0D
P 8750 2950
AR Path="/5FA94C0D" Ref="C?"  Part="1" 
AR Path="/5FAFFE1A/5FA94C0D" Ref="C6"  Part="1" 
F 0 "C6" H 8550 3000 50  0000 L CNN
F 1 "4.7u" H 8500 2900 50  0000 L CNN
F 2 "Capacitor_SMD:C_0603_1608Metric" H 8750 2950 50  0001 C CNN
F 3 "~" H 8750 2950 50  0001 C CNN
	1    8750 2950
	1    0    0    -1  
$EndComp
Wire Wire Line
	7900 2850 7900 2800
Wire Wire Line
	7900 2800 7950 2800
Wire Wire Line
	8750 2850 8750 2800
Wire Wire Line
	8750 2800 8550 2800
Wire Wire Line
	8750 3100 8750 3050
Connection ~ 7900 2800
Wire Wire Line
	7550 2850 7550 2800
Connection ~ 7550 2800
Wire Wire Line
	7550 2800 7900 2800
Wire Wire Line
	8750 2800 9200 2800
Wire Wire Line
	9200 2800 9200 2850
Connection ~ 8750 2800
Wire Wire Line
	7900 3050 7900 3100
Wire Wire Line
	9200 3100 9200 3050
Wire Wire Line
	7550 3050 7550 3100
$Comp
L power:GNDREF #PWR?
U 1 1 5FA94C36
P 8250 3100
AR Path="/5FA94C36" Ref="#PWR?"  Part="1" 
AR Path="/5FAFFE1A/5FA94C36" Ref="#PWR09"  Part="1" 
F 0 "#PWR09" H 8250 2850 50  0001 C CNN
F 1 "GNDREF" H 8255 2927 50  0001 C CNN
F 2 "" H 8250 3100 50  0001 C CNN
F 3 "" H 8250 3100 50  0001 C CNN
	1    8250 3100
	1    0    0    -1  
$EndComp
$Comp
L power:+3V3 #PWR?
U 1 1 5FA94C3E
P 9200 2800
AR Path="/5FA94C3E" Ref="#PWR?"  Part="1" 
AR Path="/5FAFFE1A/5FA94C3E" Ref="#PWR0146"  Part="1" 
F 0 "#PWR0146" H 9200 2650 50  0001 C CNN
F 1 "+3V3" H 9215 2973 50  0000 C CNN
F 2 "" H 9200 2800 50  0001 C CNN
F 3 "" H 9200 2800 50  0001 C CNN
	1    9200 2800
	1    0    0    -1  
$EndComp
Connection ~ 9200 2800
$Comp
L Connector:Barrel_Jack J?
U 1 1 5FA94C45
P 7000 2900
AR Path="/5FA94C45" Ref="J?"  Part="1" 
AR Path="/5FAFFE1A/5FA94C45" Ref="J1"  Part="1" 
F 0 "J1" H 6850 3100 50  0000 C CNN
F 1 "PWR" H 7050 3100 50  0000 C CNN
F 2 "Connector_BarrelJack:BarrelJack_Horizontal" H 7050 2860 50  0001 C CNN
F 3 "~" H 7050 2860 50  0001 C CNN
	1    7000 2900
	1    0    0    -1  
$EndComp
$Comp
L Connector:TestPoint TP1
U 1 1 5FA80524
P 5850 2500
F 0 "TP1" H 5908 2618 50  0000 L CNN
F 1 "clk" H 5908 2527 50  0000 L CNN
F 2 "TestPoint:TestPoint_Keystone_5019_Minature" H 6050 2500 50  0001 C CNN
F 3 "~" H 6050 2500 50  0001 C CNN
	1    5850 2500
	1    0    0    -1  
$EndComp
Wire Wire Line
	5700 2550 5850 2550
Wire Wire Line
	5850 2500 5850 2550
Connection ~ 5850 2550
Wire Wire Line
	5850 2550 6100 2550
Text Notes 5300 3500 1    50   ~ 0
Dual 4X1 Mux
$Comp
L Device:R_Small_US R?
U 1 1 5FADECFE
P 2450 2250
AR Path="/5FADECFE" Ref="R?"  Part="1" 
AR Path="/5FAFFE1A/5FADECFE" Ref="R4"  Part="1" 
F 0 "R4" H 2500 2300 50  0000 L CNN
F 1 "50" H 2500 2200 50  0000 L CNN
F 2 "Resistor_SMD:R_0603_1608Metric" H 2450 2250 50  0001 C CNN
F 3 "~" H 2450 2250 50  0001 C CNN
	1    2450 2250
	1    0    0    -1  
$EndComp
Wire Wire Line
	2450 2100 2450 2150
$Comp
L power:GNDREF #PWR?
U 1 1 5FAF0E35
P 2450 2350
AR Path="/5FAF0E35" Ref="#PWR?"  Part="1" 
AR Path="/5FAFFE1A/5FAF0E35" Ref="#PWR0208"  Part="1" 
F 0 "#PWR0208" H 2450 2100 50  0001 C CNN
F 1 "GNDREF" H 2455 2177 50  0001 C CNN
F 2 "" H 2450 2350 50  0001 C CNN
F 3 "" H 2450 2350 50  0001 C CNN
	1    2450 2350
	1    0    0    -1  
$EndComp
Connection ~ 2450 2100
Wire Wire Line
	3200 1750 3150 1750
$Comp
L power:GNDREF #PWR?
U 1 1 5FB4D4D5
P 3400 1750
AR Path="/5FB4D4D5" Ref="#PWR?"  Part="1" 
AR Path="/5FAFFE1A/5FB4D4D5" Ref="#PWR0210"  Part="1" 
F 0 "#PWR0210" H 3400 1500 50  0001 C CNN
F 1 "GNDREF" H 3405 1577 50  0001 C CNN
F 2 "" H 3400 1750 50  0001 C CNN
F 3 "" H 3400 1750 50  0001 C CNN
	1    3400 1750
	1    0    0    -1  
$EndComp
$Comp
L power:+3V3 #PWR?
U 1 1 5FB4D4DB
P 3150 1750
AR Path="/5FB4D4DB" Ref="#PWR?"  Part="1" 
AR Path="/5FAFFE1A/5FB4D4DB" Ref="#PWR0211"  Part="1" 
F 0 "#PWR0211" H 3150 1600 50  0001 C CNN
F 1 "+3V3" H 3165 1923 50  0000 C CNN
F 2 "" H 3150 1750 50  0001 C CNN
F 3 "" H 3150 1750 50  0001 C CNN
	1    3150 1750
	1    0    0    -1  
$EndComp
$Comp
L Device:C_Small C?
U 1 1 5FB4D4E1
P 3300 1750
AR Path="/5FB4D4E1" Ref="C?"  Part="1" 
AR Path="/5FAFFE1A/5FB4D4E1" Ref="C60"  Part="1" 
F 0 "C60" V 3200 1650 50  0000 L CNN
F 1 "100n" V 3250 1800 50  0000 L CNN
F 2 "Capacitor_SMD:C_0603_1608Metric" H 3300 1750 50  0001 C CNN
F 3 "~" H 3300 1750 50  0001 C CNN
	1    3300 1750
	0    1    1    0   
$EndComp
$Comp
L power:GNDREF #PWR?
U 1 1 5FD58805
P 8750 3100
AR Path="/5FD58805" Ref="#PWR?"  Part="1" 
AR Path="/5FAFFE1A/5FD58805" Ref="#PWR0213"  Part="1" 
F 0 "#PWR0213" H 8750 2850 50  0001 C CNN
F 1 "GNDREF" H 8755 2927 50  0001 C CNN
F 2 "" H 8750 3100 50  0001 C CNN
F 3 "" H 8750 3100 50  0001 C CNN
	1    8750 3100
	1    0    0    -1  
$EndComp
$Comp
L power:GNDREF #PWR?
U 1 1 5FD58A7D
P 9200 3100
AR Path="/5FD58A7D" Ref="#PWR?"  Part="1" 
AR Path="/5FAFFE1A/5FD58A7D" Ref="#PWR0214"  Part="1" 
F 0 "#PWR0214" H 9200 2850 50  0001 C CNN
F 1 "GNDREF" H 9205 2927 50  0001 C CNN
F 2 "" H 9200 3100 50  0001 C CNN
F 3 "" H 9200 3100 50  0001 C CNN
	1    9200 3100
	1    0    0    -1  
$EndComp
$Comp
L power:GNDREF #PWR?
U 1 1 5FD5903B
P 7900 3100
AR Path="/5FD5903B" Ref="#PWR?"  Part="1" 
AR Path="/5FAFFE1A/5FD5903B" Ref="#PWR0215"  Part="1" 
F 0 "#PWR0215" H 7900 2850 50  0001 C CNN
F 1 "GNDREF" H 7905 2927 50  0001 C CNN
F 2 "" H 7900 3100 50  0001 C CNN
F 3 "" H 7900 3100 50  0001 C CNN
	1    7900 3100
	1    0    0    -1  
$EndComp
$Comp
L power:GNDREF #PWR?
U 1 1 5FD593DC
P 7550 3100
AR Path="/5FD593DC" Ref="#PWR?"  Part="1" 
AR Path="/5FAFFE1A/5FD593DC" Ref="#PWR0216"  Part="1" 
F 0 "#PWR0216" H 7550 2850 50  0001 C CNN
F 1 "GNDREF" H 7555 2927 50  0001 C CNN
F 2 "" H 7550 3100 50  0001 C CNN
F 3 "" H 7550 3100 50  0001 C CNN
	1    7550 3100
	1    0    0    -1  
$EndComp
Wire Wire Line
	2450 2100 2650 2100
Text Label 7350 2800 0    50   ~ 0
V+
Wire Wire Line
	7300 2800 7550 2800
Wire Wire Line
	7300 3200 7300 3000
$Comp
L power:GNDREF #PWR?
U 1 1 5FD5ACAA
P 7300 3200
AR Path="/5FD5ACAA" Ref="#PWR?"  Part="1" 
AR Path="/5FAFFE1A/5FD5ACAA" Ref="#PWR0217"  Part="1" 
F 0 "#PWR0217" H 7300 2950 50  0001 C CNN
F 1 "GNDREF" H 7305 3027 50  0001 C CNN
F 2 "" H 7300 3200 50  0001 C CNN
F 3 "" H 7300 3200 50  0001 C CNN
	1    7300 3200
	1    0    0    -1  
$EndComp
Text Label 7300 3200 1    50   ~ 0
GND
Wire Wire Line
	8600 3950 8650 3950
Text Label 4350 2650 0    50   ~ 0
ext_clk
Text Label 4350 2750 0    50   ~ 0
button_clk
Text Label 4350 2850 0    50   ~ 0
555_clk
Wire Wire Line
	5500 5000 5500 5200
Connection ~ 6100 4900
Wire Wire Line
	4600 2450 4700 2450
Wire Wire Line
	3650 3850 3650 4300
Wire Wire Line
	3650 3850 3700 3850
Text Notes 2900 4450 0    50   ~ 0
1Hz-1kHz
$Comp
L 74xGxx:74LVC3G17 U1
U 3 1 6069030A
P 4000 3850
F 0 "U1" H 4100 3750 50  0000 C CNN
F 1 "SN74LVC3G17" H 4000 4000 50  0000 C CNN
F 2 "Package_SO:VSSOP-8_2.3x2mm_P0.5mm" H 4000 3850 50  0001 C CNN
F 3 "http://www.ti.com/lit/sg/scyt129e/scyt129e.pdf" H 4000 3850 50  0001 C CNN
	3    4000 3850
	1    0    0    -1  
$EndComp
Wire Wire Line
	4350 3850 4350 2850
Wire Wire Line
	4250 3850 4350 3850
Wire Wire Line
	3550 4300 3650 4300
Connection ~ 3800 5150
Wire Wire Line
	3800 5200 3800 5150
Wire Wire Line
	2400 4700 2550 4700
Wire Wire Line
	2400 4650 2400 4700
$Comp
L power:+3V3 #PWR?
U 1 1 5FB17AA0
P 2400 4650
AR Path="/5FB17AA0" Ref="#PWR?"  Part="1" 
AR Path="/5FAFFE1A/5FB17AA0" Ref="#PWR012"  Part="1" 
F 0 "#PWR012" H 2400 4500 50  0001 C CNN
F 1 "+3V3" H 2415 4823 50  0000 C CNN
F 2 "" H 2400 4650 50  0001 C CNN
F 3 "" H 2400 4650 50  0001 C CNN
	1    2400 4650
	1    0    0    -1  
$EndComp
$Comp
L power:GNDREF #PWR?
U 1 1 5FB17A9A
P 3800 5400
AR Path="/5FB17A9A" Ref="#PWR?"  Part="1" 
AR Path="/5FAFFE1A/5FB17A9A" Ref="#PWR027"  Part="1" 
F 0 "#PWR027" H 3800 5150 50  0001 C CNN
F 1 "GNDREF" H 3805 5227 50  0001 C CNN
F 2 "" H 3800 5400 50  0001 C CNN
F 3 "" H 3800 5400 50  0001 C CNN
	1    3800 5400
	1    0    0    -1  
$EndComp
Connection ~ 3550 5150
Wire Wire Line
	3800 4800 3800 4750
Wire Wire Line
	3800 5150 3800 5100
Wire Wire Line
	3550 5150 3800 5150
$Comp
L Device:R_POT_US RV?
U 1 1 5FB17A8F
P 3800 4950
AR Path="/5FB17A8F" Ref="RV?"  Part="1" 
AR Path="/5FAFFE1A/5FB17A8F" Ref="RV1"  Part="1" 
F 0 "RV1" H 3732 4904 50  0000 R CNN
F 1 "1M" H 3732 4995 50  0000 R CNN
F 2 "Potentiometer_SMD:Potentiometer_Bourns_3224W_Vertical" H 3800 4950 50  0001 C CNN
F 3 "~" H 3800 4950 50  0001 C CNN
	1    3800 4950
	1    0    0    -1  
$EndComp
Connection ~ 3800 4500
Wire Wire Line
	3800 4500 3800 4450
Wire Wire Line
	3800 4550 3800 4500
Wire Wire Line
	2250 4300 2550 4300
Wire Wire Line
	2250 5150 2250 4300
Wire Wire Line
	3550 5150 2250 5150
Wire Wire Line
	3550 4700 3550 5150
Wire Wire Line
	3550 4500 3800 4500
$Comp
L power:+3V3 #PWR?
U 1 1 5FB17A7F
P 3800 4250
AR Path="/5FB17A7F" Ref="#PWR?"  Part="1" 
AR Path="/5FAFFE1A/5FB17A7F" Ref="#PWR026"  Part="1" 
F 0 "#PWR026" H 3800 4100 50  0001 C CNN
F 1 "+3V3" H 3815 4423 50  0000 C CNN
F 2 "" H 3800 4250 50  0001 C CNN
F 3 "" H 3800 4250 50  0001 C CNN
	1    3800 4250
	1    0    0    -1  
$EndComp
NoConn ~ 2550 4500
$Comp
L power:GNDREF #PWR?
U 1 1 5FB17A78
P 3050 4900
AR Path="/5FB17A78" Ref="#PWR?"  Part="1" 
AR Path="/5FAFFE1A/5FB17A78" Ref="#PWR018"  Part="1" 
F 0 "#PWR018" H 3050 4650 50  0001 C CNN
F 1 "GNDREF" H 3055 4727 50  0001 C CNN
F 2 "" H 3050 4900 50  0001 C CNN
F 3 "" H 3050 4900 50  0001 C CNN
	1    3050 4900
	1    0    0    -1  
$EndComp
Connection ~ 3050 4000
Wire Wire Line
	3050 4000 3050 4100
Wire Wire Line
	3100 4000 3050 4000
$Comp
L power:GNDREF #PWR?
U 1 1 5FB17A6F
P 3300 4000
AR Path="/5FB17A6F" Ref="#PWR?"  Part="1" 
AR Path="/5FAFFE1A/5FB17A6F" Ref="#PWR021"  Part="1" 
F 0 "#PWR021" H 3300 3750 50  0001 C CNN
F 1 "GNDREF" H 3305 3827 50  0001 C CNN
F 2 "" H 3300 4000 50  0001 C CNN
F 3 "" H 3300 4000 50  0001 C CNN
	1    3300 4000
	1    0    0    -1  
$EndComp
$Comp
L power:+3V3 #PWR?
U 1 1 5FB17A69
P 3050 4000
AR Path="/5FB17A69" Ref="#PWR?"  Part="1" 
AR Path="/5FAFFE1A/5FB17A69" Ref="#PWR017"  Part="1" 
F 0 "#PWR017" H 3050 3850 50  0001 C CNN
F 1 "+3V3" H 3065 4173 50  0000 C CNN
F 2 "" H 3050 4000 50  0001 C CNN
F 3 "" H 3050 4000 50  0001 C CNN
	1    3050 4000
	1    0    0    -1  
$EndComp
$Comp
L Device:C_Small C?
U 1 1 5FB17A51
P 3800 5300
AR Path="/5FB17A51" Ref="C?"  Part="1" 
AR Path="/5FAFFE1A/5FB17A51" Ref="C12"  Part="1" 
F 0 "C12" H 3850 5400 50  0000 L CNN
F 1 "1u" H 3900 5300 50  0000 L CNN
F 2 "Capacitor_SMD:C_0603_1608Metric" H 3800 5300 50  0001 C CNN
F 3 "~" H 3800 5300 50  0001 C CNN
	1    3800 5300
	1    0    0    -1  
$EndComp
$Comp
L Device:R_Small_US R?
U 1 1 5FB17A4B
P 3800 4350
AR Path="/5FB17A4B" Ref="R?"  Part="1" 
AR Path="/5FAFFE1A/5FB17A4B" Ref="R5"  Part="1" 
F 0 "R5" H 3650 4300 50  0000 L CNN
F 1 "220" H 3600 4400 50  0000 L CNN
F 2 "Resistor_SMD:R_0603_1608Metric" H 3800 4350 50  0001 C CNN
F 3 "~" H 3800 4350 50  0001 C CNN
	1    3800 4350
	-1   0    0    1   
$EndComp
$Comp
L Device:R_Small_US R?
U 1 1 5FB17A45
P 3800 4650
AR Path="/5FB17A45" Ref="R?"  Part="1" 
AR Path="/5FAFFE1A/5FB17A45" Ref="R6"  Part="1" 
F 0 "R6" H 3650 4600 50  0000 L CNN
F 1 "470" H 3600 4700 50  0000 L CNN
F 2 "Resistor_SMD:R_0603_1608Metric" H 3800 4650 50  0001 C CNN
F 3 "~" H 3800 4650 50  0001 C CNN
	1    3800 4650
	-1   0    0    1   
$EndComp
$Comp
L Device:C_Small C?
U 1 1 5FB17A3F
P 3200 4000
AR Path="/5FB17A3F" Ref="C?"  Part="1" 
AR Path="/5FAFFE1A/5FB17A3F" Ref="C9"  Part="1" 
F 0 "C9" V 3100 3900 50  0000 L CNN
F 1 "100n" V 3150 4050 50  0000 L CNN
F 2 "Capacitor_SMD:C_0603_1608Metric" H 3200 4000 50  0001 C CNN
F 3 "~" H 3200 4000 50  0001 C CNN
	1    3200 4000
	0    1    1    0   
$EndComp
$Comp
L Timer:TLC555xD U?
U 1 1 5FB17A33
P 3050 4500
AR Path="/5FB17A33" Ref="U?"  Part="1" 
AR Path="/5FAFFE1A/5FB17A33" Ref="U19"  Part="1" 
F 0 "U19" H 2750 4850 50  0000 C CNN
F 1 "TLC555xD" H 3050 4500 50  0000 C CNN
F 2 "Package_SO:SOIC-8_3.9x4.9mm_P1.27mm" H 3900 4100 50  0001 C CNN
F 3 "https://www.digikey.com/en/products/detail/texas-instruments/TLC555CDR/276979" H 3900 4100 50  0001 C CNN
	1    3050 4500
	1    0    0    -1  
$EndComp
Text Notes 7300 3650 0    50   ~ 0
Power on reset - 35ms
Wire Wire Line
	3800 5150 3950 5150
Wire Wire Line
	3950 5150 3950 4950
$Comp
L Logic_LevelTranslator:SN74AUP1T34DCK U52
U 1 1 5FB72E03
P 3050 2100
F 0 "U52" H 2700 2350 50  0000 L CNN
F 1 "SN74AUP1T34DCK" H 3100 1850 50  0000 L CNN
F 2 "Package_TO_SOT_SMD:SOT-353_SC-70-5" H 3050 1400 50  0001 C CNN
F 3 "http://www.ti.com/lit/ds/symlink/sn74aup1t34.pdf" H 3050 1500 50  0001 C CNN
	1    3050 2100
	1    0    0    -1  
$EndComp
$Comp
L Reference_Voltage:ISL21070CIH320Z-TK U51
U 1 1 5FB77D6C
P 2600 1450
F 0 "U51" H 2750 1700 50  0000 R CNN
F 1 "ISL21080DH310Z" V 2350 1800 50  0000 R CNN
F 2 "Package_TO_SOT_SMD:SOT-23" H 3100 1200 50  0001 C CIN
F 3 "http://www.intersil.com/content/dam/Intersil/documents/fn75/fn7599.pdf" H 2600 1450 50  0001 C CIN
	1    2600 1450
	1    0    0    -1  
$EndComp
$Comp
L power:GNDREF #PWR?
U 1 1 5FB9E28F
P 2500 1750
AR Path="/5FB9E28F" Ref="#PWR?"  Part="1" 
AR Path="/5FAFFE1A/5FB9E28F" Ref="#PWR0209"  Part="1" 
F 0 "#PWR0209" H 2500 1500 50  0001 C CNN
F 1 "GNDREF" H 2505 1577 50  0001 C CNN
F 2 "" H 2500 1750 50  0001 C CNN
F 3 "" H 2500 1750 50  0001 C CNN
	1    2500 1750
	1    0    0    -1  
$EndComp
$Comp
L power:GNDREF #PWR?
U 1 1 5FB9E8AE
P 3050 2400
AR Path="/5FB9E8AE" Ref="#PWR?"  Part="1" 
AR Path="/5FAFFE1A/5FB9E8AE" Ref="#PWR0212"  Part="1" 
F 0 "#PWR0212" H 3050 2150 50  0001 C CNN
F 1 "GNDREF" H 3055 2227 50  0001 C CNN
F 2 "" H 3050 2400 50  0001 C CNN
F 3 "" H 3050 2400 50  0001 C CNN
	1    3050 2400
	1    0    0    -1  
$EndComp
Wire Wire Line
	2950 1800 2950 1450
Wire Wire Line
	2950 1450 2900 1450
$Comp
L power:+3V3 #PWR?
U 1 1 5FBA3584
P 2500 1150
AR Path="/5FBA3584" Ref="#PWR?"  Part="1" 
AR Path="/5FAFFE1A/5FBA3584" Ref="#PWR0232"  Part="1" 
F 0 "#PWR0232" H 2500 1000 50  0001 C CNN
F 1 "+3V3" H 2515 1323 50  0000 C CNN
F 2 "" H 2500 1150 50  0001 C CNN
F 3 "" H 2500 1150 50  0001 C CNN
	1    2500 1150
	1    0    0    -1  
$EndComp
Wire Wire Line
	3150 1800 3150 1750
Connection ~ 3150 1750
Wire Wire Line
	3450 2100 3700 2100
Text Notes 2950 1750 1    50   ~ 0
1.024V
$EndSCHEMATC
